<?xml version="1.0" encoding="UTF-8" standalone="no"?>
<!-- Generator: Adobe Illustrator 21.1.0, SVG Export Plug-In . SVG Version: 6.00 Build 0)  -->

<svg
   xmlns:dc="http://purl.org/dc/elements/1.1/"
   xmlns:cc="http://creativecommons.org/ns#"
   xmlns:rdf="http://www.w3.org/1999/02/22-rdf-syntax-ns#"
   xmlns:svg="http://www.w3.org/2000/svg"
   xmlns="http://www.w3.org/2000/svg"
   xmlns:sodipodi="http://sodipodi.sourceforge.net/DTD/sodipodi-0.dtd"
   xmlns:inkscape="http://www.inkscape.org/namespaces/inkscape"
   version="1.1"
   x="0px"
   y="0px"
   viewBox="0 0 1700.8 1133.9"
   style="enable-background:new 0 0 1700.8 1133.9;"
   xml:space="preserve"
   id="svg1434"
   sodipodi:docname="calque_18_EN.svg"
   inkscape:version="0.92.2 5c3e80d, 2017-08-06"><metadata
     id="metadata1440"><rdf:RDF><cc:Work
         rdf:about=""><dc:format>image/svg+xml</dc:format><dc:type
           rdf:resource="http://purl.org/dc/dcmitype/StillImage" /><dc:title /></cc:Work></rdf:RDF></metadata><defs
     id="defs1438" /><sodipodi:namedview
     pagecolor="#ffffff"
     bordercolor="#666666"
     borderopacity="1"
     objecttolerance="10"
     gridtolerance="10"
     guidetolerance="10"
     inkscape:pageopacity="0"
     inkscape:pageshadow="2"
     inkscape:window-width="1440"
     inkscape:window-height="776"
     id="namedview1436"
     showgrid="false"
     inkscape:zoom="0.8325249"
     inkscape:cx="1317.736"
     inkscape:cy="817.62477"
     inkscape:window-x="0"
     inkscape:window-y="1"
     inkscape:window-maximized="1"
     inkscape:current-layer="g1428"
     showguides="true"
     inkscape:guide-bbox="true" /><style
     type="text/css"
     id="style2">
	.st0{fill:none;stroke:#FF0000;stroke-width:1.000000e-02;stroke-linecap:round;stroke-linejoin:round;stroke-miterlimit:10;}
	.st1{fill:none;stroke:#0000FF;stroke-miterlimit:10;}
</style><g
     id="Calque_18"
     style="stroke:#ff0000;stroke-opacity:1"><g
       id="LINE_4929_"
       style="stroke:#ff0000;stroke-opacity:1"><line
         class="st0"
         x1="680.29999"
         y1="170.10001"
         x2="737"
         y2="170.10001"
         id="line4"
         style="stroke:#ff0000;stroke-opacity:1" /></g><g
       id="LINE_4928_"
       style="stroke:#ff0000;stroke-opacity:1"><line
         class="st0"
         x1="850.40002"
         y1="453.5"
         x2="907.09998"
         y2="453.5"
         id="line7"
         style="stroke:#ff0000;stroke-opacity:1" /></g><g
       id="LINE_4927_"
       style="stroke:#ff0000;stroke-opacity:1"><line
         class="st0"
         x1="907.09998"
         y1="453.5"
         x2="907.09998"
         y2="566.90002"
         id="line10"
         style="stroke:#ff0000;stroke-opacity:1" /></g><g
       id="LINE_4926_"
       style="stroke:#ff0000;stroke-opacity:1"><line
         class="st0"
         x1="737"
         y1="170.10001"
         x2="737"
         y2="0"
         id="line13"
         style="stroke:#ff0000;stroke-opacity:1" /></g><g
       id="LINE_4925_"
       style="stroke:#ff0000;stroke-opacity:1"><line
         class="st0"
         x1="566.90002"
         y1="0"
         x2="680.29999"
         y2="0"
         id="line16"
         style="stroke:#ff0000;stroke-opacity:1" /></g><g
       id="LINE_4924_"
       style="stroke:#ff0000;stroke-opacity:1"><line
         class="st0"
         x1="566.90002"
         y1="566.90002"
         x2="566.90002"
         y2="0"
         id="line19"
         style="stroke:#ff0000;stroke-opacity:1" /></g><g
       id="LINE_4923_"
       style="stroke:#ff0000;stroke-opacity:1"><line
         class="st0"
         x1="737"
         y1="0"
         x2="1133.9"
         y2="0"
         id="line22"
         style="stroke:#ff0000;stroke-opacity:1" /></g><g
       id="LINE_4922_"
       style="stroke:#ff0000;stroke-opacity:1"><line
         class="st0"
         x1="680.29999"
         y1="0"
         x2="680.29999"
         y2="170.10001"
         id="line25"
         style="stroke:#ff0000;stroke-opacity:1" /></g><g
       id="LINE_4921_"
       style="stroke:#ff0000;stroke-opacity:1"><line
         class="st0"
         x1="850.40002"
         y1="566.90002"
         x2="566.90002"
         y2="566.90002"
         id="line28"
         style="stroke:#ff0000;stroke-opacity:1" /></g><g
       id="LINE_4920_"
       style="stroke:#ff0000;stroke-opacity:1"><line
         class="st0"
         x1="850.40002"
         y1="453.5"
         x2="850.40002"
         y2="566.90002"
         id="line31"
         style="stroke:#ff0000;stroke-opacity:1" /></g><g
       id="LINE_4919_"
       style="stroke:#ff0000;stroke-opacity:1"><line
         class="st0"
         x1="907.09998"
         y1="566.90002"
         x2="1133.9"
         y2="566.90002"
         id="line34"
         style="stroke:#ff0000;stroke-opacity:1" /></g><g
       id="LINE_4918_"
       style="stroke:#ff0000;stroke-opacity:1"><line
         class="st0"
         x1="0"
         y1="0"
         x2="113.4"
         y2="0"
         id="line37"
         style="stroke:#ff0000;stroke-opacity:1" /></g><g
       id="LINE_4917_"
       style="stroke:#ff0000;stroke-opacity:1"><line
         class="st0"
         x1="283.5"
         y1="566.90002"
         x2="0"
         y2="566.90002"
         id="line40"
         style="stroke:#ff0000;stroke-opacity:1" /></g><g
       id="LINE_4916_"
       style="stroke:#ff0000;stroke-opacity:1"><line
         class="st0"
         x1="510.20001"
         y1="396.89999"
         x2="56.700001"
         y2="396.89999"
         id="line43"
         style="stroke:#ff0000;stroke-opacity:1" /></g><g
       id="LINE_4915_"
       style="stroke:#ff0000;stroke-opacity:1"><line
         class="st0"
         x1="170.10001"
         y1="0"
         x2="566.90002"
         y2="0"
         id="line46"
         style="stroke:#ff0000;stroke-opacity:1" /></g><g
       id="LINE_4914_"
       style="stroke:#ff0000;stroke-opacity:1"><line
         class="st0"
         x1="56.700001"
         y1="170.10001"
         x2="56.700001"
         y2="226.8"
         id="line49"
         style="stroke:#ff0000;stroke-opacity:1" /></g><g
       id="LINE_4913_"
       style="stroke:#ff0000;stroke-opacity:1"><line
         class="st0"
         x1="113.4"
         y1="0"
         x2="113.4"
         y2="170.10001"
         id="line52"
         style="stroke:#ff0000;stroke-opacity:1" /></g><g
       id="LINE_4912_"
       style="stroke:#ff0000;stroke-opacity:1"><line
         class="st0"
         x1="0"
         y1="566.90002"
         x2="0"
         y2="0"
         id="line55"
         style="stroke:#ff0000;stroke-opacity:1" /></g><g
       id="LINE_4911_"
       style="stroke:#ff0000;stroke-opacity:1"><line
         class="st0"
         x1="56.700001"
         y1="396.89999"
         x2="56.700001"
         y2="453.5"
         id="line58"
         style="stroke:#ff0000;stroke-opacity:1" /></g><g
       id="LINE_4910_"
       style="stroke:#ff0000;stroke-opacity:1"><line
         class="st0"
         x1="510.20001"
         y1="453.5"
         x2="340.20001"
         y2="453.5"
         id="line61"
         style="stroke:#ff0000;stroke-opacity:1" /></g><g
       id="LINE_4909_"
       style="stroke:#ff0000;stroke-opacity:1"><line
         class="st0"
         x1="283.5"
         y1="453.5"
         x2="283.5"
         y2="566.90002"
         id="line64"
         style="stroke:#ff0000;stroke-opacity:1" /></g><g
       id="LINE_4908_"
       style="stroke:#ff0000;stroke-opacity:1"><line
         class="st0"
         x1="56.700001"
         y1="453.5"
         x2="283.5"
         y2="453.5"
         id="line67"
         style="stroke:#ff0000;stroke-opacity:1" /></g><g
       id="LINE_4907_"
       style="stroke:#ff0000;stroke-opacity:1"><line
         class="st0"
         x1="510.20001"
         y1="453.5"
         x2="510.20001"
         y2="396.89999"
         id="line70"
         style="stroke:#ff0000;stroke-opacity:1" /></g><g
       id="LINE_4906_"
       style="stroke:#ff0000;stroke-opacity:1"><line
         class="st0"
         x1="340.20001"
         y1="453.5"
         x2="340.20001"
         y2="566.90002"
         id="line73"
         style="stroke:#ff0000;stroke-opacity:1" /></g><g
       id="LINE_4905_"
       style="stroke:#ff0000;stroke-opacity:1"><line
         class="st0"
         x1="340.20001"
         y1="566.90002"
         x2="566.90002"
         y2="566.90002"
         id="line76"
         style="stroke:#ff0000;stroke-opacity:1" /></g><g
       id="LINE_4904_"
       style="stroke:#ff0000;stroke-opacity:1"><line
         class="st0"
         x1="170.10001"
         y1="170.10001"
         x2="170.10001"
         y2="0"
         id="line79"
         style="stroke:#ff0000;stroke-opacity:1" /></g><g
       id="LINE_4903_"
       style="stroke:#ff0000;stroke-opacity:1"><line
         class="st0"
         x1="510.20001"
         y1="170.10001"
         x2="170.10001"
         y2="170.10001"
         id="line82"
         style="stroke:#ff0000;stroke-opacity:1" /></g><g
       id="LINE_4902_"
       style="stroke:#ff0000;stroke-opacity:1"><line
         class="st0"
         x1="510.20001"
         y1="226.8"
         x2="510.20001"
         y2="170.10001"
         id="line85"
         style="stroke:#ff0000;stroke-opacity:1" /></g><g
       id="LINE_4901_"
       style="stroke:#ff0000;stroke-opacity:1"><line
         class="st0"
         x1="56.700001"
         y1="226.8"
         x2="510.20001"
         y2="226.8"
         id="line88"
         style="stroke:#ff0000;stroke-opacity:1" /></g><g
       id="LINE_4900_"
       style="stroke:#ff0000;stroke-opacity:1"><line
         class="st0"
         x1="113.4"
         y1="170.10001"
         x2="56.700001"
         y2="170.10001"
         id="line91"
         style="stroke:#ff0000;stroke-opacity:1" /></g><g
       id="LINE_4899_"
       style="stroke:#ff0000;stroke-opacity:1"><line
         class="st0"
         x1="1474"
         y1="1133.9"
         x2="1474"
         y2="1020.5"
         id="line94"
         style="stroke:#ff0000;stroke-opacity:1" /></g><g
       id="LINE_4898_"
       style="stroke:#ff0000;stroke-opacity:1"><line
         class="st0"
         x1="1587.4"
         y1="850.40002"
         x2="1587.4"
         y2="963.79999"
         id="line97"
         style="stroke:#ff0000;stroke-opacity:1" /></g><g
       id="LINE_4897_"
       style="stroke:#ff0000;stroke-opacity:1"><line
         class="st0"
         x1="1417.3"
         y1="907.09998"
         x2="1474"
         y2="907.09998"
         id="line100"
         style="stroke:#ff0000;stroke-opacity:1" /></g><g
       id="LINE_4896_"
       style="stroke:#ff0000;stroke-opacity:1"><line
         class="st0"
         x1="1530.7"
         y1="737"
         x2="1530.7"
         y2="680.29999"
         id="line103"
         style="stroke:#ff0000;stroke-opacity:1" /></g><g
       id="LINE_4895_"
       style="stroke:#ff0000;stroke-opacity:1"><line
         class="st0"
         x1="1644.1"
         y1="623.59998"
         x2="1644.1"
         y2="680.29999"
         id="line106"
         style="stroke:#ff0000;stroke-opacity:1" /></g><g
       id="LINE_4894_"
       style="fill:none;stroke:#ff0000;stroke-opacity:1"><polyline
         class="st0"
         points="1303.9,566.9 1700.8,566.9 1700.8,0 1133.9,0 1133.9,566.9   "
         id="polyline109"
         style="fill:none;stroke:#ff0000;stroke-opacity:1" /></g><g
       id="LINE_4893_"
       style="stroke:#ff0000;stroke-opacity:1"><line
         class="st0"
         x1="1587.4"
         y1="963.79999"
         x2="1644.1"
         y2="963.79999"
         id="line112"
         style="stroke:#ff0000;stroke-opacity:1" /></g><g
       id="LINE_4892_"
       style="stroke:#ff0000;stroke-opacity:1"><line
         class="st0"
         x1="1360.6"
         y1="963.79999"
         x2="1360.6"
         y2="793.70001"
         id="line115"
         style="stroke:#ff0000;stroke-opacity:1" /></g><g
       id="LINE_4891_"
       style="stroke:#ff0000;stroke-opacity:1"><line
         class="st0"
         x1="1530.7"
         y1="680.29999"
         x2="1417.3"
         y2="680.29999"
         id="line118"
         style="stroke:#ff0000;stroke-opacity:1" /></g><g
       id="LINE_4890_"
       style="stroke:#ff0000;stroke-opacity:1"><line
         class="st0"
         x1="1417.3"
         y1="793.70001"
         x2="1417.3"
         y2="907.09998"
         id="line121"
         style="stroke:#ff0000;stroke-opacity:1" /></g><g
       id="LINE_4889_"
       style="stroke:#ff0000;stroke-opacity:1"><line
         class="st0"
         x1="1474"
         y1="1020.5"
         x2="1644.1"
         y2="1020.5"
         id="line124"
         style="stroke:#ff0000;stroke-opacity:1" /></g><g
       id="LINE_4888_"
       style="stroke:#ff0000;stroke-opacity:1"><line
         class="st0"
         x1="1360.6"
         y1="793.70001"
         x2="1417.3"
         y2="793.70001"
         id="line127"
         style="stroke:#ff0000;stroke-opacity:1" /></g><g
       id="LINE_4887_"
       style="stroke:#ff0000;stroke-opacity:1"><line
         class="st0"
         x1="1644.1"
         y1="737"
         x2="1644.1"
         y2="793.70001"
         id="line130"
         style="stroke:#ff0000;stroke-opacity:1" /></g><g
       id="LINE_4886_"
       style="stroke:#ff0000;stroke-opacity:1"><line
         class="st0"
         x1="1587.4"
         y1="737"
         x2="1644.1"
         y2="737"
         id="line133"
         style="stroke:#ff0000;stroke-opacity:1" /></g><g
       id="LINE_4885_"
       style="stroke:#ff0000;stroke-opacity:1"><line
         class="st0"
         x1="1700.8"
         y1="566.90002"
         x2="1700.8"
         y2="1133.9"
         id="line136"
         style="stroke:#ff0000;stroke-opacity:1" /></g><g
       id="LINE_4884_"
       style="stroke:#ff0000;stroke-opacity:1"><line
         class="st0"
         x1="1587.4"
         y1="680.29999"
         x2="1587.4"
         y2="737"
         id="line139"
         style="stroke:#ff0000;stroke-opacity:1" /></g><g
       id="LINE_4883_"
       style="stroke:#ff0000;stroke-opacity:1"><line
         class="st0"
         x1="1417.3"
         y1="623.59998"
         x2="1644.1"
         y2="623.59998"
         id="line142"
         style="stroke:#ff0000;stroke-opacity:1" /></g><g
       id="LINE_4882_"
       style="stroke:#ff0000;stroke-opacity:1"><line
         class="st0"
         x1="1303.9"
         y1="737"
         x2="1530.7"
         y2="737"
         id="line145"
         style="stroke:#ff0000;stroke-opacity:1" /></g><g
       id="LINE_4881_"
       style="stroke:#ff0000;stroke-opacity:1"><line
         class="st0"
         x1="1530.7"
         y1="963.79999"
         x2="1360.6"
         y2="963.79999"
         id="line148"
         style="stroke:#ff0000;stroke-opacity:1" /></g><g
       id="LINE_4880_"
       style="stroke:#ff0000;stroke-opacity:1"><line
         class="st0"
         x1="1474"
         y1="907.09998"
         x2="1474"
         y2="793.70001"
         id="line151"
         style="stroke:#ff0000;stroke-opacity:1" /></g><g
       id="LINE_4879_"
       style="stroke:#ff0000;stroke-opacity:1"><line
         class="st0"
         x1="1644.1"
         y1="963.79999"
         x2="1644.1"
         y2="1020.5"
         id="line154"
         style="stroke:#ff0000;stroke-opacity:1" /></g><g
       id="LINE_4878_"
       style="stroke:#ff0000;stroke-opacity:1"><line
         class="st0"
         x1="1417.3"
         y1="623.59998"
         x2="1417.3"
         y2="680.29999"
         id="line157"
         style="stroke:#ff0000;stroke-opacity:1" /></g><g
       id="LINE_4877_"
       style="stroke:#ff0000;stroke-opacity:1"><line
         class="st0"
         x1="1303.9"
         y1="566.90002"
         x2="1303.9"
         y2="737"
         id="line160"
         style="stroke:#ff0000;stroke-opacity:1" /></g><g
       id="LINE_4876_"
       style="stroke:#ff0000;stroke-opacity:1"><line
         class="st0"
         x1="1587.4"
         y1="850.40002"
         x2="1530.7"
         y2="850.40002"
         id="line163"
         style="stroke:#ff0000;stroke-opacity:1" /></g><g
       id="LINE_4875_"
       style="stroke:#ff0000;stroke-opacity:1"><line
         class="st0"
         x1="1644.1"
         y1="680.29999"
         x2="1587.4"
         y2="680.29999"
         id="line166"
         style="stroke:#ff0000;stroke-opacity:1" /></g><g
       id="LINE_4874_"
       style="stroke:#ff0000;stroke-opacity:1"><line
         class="st0"
         x1="1644.1"
         y1="793.70001"
         x2="1474"
         y2="793.70001"
         id="line169"
         style="stroke:#ff0000;stroke-opacity:1" /></g><g
       id="LINE_4873_"
       style="stroke:#ff0000;stroke-opacity:1"><line
         class="st0"
         x1="1530.7"
         y1="850.40002"
         x2="1530.7"
         y2="963.79999"
         id="line172"
         style="stroke:#ff0000;stroke-opacity:1" /></g><g
       id="LINE_4872_"
       style="stroke:#ff0000;stroke-opacity:1"><line
         class="st0"
         x1="1700.8"
         y1="1133.9"
         x2="1474"
         y2="1133.9"
         id="line175"
         style="stroke:#ff0000;stroke-opacity:1" /></g><g
       id="LINE_4871_"
       style="stroke:#ff0000;stroke-opacity:1"><line
         class="st0"
         x1="1247.2"
         y1="963.79999"
         x2="1360.6"
         y2="963.79999"
         id="line178"
         style="stroke:#ff0000;stroke-opacity:1" /></g><g
       id="LINE_4870_"
       style="stroke:#ff0000;stroke-opacity:1"><line
         class="st0"
         x1="1474"
         y1="1020.5"
         x2="1417.3"
         y2="1020.5"
         id="line181"
         style="stroke:#ff0000;stroke-opacity:1" /></g><g
       id="LINE_4869_"
       style="stroke:#ff0000;stroke-opacity:1"><line
         class="st0"
         x1="1247.2"
         y1="793.70001"
         x2="1360.6"
         y2="793.70001"
         id="line184"
         style="stroke:#ff0000;stroke-opacity:1" /></g><g
       id="LINE_4868_"
       style="stroke:#ff0000;stroke-opacity:1"><line
         class="st0"
         x1="1360.6"
         y1="1020.5"
         x2="1360.6"
         y2="1077.2"
         id="line187"
         style="stroke:#ff0000;stroke-opacity:1" /></g><g
       id="LINE_4867_"
       style="stroke:#ff0000;stroke-opacity:1"><line
         class="st0"
         x1="1360.6"
         y1="1020.5"
         x2="1247.2"
         y2="1020.5"
         id="line190"
         style="stroke:#ff0000;stroke-opacity:1" /></g><g
       id="LINE_4866_"
       style="stroke:#ff0000;stroke-opacity:1"><line
         class="st0"
         x1="1247.2"
         y1="1020.5"
         x2="1247.2"
         y2="963.79999"
         id="line193"
         style="stroke:#ff0000;stroke-opacity:1" /></g><g
       id="LINE_4865_"
       style="stroke:#ff0000;stroke-opacity:1"><line
         class="st0"
         x1="1247.2"
         y1="737"
         x2="1247.2"
         y2="793.70001"
         id="line196"
         style="stroke:#ff0000;stroke-opacity:1" /></g><g
       id="LINE_4864_"
       style="stroke:#ff0000;stroke-opacity:1"><line
         class="st0"
         x1="1247.2"
         y1="737"
         x2="1303.9"
         y2="737"
         id="line199"
         style="stroke:#ff0000;stroke-opacity:1" /></g><g
       id="LINE_4863_"
       style="stroke:#ff0000;stroke-opacity:1"><line
         class="st0"
         x1="1190.6"
         y1="566.90002"
         x2="1303.9"
         y2="566.90002"
         id="line202"
         style="stroke:#ff0000;stroke-opacity:1" /></g><g
       id="LINE_4862_"
       style="stroke:#ff0000;stroke-opacity:1"><line
         class="st0"
         x1="1190.6"
         y1="566.90002"
         x2="1190.6"
         y2="1133.9"
         id="line205"
         style="stroke:#ff0000;stroke-opacity:1" /></g><g
       id="LINE_4861_"
       style="stroke:#ff0000;stroke-opacity:1"><line
         class="st0"
         x1="1190.6"
         y1="1133.9"
         x2="1474"
         y2="1133.9"
         id="line208"
         style="stroke:#ff0000;stroke-opacity:1" /></g><g
       id="LINE_4860_"
       style="stroke:#ff0000;stroke-opacity:1"><line
         class="st0"
         x1="1417.3"
         y1="1020.5"
         x2="1417.3"
         y2="1077.2"
         id="line211"
         style="stroke:#ff0000;stroke-opacity:1" /></g><g
       id="LINE_4859_"
       style="stroke:#ff0000;stroke-opacity:1"><line
         class="st0"
         x1="1417.3"
         y1="1077.2"
         x2="1360.6"
         y2="1077.2"
         id="line214"
         style="stroke:#ff0000;stroke-opacity:1" /></g><g
       id="LINE_4858_"
       style="stroke:#ff0000;stroke-opacity:1"><line
         class="st0"
         x1="1190.6"
         y1="566.90002"
         x2="1133.9"
         y2="566.90002"
         id="line217"
         style="stroke:#ff0000;stroke-opacity:1" /></g><g
       id="g1428"
       style="fill:#000000;fill-opacity:1;stroke:none;stroke-opacity:1"><text
         xml:space="preserve"
         style="font-style:normal;font-weight:normal;font-size:25.02428055px;line-height:0;font-family:sans-serif;letter-spacing:0px;word-spacing:0px;fill:#000000;fill-opacity:1;stroke:none;stroke-width:0.62560701"
         x="1352.2775"
         y="71.062134"
         id="text1566"><tspan
           sodipodi:role="line"
           id="tspan1564"
           x="1352.2775"
           y="71.062134"
           style="font-style:normal;font-variant:normal;font-weight:bold;font-stretch:normal;font-size:21.33333397px;font-family:Futura;-inkscape-font-specification:'Futura Bold';stroke-width:0.62560701">- SEDATION -</tspan></text>
<text
         xml:space="preserve"
         style="font-style:normal;font-weight:normal;font-size:40px;line-height:0;font-family:sans-serif;letter-spacing:0px;word-spacing:0px;fill:#000000;fill-opacity:1;stroke:none"
         x="1423.614"
         y="116.94476"
         id="text1570"><tspan
           sodipodi:role="line"
           x="1423.614"
           y="116.94476"
           style="font-style:normal;font-variant:normal;font-weight:bold;font-stretch:normal;font-size:16px;line-height:1;font-family:Futura;-inkscape-font-specification:'Futura Bold';text-align:center;text-anchor:middle"
           id="tspan1866"><tspan
   style="font-style:normal;font-variant:normal;font-weight:500;font-stretch:normal;font-family:Futura;-inkscape-font-specification:'Futura Medium'"
   id="tspan1868">In order to </tspan>calibrate sedation<tspan
   style="font-style:normal;font-variant:normal;font-weight:500;font-stretch:normal;font-family:Futura;-inkscape-font-specification:'Futura Medium'"
   id="tspan1870"> you should prepare the</tspan></tspan><tspan
           sodipodi:role="line"
           x="1423.614"
           y="132.94476"
           style="font-style:normal;font-variant:normal;font-weight:bold;font-stretch:normal;font-size:16px;line-height:1;font-family:Futura;-inkscape-font-specification:'Futura Bold';text-align:center;text-anchor:middle"
           id="tspan1880">right chemistry mix.</tspan></text>
<text
         xml:space="preserve"
         style="font-style:normal;font-variant:normal;font-weight:bold;font-stretch:normal;font-size:40px;line-height:0;font-family:Futura;-inkscape-font-specification:'Futura, Bold';font-variant-ligatures:normal;font-variant-caps:normal;font-variant-numeric:normal;font-feature-settings:normal;text-align:start;letter-spacing:0px;word-spacing:0px;writing-mode:lr-tb;text-anchor:start;fill:#000000;fill-opacity:1;stroke:none"
         x="1423.7048"
         y="170.5713"
         id="text1664"><tspan
           sodipodi:role="line"
           x="1423.7048"
           y="170.5713"
           style="font-size:16px;line-height:1;text-align:center;text-anchor:middle"
           id="tspan1666">Set the flasks and the calibration sticks at their</tspan><tspan
           sodipodi:role="line"
           x="1423.7048"
           y="186.5713"
           style="font-size:16px;line-height:1;text-align:center;text-anchor:middle"
           id="tspan1862">right places, following those rules:</tspan></text>
<text
         xml:space="preserve"
         style="font-style:normal;font-variant:normal;font-weight:bold;font-stretch:normal;font-size:40px;line-height:0;font-family:Futura;-inkscape-font-specification:'Futura, Bold';font-variant-ligatures:normal;font-variant-caps:normal;font-variant-numeric:normal;font-feature-settings:normal;text-align:start;letter-spacing:0px;word-spacing:0px;writing-mode:lr-tb;text-anchor:start;fill:#000000;fill-opacity:1;stroke:none"
         x="1182.4305"
         y="235.7959"
         id="text1690"><tspan
           sodipodi:role="line"
           x="1182.4305"
           y="235.7959"
           style="font-size:16px;line-height:1"
           id="tspan1720">- GREY: <tspan
   style="font-style:normal;font-variant:normal;font-weight:500;font-stretch:normal;font-size:16px;font-family:Futura;-inkscape-font-specification:'Futura Medium'"
   id="tspan1722">I'm at the right of the calibration stick that has the highest</tspan></tspan><tspan
           sodipodi:role="line"
           x="1182.4305"
           y="252.03168"
           style="font-size:16px;line-height:1"
           id="tspan1730"><tspan
             style="font-style:normal;font-variant:normal;font-weight:500;font-stretch:normal;font-size:16px;font-family:Futura;-inkscape-font-specification:'Futura Medium'"
             id="tspan1848">  sum value of its own numbers</tspan></tspan></text>
<text
         xml:space="preserve"
         style="font-style:normal;font-variant:normal;font-weight:bold;font-stretch:normal;font-size:40px;line-height:0;font-family:Futura;-inkscape-font-specification:'Futura, Bold';font-variant-ligatures:normal;font-variant-caps:normal;font-variant-numeric:normal;font-feature-settings:normal;text-align:start;letter-spacing:0px;word-spacing:0px;writing-mode:lr-tb;text-anchor:start;fill:#000000;fill-opacity:1;stroke:none"
         x="1182.4305"
         y="274.6297"
         id="text1696"><tspan
           sodipodi:role="line"
           id="tspan1694"
           x="1182.4305"
           y="274.6297"
           style="font-size:16px;line-height:1">- RED: <tspan
   style="font-style:normal;font-variant:normal;font-weight:500;font-stretch:normal;font-size:16px;font-family:Futura;-inkscape-font-specification:'Futura Medium'"
   id="tspan1734">I have a common number with one of my direct neighbour</tspan></tspan></text>
<text
         xml:space="preserve"
         style="font-style:normal;font-variant:normal;font-weight:bold;font-stretch:normal;font-size:40px;line-height:0;font-family:Futura;-inkscape-font-specification:'Futura, Bold';font-variant-ligatures:normal;font-variant-caps:normal;font-variant-numeric:normal;font-feature-settings:normal;text-align:start;letter-spacing:0px;word-spacing:0px;writing-mode:lr-tb;text-anchor:start;fill:#000000;fill-opacity:1;stroke:none"
         x="1182.4305"
         y="300.45474"
         id="text1700"><tspan
           sodipodi:role="line"
           x="1182.4305"
           y="300.45474"
           style="font-style:normal;font-variant:normal;font-weight:500;font-stretch:normal;font-size:16px;line-height:1;font-family:Futura;-inkscape-font-specification:'Futura Medium'"
           id="tspan1716"><tspan
   id="tspan1742"
   style="font-weight:bold;font-size:16px;line-height:1;-inkscape-font-specification:'Futura, Bold'">- GREEN: </tspan>I have something in common with the calibration stick</tspan><tspan
           sodipodi:role="line"
           x="1182.4305"
           y="316.69052"
           style="font-style:normal;font-variant:normal;font-weight:500;font-stretch:normal;font-size:16px;line-height:1;font-family:Futura;-inkscape-font-specification:'Futura Medium'"
           id="tspan1854">  on my right</tspan></text>
<text
         xml:space="preserve"
         style="font-style:normal;font-variant:normal;font-weight:bold;font-stretch:normal;font-size:40px;line-height:0;font-family:Futura;-inkscape-font-specification:'Futura, Bold';font-variant-ligatures:normal;font-variant-caps:normal;font-variant-numeric:normal;font-feature-settings:normal;text-align:start;letter-spacing:0px;word-spacing:0px;writing-mode:lr-tb;text-anchor:start;fill:#000000;fill-opacity:1;stroke:none"
         x="1182.4305"
         y="339.69687"
         id="text1706"><tspan
           sodipodi:role="line"
           x="1182.4305"
           y="339.69687"
           style="font-style:normal;font-variant:normal;font-weight:500;font-stretch:normal;font-size:16px;line-height:1;font-family:Futura;-inkscape-font-specification:'Futura Medium'"
           id="tspan1712"><tspan
   id="tspan1745"
   style="font-weight:bold;font-size:16px;line-height:1;-inkscape-font-specification:'Futura, Bold'">- BLUE: </tspan>My right neighbour has higher values than me for each of</tspan><tspan
           sodipodi:role="line"
           x="1182.4305"
           y="355.93265"
           style="font-style:normal;font-variant:normal;font-weight:500;font-stretch:normal;font-size:16px;line-height:1;font-family:Futura;-inkscape-font-specification:'Futura Medium'"
           id="tspan1748">  the three numbers</tspan></text>
<text
         xml:space="preserve"
         style="font-style:normal;font-variant:normal;font-weight:bold;font-stretch:normal;font-size:40px;line-height:0;font-family:Futura;-inkscape-font-specification:'Futura, Bold';font-variant-ligatures:normal;font-variant-caps:normal;font-variant-numeric:normal;font-feature-settings:normal;text-align:start;letter-spacing:0px;word-spacing:0px;writing-mode:lr-tb;text-anchor:start;fill:#000000;fill-opacity:1;stroke:none"
         x="1180.2437"
         y="395.48312"
         id="text1798"><tspan
           sodipodi:role="line"
           id="tspan1796"
           x="1180.2437"
           y="395.48312"
           style="font-size:16px"><tspan
   id="tspan1840"
   style="font-style:normal;font-variant:normal;font-weight:bold;font-stretch:normal;font-size:16px;font-family:Futura;-inkscape-font-specification:'Futura Bold'">- </tspan><tspan
   style="font-style:normal;font-variant:normal;font-weight:500;font-stretch:normal;font-size:16px;font-family:Futura;-inkscape-font-specification:'Futura Medium'"
   id="tspan1802">The</tspan> red flask <tspan
   style="font-style:normal;font-variant:normal;font-weight:500;font-stretch:normal;font-size:16px;font-family:Futura;-inkscape-font-specification:'Futura Medium'"
   id="tspan1800">is at the right of the yellow one</tspan></tspan></text>
<text
         xml:space="preserve"
         style="font-style:normal;font-variant:normal;font-weight:bold;font-stretch:normal;font-size:40px;line-height:0;font-family:Futura;-inkscape-font-specification:'Futura, Bold';font-variant-ligatures:normal;font-variant-caps:normal;font-variant-numeric:normal;font-feature-settings:normal;text-align:start;letter-spacing:0px;word-spacing:0px;writing-mode:lr-tb;text-anchor:start;fill:#000000;fill-opacity:1;stroke:none"
         x="1180.2437"
         y="418.36108"
         id="text1806"><tspan
           sodipodi:role="line"
           id="tspan1804"
           x="1180.2437"
           y="418.36108"
           style="font-size:16px"><tspan
   id="tspan1842"
   style="font-style:normal;font-variant:normal;font-weight:bold;font-stretch:normal;font-size:16px;font-family:Futura;-inkscape-font-specification:'Futura Bold'">- </tspan><tspan
   style="font-style:normal;font-variant:normal;font-weight:500;font-stretch:normal;font-size:16px;font-family:Futura;-inkscape-font-specification:'Futura Medium'"
   id="tspan1808">The </tspan>green flask<tspan
   style="font-style:normal;font-variant:normal;font-weight:500;font-stretch:normal;font-size:16px;font-family:Futura;-inkscape-font-specification:'Futura Medium'"
   id="tspan1810"> has two neighbours</tspan></tspan></text>
<text
         xml:space="preserve"
         style="font-style:normal;font-variant:normal;font-weight:bold;font-stretch:normal;font-size:40px;line-height:0;font-family:Futura;-inkscape-font-specification:'Futura, Bold';font-variant-ligatures:normal;font-variant-caps:normal;font-variant-numeric:normal;font-feature-settings:normal;text-align:start;letter-spacing:0px;word-spacing:0px;writing-mode:lr-tb;text-anchor:start;fill:#000000;fill-opacity:1;stroke:none"
         x="1180.2437"
         y="442.99231"
         id="text1814"><tspan
           sodipodi:role="line"
           id="tspan1812"
           x="1180.2437"
           y="442.99231"
           style="font-style:normal;font-variant:normal;font-weight:500;font-stretch:normal;font-size:16px;line-height:1;font-family:Futura;-inkscape-font-specification:'Futura Medium'"><tspan
   style="font-style:normal;font-variant:normal;font-weight:bold;font-stretch:normal;font-size:16px;font-family:Futura;-inkscape-font-specification:'Futura Bold'"
   id="tspan1830">- </tspan>The two flask <tspan
   style="font-style:normal;font-variant:normal;font-weight:bold;font-stretch:normal;font-size:16px;font-family:Futura;-inkscape-font-specification:'Futura Bold'"
   id="tspan1818">with the same level</tspan> of liquid</tspan><tspan
           sodipodi:role="line"
           x="1180.2437"
           y="459.22809"
           style="font-style:normal;font-variant:normal;font-weight:500;font-stretch:normal;font-size:16px;line-height:1;font-family:Futura;-inkscape-font-specification:'Futura Medium'"
           id="tspan1816">  have an other flask in between</tspan></text>
<text
         xml:space="preserve"
         style="font-style:normal;font-variant:normal;font-weight:bold;font-stretch:normal;font-size:40px;line-height:0;font-family:Futura;-inkscape-font-specification:'Futura, Bold';font-variant-ligatures:normal;font-variant-caps:normal;font-variant-numeric:normal;font-feature-settings:normal;text-align:start;letter-spacing:0px;word-spacing:0px;writing-mode:lr-tb;text-anchor:start;fill:#000000;fill-opacity:1;stroke:none"
         x="1180.2437"
         y="482.8573"
         id="text1822"><tspan
           sodipodi:role="line"
           id="tspan1820"
           x="1180.2437"
           y="482.8573"
           style="font-size:16px"><tspan
   id="tspan1844"
   style="font-style:normal;font-variant:normal;font-weight:bold;font-stretch:normal;font-size:16px;font-family:Futura;-inkscape-font-specification:'Futura Bold'">- </tspan><tspan
   style="font-style:normal;font-variant:normal;font-weight:500;font-stretch:normal;font-size:16px;font-family:Futura;-inkscape-font-specification:'Futura Medium'"
   id="tspan1824">The </tspan>blue flask<tspan
   style="font-style:normal;font-variant:normal;font-weight:500;font-stretch:normal;font-size:16px;font-family:Futura;-inkscape-font-specification:'Futura Medium'"
   id="tspan1826"> is next to the red flask</tspan></tspan></text>
<text
         xml:space="preserve"
         style="font-style:normal;font-variant:normal;font-weight:bold;font-stretch:normal;font-size:40px;line-height:0;font-family:Futura;-inkscape-font-specification:'Futura, Bold';font-variant-ligatures:normal;font-variant-caps:normal;font-variant-numeric:normal;font-feature-settings:normal;text-align:start;letter-spacing:0px;word-spacing:0px;writing-mode:lr-tb;text-anchor:start;fill:#000000;fill-opacity:1;stroke:none"
         x="1297.0457"
         y="526.75098"
         id="text1838"><tspan
           sodipodi:role="line"
           id="tspan1836"
           x="1297.0457"
           y="526.75098"
           style="font-size:16px">Then enter the four-digit code </tspan></text>
</g></g><g
     id="contour"
     style="stroke:#ff0000;stroke-opacity:1"><rect
       class="st1"
       width="1700.8"
       height="1133.9"
       id="rect1431"
       x="0"
       y="0"
       style="fill:none;stroke:#ff0000;stroke-miterlimit:10;stroke-opacity:1" /></g></svg>