<?xml version="1.0" encoding="UTF-8" standalone="no"?>
<!-- Generator: Adobe Illustrator 21.1.0, SVG Export Plug-In . SVG Version: 6.00 Build 0)  -->

<svg
   xmlns:dc="http://purl.org/dc/elements/1.1/"
   xmlns:cc="http://creativecommons.org/ns#"
   xmlns:rdf="http://www.w3.org/1999/02/22-rdf-syntax-ns#"
   xmlns:svg="http://www.w3.org/2000/svg"
   xmlns="http://www.w3.org/2000/svg"
   xmlns:sodipodi="http://sodipodi.sourceforge.net/DTD/sodipodi-0.dtd"
   xmlns:inkscape="http://www.inkscape.org/namespaces/inkscape"
   version="1.1"
   x="0px"
   y="0px"
   viewBox="0 0 1700.8 1133.9"
   style="enable-background:new 0 0 1700.8 1133.9;"
   xml:space="preserve"
   id="svg1097"
   sodipodi:docname="calque 14.svg"
   inkscape:version="0.92.3 (2405546, 2018-03-11)"><metadata
   id="metadata1103"><rdf:RDF><cc:Work
       rdf:about=""><dc:format>image/svg+xml</dc:format><dc:type
         rdf:resource="http://purl.org/dc/dcmitype/StillImage" /></cc:Work></rdf:RDF></metadata><defs
   id="defs1101" /><sodipodi:namedview
   pagecolor="#ffffff"
   bordercolor="#666666"
   borderopacity="1"
   objecttolerance="10"
   gridtolerance="10"
   guidetolerance="10"
   inkscape:pageopacity="0"
   inkscape:pageshadow="2"
   inkscape:window-width="1600"
   inkscape:window-height="837"
   id="namedview1099"
   showgrid="false"
   inkscape:zoom="0.41626245"
   inkscape:cx="603.31896"
   inkscape:cy="569.92103"
   inkscape:window-x="-8"
   inkscape:window-y="-8"
   inkscape:window-maximized="1"
   inkscape:current-layer="svg1097" />
<style
   type="text/css"
   id="style2">
	.st0{fill:none;stroke:#FF0000;stroke-width:1.000000e-02;stroke-linecap:round;stroke-linejoin:round;stroke-miterlimit:10;}
	.st1{fill:none;stroke:#0000FF;stroke-miterlimit:10;}
</style>
<g
   id="Calque_14"
   style="stroke:#ff0000;stroke-opacity:1">
	<g
   id="LINE_3614_"
   style="stroke:#ff0000;stroke-opacity:1">
		<line
   class="st0"
   x1="453.5"
   y1="1133.9"
   x2="453.5"
   y2="1105.5"
   id="line4"
   style="stroke:#ff0000;stroke-opacity:1" />
	</g>
	<g
   id="LINE_3613_"
   style="stroke:#ff0000;stroke-opacity:1">
		<line
   class="st0"
   x1="113.4"
   y1="1105.5"
   x2="56.700001"
   y2="1105.5"
   id="line7"
   style="stroke:#ff0000;stroke-opacity:1" />
	</g>
	<g
   id="LINE_3612_"
   style="stroke:#ff0000;stroke-opacity:1">
		<line
   class="st0"
   x1="56.700001"
   y1="0"
   x2="56.700001"
   y2="28.299999"
   id="line10"
   style="stroke:#ff0000;stroke-opacity:1" />
	</g>
	<g
   id="LINE_3611_"
   style="stroke:#ff0000;stroke-opacity:1">
		<line
   class="st0"
   x1="0"
   y1="1133.9"
   x2="56.700001"
   y2="1133.9"
   id="line13"
   style="stroke:#ff0000;stroke-opacity:1" />
	</g>
	<g
   id="LINE_3610_"
   style="stroke:#ff0000;stroke-opacity:1">
		<line
   class="st0"
   x1="56.700001"
   y1="1105.5"
   x2="56.700001"
   y2="1133.9"
   id="line16"
   style="stroke:#ff0000;stroke-opacity:1" />
	</g>
	<g
   id="LINE_3609_"
   style="stroke:#ff0000;stroke-opacity:1">
		<line
   class="st0"
   x1="113.4"
   y1="1133.9"
   x2="113.4"
   y2="1105.5"
   id="line19"
   style="stroke:#ff0000;stroke-opacity:1" />
	</g>
	<g
   id="LINE_3608_"
   style="stroke:#ff0000;stroke-opacity:1">
		<line
   class="st0"
   x1="113.4"
   y1="1133.9"
   x2="170.10001"
   y2="1133.9"
   id="line22"
   style="stroke:#ff0000;stroke-opacity:1" />
	</g>
	<g
   id="LINE_3607_"
   style="stroke:#ff0000;stroke-opacity:1">
		<line
   class="st0"
   x1="170.10001"
   y1="1105.5"
   x2="170.10001"
   y2="1133.9"
   id="line25"
   style="stroke:#ff0000;stroke-opacity:1" />
	</g>
	<g
   id="LINE_3606_"
   style="stroke:#ff0000;stroke-opacity:1">
		<line
   class="st0"
   x1="226.8"
   y1="1105.5"
   x2="170.10001"
   y2="1105.5"
   id="line28"
   style="stroke:#ff0000;stroke-opacity:1" />
	</g>
	<g
   id="LINE_3605_"
   style="stroke:#ff0000;stroke-opacity:1">
		<line
   class="st0"
   x1="226.8"
   y1="1133.9"
   x2="226.8"
   y2="1105.5"
   id="line31"
   style="stroke:#ff0000;stroke-opacity:1" />
	</g>
	<g
   id="LINE_3604_"
   style="stroke:#ff0000;stroke-opacity:1">
		<line
   class="st0"
   x1="226.8"
   y1="1133.9"
   x2="283.5"
   y2="1133.9"
   id="line34"
   style="stroke:#ff0000;stroke-opacity:1" />
	</g>
	<g
   id="LINE_3603_"
   style="stroke:#ff0000;stroke-opacity:1">
		<line
   class="st0"
   x1="283.5"
   y1="1105.5"
   x2="283.5"
   y2="1133.9"
   id="line37"
   style="stroke:#ff0000;stroke-opacity:1" />
	</g>
	<g
   id="LINE_3602_"
   style="stroke:#ff0000;stroke-opacity:1">
		<line
   class="st0"
   x1="340.20001"
   y1="1105.5"
   x2="283.5"
   y2="1105.5"
   id="line40"
   style="stroke:#ff0000;stroke-opacity:1" />
	</g>
	<g
   id="LINE_3601_"
   style="stroke:#ff0000;stroke-opacity:1">
		<line
   class="st0"
   x1="340.20001"
   y1="1133.9"
   x2="340.20001"
   y2="1105.5"
   id="line43"
   style="stroke:#ff0000;stroke-opacity:1" />
	</g>
	<g
   id="LINE_3600_"
   style="stroke:#ff0000;stroke-opacity:1">
		<line
   class="st0"
   x1="340.20001"
   y1="1133.9"
   x2="396.89999"
   y2="1133.9"
   id="line46"
   style="stroke:#ff0000;stroke-opacity:1" />
	</g>
	<g
   id="LINE_3599_"
   style="stroke:#ff0000;stroke-opacity:1">
		<line
   class="st0"
   x1="396.89999"
   y1="1105.5"
   x2="396.89999"
   y2="1133.9"
   id="line49"
   style="stroke:#ff0000;stroke-opacity:1" />
	</g>
	<g
   id="LINE_3598_"
   style="stroke:#ff0000;stroke-opacity:1">
		<line
   class="st0"
   x1="453.5"
   y1="1105.5"
   x2="396.89999"
   y2="1105.5"
   id="line52"
   style="stroke:#ff0000;stroke-opacity:1" />
	</g>
	<g
   id="LINE_3597_"
   style="stroke:#ff0000;stroke-opacity:1">
		<line
   class="st0"
   x1="453.5"
   y1="1133.9"
   x2="510.20001"
   y2="1133.9"
   id="line55"
   style="stroke:#ff0000;stroke-opacity:1" />
	</g>
	<g
   id="LINE_3596_"
   style="stroke:#ff0000;stroke-opacity:1">
		<line
   class="st0"
   x1="510.20001"
   y1="1105.5"
   x2="510.20001"
   y2="1133.9"
   id="line58"
   style="stroke:#ff0000;stroke-opacity:1" />
	</g>
	<g
   id="LINE_3595_"
   style="stroke:#ff0000;stroke-opacity:1">
		<line
   class="st0"
   x1="566.90002"
   y1="1105.5"
   x2="510.20001"
   y2="1105.5"
   id="line61"
   style="stroke:#ff0000;stroke-opacity:1" />
	</g>
	<g
   id="LINE_3594_"
   style="stroke:#ff0000;stroke-opacity:1">
		<line
   class="st0"
   x1="566.90002"
   y1="1133.9"
   x2="566.90002"
   y2="1105.5"
   id="line64"
   style="stroke:#ff0000;stroke-opacity:1" />
	</g>
	<g
   id="LINE_3593_"
   style="stroke:#ff0000;stroke-opacity:1">
		<line
   class="st0"
   x1="566.90002"
   y1="1133.9"
   x2="623.59998"
   y2="1133.9"
   id="line67"
   style="stroke:#ff0000;stroke-opacity:1" />
	</g>
	<g
   id="LINE_3592_"
   style="stroke:#ff0000;stroke-opacity:1">
		<line
   class="st0"
   x1="623.59998"
   y1="1105.5"
   x2="623.59998"
   y2="1133.9"
   id="line70"
   style="stroke:#ff0000;stroke-opacity:1" />
	</g>
	<g
   id="LINE_3591_"
   style="stroke:#ff0000;stroke-opacity:1">
		<line
   class="st0"
   x1="680.29999"
   y1="1105.5"
   x2="623.59998"
   y2="1105.5"
   id="line73"
   style="stroke:#ff0000;stroke-opacity:1" />
	</g>
	<g
   id="LINE_3590_"
   style="stroke:#ff0000;stroke-opacity:1">
		<line
   class="st0"
   x1="680.29999"
   y1="1133.9"
   x2="680.29999"
   y2="1105.5"
   id="line76"
   style="stroke:#ff0000;stroke-opacity:1" />
	</g>
	<g
   id="LINE_3589_"
   style="stroke:#ff0000;stroke-opacity:1">
		<line
   class="st0"
   x1="680.29999"
   y1="1133.9"
   x2="737"
   y2="1133.9"
   id="line79"
   style="stroke:#ff0000;stroke-opacity:1" />
	</g>
	<g
   id="LINE_3588_"
   style="stroke:#ff0000;stroke-opacity:1">
		<line
   class="st0"
   x1="737"
   y1="1105.5"
   x2="737"
   y2="1133.9"
   id="line82"
   style="stroke:#ff0000;stroke-opacity:1" />
	</g>
	<g
   id="LINE_3587_"
   style="stroke:#ff0000;stroke-opacity:1">
		<line
   class="st0"
   x1="793.70001"
   y1="1105.5"
   x2="737"
   y2="1105.5"
   id="line85"
   style="stroke:#ff0000;stroke-opacity:1" />
	</g>
	<g
   id="LINE_3586_"
   style="stroke:#ff0000;stroke-opacity:1">
		<line
   class="st0"
   x1="793.70001"
   y1="1133.9"
   x2="793.70001"
   y2="1105.5"
   id="line88"
   style="stroke:#ff0000;stroke-opacity:1" />
	</g>
	<g
   id="LINE_3585_"
   style="stroke:#ff0000;stroke-opacity:1">
		<line
   class="st0"
   x1="793.70001"
   y1="1133.9"
   x2="850.40002"
   y2="1133.9"
   id="line91"
   style="stroke:#ff0000;stroke-opacity:1" />
	</g>
	<g
   id="LINE_3584_"
   style="stroke:#ff0000;stroke-opacity:1">
		<line
   class="st0"
   x1="850.40002"
   y1="1133.9"
   x2="850.40002"
   y2="0"
   id="line94"
   style="stroke:#ff0000;stroke-opacity:1" />
	</g>
	<g
   id="LINE_3583_"
   style="stroke:#ff0000;stroke-opacity:1">
		<line
   class="st0"
   x1="850.40002"
   y1="0"
   x2="793.70001"
   y2="0"
   id="line97"
   style="stroke:#ff0000;stroke-opacity:1" />
	</g>
	<g
   id="LINE_3582_"
   style="stroke:#ff0000;stroke-opacity:1">
		<line
   class="st0"
   x1="793.70001"
   y1="28.299999"
   x2="793.70001"
   y2="0"
   id="line100"
   style="stroke:#ff0000;stroke-opacity:1" />
	</g>
	<g
   id="LINE_3581_"
   style="stroke:#ff0000;stroke-opacity:1">
		<line
   class="st0"
   x1="737"
   y1="28.299999"
   x2="793.70001"
   y2="28.299999"
   id="line103"
   style="stroke:#ff0000;stroke-opacity:1" />
	</g>
	<g
   id="LINE_3580_"
   style="stroke:#ff0000;stroke-opacity:1">
		<line
   class="st0"
   x1="737"
   y1="0"
   x2="737"
   y2="28.299999"
   id="line106"
   style="stroke:#ff0000;stroke-opacity:1" />
	</g>
	<g
   id="LINE_3579_"
   style="stroke:#ff0000;stroke-opacity:1">
		<line
   class="st0"
   x1="737"
   y1="0"
   x2="680.29999"
   y2="0"
   id="line109"
   style="stroke:#ff0000;stroke-opacity:1" />
	</g>
	<g
   id="LINE_3578_"
   style="stroke:#ff0000;stroke-opacity:1">
		<line
   class="st0"
   x1="680.29999"
   y1="28.299999"
   x2="680.29999"
   y2="0"
   id="line112"
   style="stroke:#ff0000;stroke-opacity:1" />
	</g>
	<g
   id="LINE_3577_"
   style="stroke:#ff0000;stroke-opacity:1">
		<line
   class="st0"
   x1="623.59998"
   y1="28.299999"
   x2="680.29999"
   y2="28.299999"
   id="line115"
   style="stroke:#ff0000;stroke-opacity:1" />
	</g>
	<g
   id="LINE_3576_"
   style="stroke:#ff0000;stroke-opacity:1">
		<line
   class="st0"
   x1="623.59998"
   y1="0"
   x2="623.59998"
   y2="28.299999"
   id="line118"
   style="stroke:#ff0000;stroke-opacity:1" />
	</g>
	<g
   id="LINE_3575_"
   style="stroke:#ff0000;stroke-opacity:1">
		<line
   class="st0"
   x1="623.59998"
   y1="0"
   x2="566.90002"
   y2="0"
   id="line121"
   style="stroke:#ff0000;stroke-opacity:1" />
	</g>
	<g
   id="LINE_3574_"
   style="stroke:#ff0000;stroke-opacity:1">
		<line
   class="st0"
   x1="566.90002"
   y1="0"
   x2="566.90002"
   y2="28.299999"
   id="line124"
   style="stroke:#ff0000;stroke-opacity:1" />
	</g>
	<g
   id="LINE_3573_"
   style="stroke:#ff0000;stroke-opacity:1">
		<line
   class="st0"
   x1="566.90002"
   y1="28.299999"
   x2="510.20001"
   y2="28.299999"
   id="line127"
   style="stroke:#ff0000;stroke-opacity:1" />
	</g>
	<g
   id="LINE_3572_"
   style="stroke:#ff0000;stroke-opacity:1">
		<line
   class="st0"
   x1="510.20001"
   y1="28.299999"
   x2="510.20001"
   y2="0"
   id="line130"
   style="stroke:#ff0000;stroke-opacity:1" />
	</g>
	<g
   id="LINE_3571_"
   style="stroke:#ff0000;stroke-opacity:1">
		<line
   class="st0"
   x1="510.20001"
   y1="0"
   x2="453.5"
   y2="0"
   id="line133"
   style="stroke:#ff0000;stroke-opacity:1" />
	</g>
	<g
   id="LINE_3570_"
   style="stroke:#ff0000;stroke-opacity:1">
		<line
   class="st0"
   x1="453.5"
   y1="28.299999"
   x2="453.5"
   y2="0"
   id="line136"
   style="stroke:#ff0000;stroke-opacity:1" />
	</g>
	<g
   id="LINE_3569_"
   style="stroke:#ff0000;stroke-opacity:1">
		<line
   class="st0"
   x1="396.89999"
   y1="28.299999"
   x2="453.5"
   y2="28.299999"
   id="line139"
   style="stroke:#ff0000;stroke-opacity:1" />
	</g>
	<g
   id="LINE_3568_"
   style="stroke:#ff0000;stroke-opacity:1">
		<line
   class="st0"
   x1="396.89999"
   y1="0"
   x2="396.89999"
   y2="28.299999"
   id="line142"
   style="stroke:#ff0000;stroke-opacity:1" />
	</g>
	<g
   id="LINE_3567_"
   style="stroke:#ff0000;stroke-opacity:1">
		<line
   class="st0"
   x1="396.89999"
   y1="0"
   x2="340.20001"
   y2="0"
   id="line145"
   style="stroke:#ff0000;stroke-opacity:1" />
	</g>
	<g
   id="LINE_3566_"
   style="stroke:#ff0000;stroke-opacity:1">
		<line
   class="st0"
   x1="340.20001"
   y1="28.299999"
   x2="340.20001"
   y2="0"
   id="line148"
   style="stroke:#ff0000;stroke-opacity:1" />
	</g>
	<g
   id="LINE_3565_"
   style="stroke:#ff0000;stroke-opacity:1">
		<line
   class="st0"
   x1="283.5"
   y1="28.299999"
   x2="340.20001"
   y2="28.299999"
   id="line151"
   style="stroke:#ff0000;stroke-opacity:1" />
	</g>
	<g
   id="LINE_3564_"
   style="stroke:#ff0000;stroke-opacity:1">
		<line
   class="st0"
   x1="283.5"
   y1="0"
   x2="283.5"
   y2="28.299999"
   id="line154"
   style="stroke:#ff0000;stroke-opacity:1" />
	</g>
	<g
   id="LINE_3563_"
   style="stroke:#ff0000;stroke-opacity:1">
		<line
   class="st0"
   x1="283.5"
   y1="0"
   x2="226.8"
   y2="0"
   id="line157"
   style="stroke:#ff0000;stroke-opacity:1" />
	</g>
	<g
   id="LINE_3562_"
   style="stroke:#ff0000;stroke-opacity:1">
		<line
   class="st0"
   x1="226.8"
   y1="28.299999"
   x2="226.8"
   y2="0"
   id="line160"
   style="stroke:#ff0000;stroke-opacity:1" />
	</g>
	<g
   id="LINE_3561_"
   style="stroke:#ff0000;stroke-opacity:1">
		<line
   class="st0"
   x1="170.10001"
   y1="28.299999"
   x2="226.8"
   y2="28.299999"
   id="line163"
   style="stroke:#ff0000;stroke-opacity:1" />
	</g>
	<g
   id="LINE_3560_"
   style="stroke:#ff0000;stroke-opacity:1">
		<line
   class="st0"
   x1="170.10001"
   y1="0"
   x2="170.10001"
   y2="28.299999"
   id="line166"
   style="stroke:#ff0000;stroke-opacity:1" />
	</g>
	<g
   id="LINE_3559_"
   style="stroke:#ff0000;stroke-opacity:1">
		<line
   class="st0"
   x1="170.10001"
   y1="0"
   x2="113.4"
   y2="0"
   id="line169"
   style="stroke:#ff0000;stroke-opacity:1" />
	</g>
	<g
   id="LINE_3558_"
   style="stroke:#ff0000;stroke-opacity:1">
		<line
   class="st0"
   x1="113.4"
   y1="28.299999"
   x2="113.4"
   y2="0"
   id="line172"
   style="stroke:#ff0000;stroke-opacity:1" />
	</g>
	<g
   id="LINE_3557_"
   style="stroke:#ff0000;stroke-opacity:1">
		<line
   class="st0"
   x1="56.700001"
   y1="28.299999"
   x2="113.4"
   y2="28.299999"
   id="line175"
   style="stroke:#ff0000;stroke-opacity:1" />
	</g>
	<g
   id="LINE_3556_"
   style="stroke:#ff0000;stroke-opacity:1">
		<line
   class="st0"
   x1="56.700001"
   y1="0"
   x2="0"
   y2="0"
   id="line178"
   style="stroke:#ff0000;stroke-opacity:1" />
	</g>
	<g
   id="LINE_3555_"
   style="stroke:#ff0000;stroke-opacity:1">
		<line
   class="st0"
   x1="0"
   y1="0"
   x2="0"
   y2="1133.9"
   id="line181"
   style="stroke:#ff0000;stroke-opacity:1" />
	</g>
	<g
   id="LINE_3554_"
   style="stroke:#ff0000;stroke-opacity:1">
		<line
   class="st0"
   x1="141.7"
   y1="283.5"
   x2="708.70001"
   y2="283.5"
   id="line184"
   style="stroke:#ff0000;stroke-opacity:1" />
	</g>
	<g
   id="LINE_3553_"
   style="stroke:#ff0000;stroke-opacity:1">
		<line
   class="st0"
   x1="708.70001"
   y1="283.5"
   x2="708.70001"
   y2="850.40002"
   id="line187"
   style="stroke:#ff0000;stroke-opacity:1" />
	</g>
	<g
   id="LINE_3552_"
   style="stroke:#ff0000;stroke-opacity:1">
		<line
   class="st0"
   x1="878.70001"
   y1="595.29999"
   x2="878.70001"
   y2="538.59998"
   id="line190"
   style="stroke:#ff0000;stroke-opacity:1" />
	</g>
	<g
   id="LINE_3551_"
   style="stroke:#ff0000;stroke-opacity:1">
		<line
   class="st0"
   x1="878.70001"
   y1="255.10001"
   x2="878.70001"
   y2="198.39999"
   id="line193"
   style="stroke:#ff0000;stroke-opacity:1" />
	</g>
	<g
   id="LINE_3550_"
   style="stroke:#ff0000;stroke-opacity:1">
		<line
   class="st0"
   x1="1133.9"
   y1="1105.5"
   x2="1133.9"
   y2="1133.9"
   id="line196"
   style="stroke:#ff0000;stroke-opacity:1" />
	</g>
	<g
   id="LINE_3549_"
   style="stroke:#ff0000;stroke-opacity:1">
		<line
   class="st0"
   x1="892.90002"
   y1="1048.8"
   x2="878.70001"
   y2="1048.8"
   id="line199"
   style="stroke:#ff0000;stroke-opacity:1" />
	</g>
	<g
   id="LINE_3548_"
   style="stroke:#ff0000;stroke-opacity:1">
		<line
   class="st0"
   x1="892.90002"
   y1="85"
   x2="892.90002"
   y2="141.7"
   id="line202"
   style="stroke:#ff0000;stroke-opacity:1" />
	</g>
	<g
   id="LINE_3547_"
   style="stroke:#ff0000;stroke-opacity:1">
		<line
   class="st0"
   x1="1077.2"
   y1="1133.9"
   x2="1133.9"
   y2="1133.9"
   id="line205"
   style="stroke:#ff0000;stroke-opacity:1" />
	</g>
	<g
   id="LINE_3546_"
   style="stroke:#ff0000;stroke-opacity:1">
		<line
   class="st0"
   x1="878.70001"
   y1="765.40002"
   x2="892.90002"
   y2="765.40002"
   id="line208"
   style="stroke:#ff0000;stroke-opacity:1" />
	</g>
	<g
   id="LINE_3545_"
   style="stroke:#ff0000;stroke-opacity:1">
		<line
   class="st0"
   x1="1658.3"
   y1="992.09998"
   x2="1672.4"
   y2="992.09998"
   id="line211"
   style="stroke:#ff0000;stroke-opacity:1" />
	</g>
	<g
   id="LINE_3544_"
   style="stroke:#ff0000;stroke-opacity:1">
		<line
   class="st0"
   x1="878.70001"
   y1="198.39999"
   x2="892.90002"
   y2="198.39999"
   id="line214"
   style="stroke:#ff0000;stroke-opacity:1" />
	</g>
	<g
   id="LINE_3543_"
   style="stroke:#ff0000;stroke-opacity:1">
		<line
   class="st0"
   x1="1672.4"
   y1="311.79999"
   x2="1672.4"
   y2="368.5"
   id="line217"
   style="stroke:#ff0000;stroke-opacity:1" />
	</g>
	<g
   id="LINE_3542_"
   style="stroke:#ff0000;stroke-opacity:1">
		<line
   class="st0"
   x1="1672.4"
   y1="765.40002"
   x2="1672.4"
   y2="822"
   id="line220"
   style="stroke:#ff0000;stroke-opacity:1" />
	</g>
	<g
   id="LINE_3541_"
   style="stroke:#ff0000;stroke-opacity:1">
		<line
   class="st0"
   x1="892.90002"
   y1="708.70001"
   x2="878.70001"
   y2="708.70001"
   id="line223"
   style="stroke:#ff0000;stroke-opacity:1" />
	</g>
	<g
   id="LINE_3540_"
   style="stroke:#ff0000;stroke-opacity:1">
		<line
   class="st0"
   x1="1658.3"
   y1="368.5"
   x2="1658.3"
   y2="311.79999"
   id="line226"
   style="stroke:#ff0000;stroke-opacity:1" />
	</g>
	<g
   id="LINE_3539_"
   style="stroke:#ff0000;stroke-opacity:1">
		<line
   class="st0"
   x1="1077.2"
   y1="1105.5"
   x2="1020.5"
   y2="1105.5"
   id="line229"
   style="stroke:#ff0000;stroke-opacity:1" />
	</g>
	<g
   id="LINE_3538_"
   style="stroke:#ff0000;stroke-opacity:1">
		<line
   class="st0"
   x1="878.70001"
   y1="311.79999"
   x2="892.90002"
   y2="311.79999"
   id="line232"
   style="stroke:#ff0000;stroke-opacity:1" />
	</g>
	<g
   id="LINE_3537_"
   style="stroke:#ff0000;stroke-opacity:1">
		<line
   class="st0"
   x1="1672.4"
   y1="992.09998"
   x2="1672.4"
   y2="1048.8"
   id="line235"
   style="stroke:#ff0000;stroke-opacity:1" />
	</g>
	<g
   id="LINE_3536_"
   style="stroke:#ff0000;stroke-opacity:1">
		<line
   class="st0"
   x1="892.90002"
   y1="311.79999"
   x2="892.90002"
   y2="368.5"
   id="line238"
   style="stroke:#ff0000;stroke-opacity:1" />
	</g>
	<g
   id="LINE_3535_"
   style="stroke:#ff0000;stroke-opacity:1">
		<line
   class="st0"
   x1="878.70001"
   y1="822"
   x2="878.70001"
   y2="765.40002"
   id="line241"
   style="stroke:#ff0000;stroke-opacity:1" />
	</g>
	<g
   id="LINE_3534_"
   style="stroke:#ff0000;stroke-opacity:1">
		<line
   class="st0"
   x1="892.90002"
   y1="425.20001"
   x2="892.90002"
   y2="481.89999"
   id="line244"
   style="stroke:#ff0000;stroke-opacity:1" />
	</g>
	<g
   id="LINE_3533_"
   style="stroke:#ff0000;stroke-opacity:1">
		<line
   class="st0"
   x1="1658.3"
   y1="425.20001"
   x2="1672.4"
   y2="425.20001"
   id="line247"
   style="stroke:#ff0000;stroke-opacity:1" />
	</g>
	<g
   id="LINE_3532_"
   style="stroke:#ff0000;stroke-opacity:1">
		<line
   class="st0"
   x1="878.70001"
   y1="992.09998"
   x2="892.90002"
   y2="992.09998"
   id="line250"
   style="stroke:#ff0000;stroke-opacity:1" />
	</g>
	<g
   id="LINE_3531_"
   style="stroke:#ff0000;stroke-opacity:1">
		<line
   class="st0"
   x1="1190.6"
   y1="1133.9"
   x2="1247.2"
   y2="1133.9"
   id="line253"
   style="stroke:#ff0000;stroke-opacity:1" />
	</g>
	<g
   id="LINE_3530_"
   style="stroke:#ff0000;stroke-opacity:1">
		<line
   class="st0"
   x1="1020.5"
   y1="1105.5"
   x2="1020.5"
   y2="1133.9"
   id="line256"
   style="stroke:#ff0000;stroke-opacity:1" />
	</g>
	<g
   id="LINE_3529_"
   style="stroke:#ff0000;stroke-opacity:1">
		<line
   class="st0"
   x1="1417.3"
   y1="28.299999"
   x2="1360.6"
   y2="28.299999"
   id="line259"
   style="stroke:#ff0000;stroke-opacity:1" />
	</g>
	<g
   id="LINE_3528_"
   style="stroke:#ff0000;stroke-opacity:1">
		<line
   class="st0"
   x1="878.70001"
   y1="425.20001"
   x2="892.90002"
   y2="425.20001"
   id="line262"
   style="stroke:#ff0000;stroke-opacity:1" />
	</g>
	<g
   id="LINE_3527_"
   style="stroke:#ff0000;stroke-opacity:1">
		<line
   class="st0"
   x1="1658.3"
   y1="311.79999"
   x2="1672.4"
   y2="311.79999"
   id="line265"
   style="stroke:#ff0000;stroke-opacity:1" />
	</g>
	<g
   id="LINE_3526_"
   style="stroke:#ff0000;stroke-opacity:1">
		<line
   class="st0"
   x1="1658.3"
   y1="708.70001"
   x2="1658.3"
   y2="652"
   id="line268"
   style="stroke:#ff0000;stroke-opacity:1" />
	</g>
	<g
   id="LINE_3525_"
   style="stroke:#ff0000;stroke-opacity:1">
		<line
   class="st0"
   x1="892.90002"
   y1="368.5"
   x2="878.70001"
   y2="368.5"
   id="line271"
   style="stroke:#ff0000;stroke-opacity:1" />
	</g>
	<g
   id="LINE_3524_"
   style="stroke:#ff0000;stroke-opacity:1">
		<line
   class="st0"
   x1="1658.3"
   y1="255.10001"
   x2="1658.3"
   y2="198.39999"
   id="line274"
   style="stroke:#ff0000;stroke-opacity:1" />
	</g>
	<g
   id="LINE_3523_"
   style="stroke:#ff0000;stroke-opacity:1">
		<line
   class="st0"
   x1="1658.3"
   y1="85"
   x2="1672.4"
   y2="85"
   id="line277"
   style="stroke:#ff0000;stroke-opacity:1" />
	</g>
	<g
   id="LINE_3522_"
   style="stroke:#ff0000;stroke-opacity:1">
		<line
   class="st0"
   x1="963.79999"
   y1="1105.5"
   x2="907.09998"
   y2="1105.5"
   id="line280"
   style="stroke:#ff0000;stroke-opacity:1" />
	</g>
	<g
   id="LINE_3521_"
   style="stroke:#ff0000;stroke-opacity:1">
		<line
   class="st0"
   x1="1303.9"
   y1="1133.9"
   x2="1303.9"
   y2="1105.5"
   id="line283"
   style="stroke:#ff0000;stroke-opacity:1" />
	</g>
	<g
   id="LINE_3520_"
   style="stroke:#ff0000;stroke-opacity:1">
		<line
   class="st0"
   x1="1530.7"
   y1="1133.9"
   x2="1530.7"
   y2="1105.5"
   id="line286"
   style="stroke:#ff0000;stroke-opacity:1" />
	</g>
	<g
   id="LINE_3519_"
   style="stroke:#ff0000;stroke-opacity:1">
		<line
   class="st0"
   x1="1658.3"
   y1="141.7"
   x2="1658.3"
   y2="85"
   id="line289"
   style="stroke:#ff0000;stroke-opacity:1" />
	</g>
	<g
   id="LINE_3518_"
   style="stroke:#ff0000;stroke-opacity:1">
		<line
   class="st0"
   x1="1360.6"
   y1="28.299999"
   x2="1360.6"
   y2="0"
   id="line292"
   style="stroke:#ff0000;stroke-opacity:1" />
	</g>
	<g
   id="LINE_3517_"
   style="stroke:#ff0000;stroke-opacity:1">
		<line
   class="st0"
   x1="1530.7"
   y1="1105.5"
   x2="1474"
   y2="1105.5"
   id="line295"
   style="stroke:#ff0000;stroke-opacity:1" />
	</g>
	<g
   id="LINE_3516_"
   style="stroke:#ff0000;stroke-opacity:1">
		<line
   class="st0"
   x1="1658.3"
   y1="595.29999"
   x2="1658.3"
   y2="538.59998"
   id="line298"
   style="stroke:#ff0000;stroke-opacity:1" />
	</g>
	<g
   id="LINE_3515_"
   style="stroke:#ff0000;stroke-opacity:1">
		<line
   class="st0"
   x1="1417.3"
   y1="1133.9"
   x2="1417.3"
   y2="1105.5"
   id="line301"
   style="stroke:#ff0000;stroke-opacity:1" />
	</g>
	<g
   id="LINE_3514_"
   style="stroke:#ff0000;stroke-opacity:1">
		<line
   class="st0"
   x1="963.79999"
   y1="1133.9"
   x2="963.79999"
   y2="1105.5"
   id="line304"
   style="stroke:#ff0000;stroke-opacity:1" />
	</g>
	<g
   id="LINE_3513_"
   style="stroke:#ff0000;stroke-opacity:1">
		<line
   class="st0"
   x1="1077.2"
   y1="28.299999"
   x2="1077.2"
   y2="0"
   id="line307"
   style="stroke:#ff0000;stroke-opacity:1" />
	</g>
	<g
   id="LINE_3512_"
   style="stroke:#ff0000;stroke-opacity:1">
		<line
   class="st0"
   x1="907.09998"
   y1="0"
   x2="850.40002"
   y2="0"
   id="line310"
   style="stroke:#ff0000;stroke-opacity:1" />
	</g>
	<g
   id="LINE_3511_"
   style="stroke:#ff0000;stroke-opacity:1">
		<line
   class="st0"
   x1="878.70001"
   y1="368.5"
   x2="878.70001"
   y2="311.79999"
   id="line313"
   style="stroke:#ff0000;stroke-opacity:1" />
	</g>
	<g
   id="LINE_3510_"
   style="stroke:#ff0000;stroke-opacity:1">
		<line
   class="st0"
   x1="963.79999"
   y1="28.299999"
   x2="963.79999"
   y2="0"
   id="line316"
   style="stroke:#ff0000;stroke-opacity:1" />
	</g>
	<g
   id="LINE_3509_"
   style="stroke:#ff0000;stroke-opacity:1">
		<line
   class="st0"
   x1="1672.4"
   y1="198.39999"
   x2="1672.4"
   y2="255.10001"
   id="line319"
   style="stroke:#ff0000;stroke-opacity:1" />
	</g>
	<g
   id="LINE_3508_"
   style="stroke:#ff0000;stroke-opacity:1">
		<line
   class="st0"
   x1="1133.9"
   y1="28.299999"
   x2="1190.6"
   y2="28.299999"
   id="line322"
   style="stroke:#ff0000;stroke-opacity:1" />
	</g>
	<g
   id="LINE_3507_"
   style="stroke:#ff0000;stroke-opacity:1">
		<line
   class="st0"
   x1="907.09998"
   y1="28.299999"
   x2="963.79999"
   y2="28.299999"
   id="line325"
   style="stroke:#ff0000;stroke-opacity:1" />
	</g>
	<g
   id="LINE_3506_"
   style="stroke:#ff0000;stroke-opacity:1">
		<line
   class="st0"
   x1="1587.4"
   y1="0"
   x2="1587.4"
   y2="28.299999"
   id="line328"
   style="stroke:#ff0000;stroke-opacity:1" />
	</g>
	<g
   id="LINE_3505_"
   style="stroke:#ff0000;stroke-opacity:1">
		<line
   class="st0"
   x1="1672.4"
   y1="1048.8"
   x2="1658.3"
   y2="1048.8"
   id="line331"
   style="stroke:#ff0000;stroke-opacity:1" />
	</g>
	<g
   id="LINE_3504_"
   style="stroke:#ff0000;stroke-opacity:1">
		<line
   class="st0"
   x1="892.90002"
   y1="255.10001"
   x2="878.70001"
   y2="255.10001"
   id="line334"
   style="stroke:#ff0000;stroke-opacity:1" />
	</g>
	<g
   id="LINE_3503_"
   style="stroke:#ff0000;stroke-opacity:1">
		<line
   class="st0"
   x1="1474"
   y1="1105.5"
   x2="1474"
   y2="1133.9"
   id="line337"
   style="stroke:#ff0000;stroke-opacity:1" />
	</g>
	<g
   id="LINE_3502_"
   style="stroke:#ff0000;stroke-opacity:1">
		<line
   class="st0"
   x1="907.09998"
   y1="0"
   x2="907.09998"
   y2="28.299999"
   id="line340"
   style="stroke:#ff0000;stroke-opacity:1" />
	</g>
	<g
   id="LINE_3501_"
   style="stroke:#ff0000;stroke-opacity:1">
		<line
   class="st0"
   x1="1190.6"
   y1="1105.5"
   x2="1133.9"
   y2="1105.5"
   id="line343"
   style="stroke:#ff0000;stroke-opacity:1" />
	</g>
	<g
   id="LINE_3500_"
   style="stroke:#ff0000;stroke-opacity:1">
		<line
   class="st0"
   x1="1417.3"
   y1="1105.5"
   x2="1360.6"
   y2="1105.5"
   id="line346"
   style="stroke:#ff0000;stroke-opacity:1" />
	</g>
	<g
   id="LINE_3499_"
   style="stroke:#ff0000;stroke-opacity:1">
		<line
   class="st0"
   x1="1020.5"
   y1="0"
   x2="963.79999"
   y2="0"
   id="line349"
   style="stroke:#ff0000;stroke-opacity:1" />
	</g>
	<g
   id="LINE_3498_"
   style="stroke:#ff0000;stroke-opacity:1">
		<line
   class="st0"
   x1="1303.9"
   y1="28.299999"
   x2="1303.9"
   y2="0"
   id="line352"
   style="stroke:#ff0000;stroke-opacity:1" />
	</g>
	<g
   id="LINE_3497_"
   style="stroke:#ff0000;stroke-opacity:1">
		<line
   class="st0"
   x1="1133.9"
   y1="0"
   x2="1077.2"
   y2="0"
   id="line355"
   style="stroke:#ff0000;stroke-opacity:1" />
	</g>
	<g
   id="LINE_3496_"
   style="stroke:#ff0000;stroke-opacity:1">
		<line
   class="st0"
   x1="1672.4"
   y1="368.5"
   x2="1658.3"
   y2="368.5"
   id="line358"
   style="stroke:#ff0000;stroke-opacity:1" />
	</g>
	<g
   id="LINE_3495_"
   style="stroke:#ff0000;stroke-opacity:1">
		<line
   class="st0"
   x1="1644.1"
   y1="1133.9"
   x2="1644.1"
   y2="1105.5"
   id="line361"
   style="stroke:#ff0000;stroke-opacity:1" />
	</g>
	<g
   id="LINE_3494_"
   style="stroke:#ff0000;stroke-opacity:1">
		<line
   class="st0"
   x1="1658.3"
   y1="652"
   x2="1672.4"
   y2="652"
   id="line364"
   style="stroke:#ff0000;stroke-opacity:1" />
	</g>
	<g
   id="LINE_3493_"
   style="stroke:#ff0000;stroke-opacity:1">
		<line
   class="st0"
   x1="1020.5"
   y1="0"
   x2="1020.5"
   y2="28.299999"
   id="line367"
   style="stroke:#ff0000;stroke-opacity:1" />
	</g>
	<g
   id="LINE_3492_"
   style="stroke:#ff0000;stroke-opacity:1">
		<line
   class="st0"
   x1="1700.8"
   y1="1133.9"
   x2="1700.8"
   y2="0"
   id="line370"
   style="stroke:#ff0000;stroke-opacity:1" />
	</g>
	<g
   id="LINE_3491_"
   style="stroke:#ff0000;stroke-opacity:1">
		<line
   class="st0"
   x1="1303.9"
   y1="1133.9"
   x2="1360.6"
   y2="1133.9"
   id="line373"
   style="stroke:#ff0000;stroke-opacity:1" />
	</g>
	<g
   id="LINE_3490_"
   style="stroke:#ff0000;stroke-opacity:1">
		<line
   class="st0"
   x1="1658.3"
   y1="481.89999"
   x2="1658.3"
   y2="425.20001"
   id="line376"
   style="stroke:#ff0000;stroke-opacity:1" />
	</g>
	<g
   id="LINE_3489_"
   style="stroke:#ff0000;stroke-opacity:1">
		<line
   class="st0"
   x1="892.90002"
   y1="198.39999"
   x2="892.90002"
   y2="255.10001"
   id="line379"
   style="stroke:#ff0000;stroke-opacity:1" />
	</g>
	<g
   id="LINE_3488_"
   style="stroke:#ff0000;stroke-opacity:1">
		<line
   class="st0"
   x1="1672.4"
   y1="141.7"
   x2="1658.3"
   y2="141.7"
   id="line382"
   style="stroke:#ff0000;stroke-opacity:1" />
	</g>
	<g
   id="LINE_3487_"
   style="stroke:#ff0000;stroke-opacity:1">
		<line
   class="st0"
   x1="1672.4"
   y1="425.20001"
   x2="1672.4"
   y2="481.89999"
   id="line385"
   style="stroke:#ff0000;stroke-opacity:1" />
	</g>
	<g
   id="LINE_3486_"
   style="stroke:#ff0000;stroke-opacity:1">
		<line
   class="st0"
   x1="1644.1"
   y1="1105.5"
   x2="1587.4"
   y2="1105.5"
   id="line388"
   style="stroke:#ff0000;stroke-opacity:1" />
	</g>
	<g
   id="LINE_3485_"
   style="stroke:#ff0000;stroke-opacity:1">
		<line
   class="st0"
   x1="1587.4"
   y1="1105.5"
   x2="1587.4"
   y2="1133.9"
   id="line391"
   style="stroke:#ff0000;stroke-opacity:1" />
	</g>
	<g
   id="LINE_3484_"
   style="stroke:#ff0000;stroke-opacity:1">
		<line
   class="st0"
   x1="992.09998"
   y1="283.5"
   x2="1559.1"
   y2="283.5"
   id="line394"
   style="stroke:#ff0000;stroke-opacity:1" />
	</g>
	<g
   id="LINE_3483_"
   style="stroke:#ff0000;stroke-opacity:1">
		<line
   class="st0"
   x1="1247.2"
   y1="0"
   x2="1247.2"
   y2="28.299999"
   id="line397"
   style="stroke:#ff0000;stroke-opacity:1" />
	</g>
	<g
   id="LINE_3482_"
   style="stroke:#ff0000;stroke-opacity:1">
		<line
   class="st0"
   x1="1672.4"
   y1="652"
   x2="1672.4"
   y2="708.70001"
   id="line400"
   style="stroke:#ff0000;stroke-opacity:1" />
	</g>
	<g
   id="LINE_3481_"
   style="stroke:#ff0000;stroke-opacity:1">
		<line
   class="st0"
   x1="1672.4"
   y1="255.10001"
   x2="1658.3"
   y2="255.10001"
   id="line403"
   style="stroke:#ff0000;stroke-opacity:1" />
	</g>
	<g
   id="LINE_3480_"
   style="stroke:#ff0000;stroke-opacity:1">
		<line
   class="st0"
   x1="1672.4"
   y1="85"
   x2="1672.4"
   y2="141.7"
   id="line406"
   style="stroke:#ff0000;stroke-opacity:1" />
	</g>
	<g
   id="LINE_3479_"
   style="stroke:#ff0000;stroke-opacity:1">
		<line
   class="st0"
   x1="878.70001"
   y1="141.7"
   x2="878.70001"
   y2="85"
   id="line409"
   style="stroke:#ff0000;stroke-opacity:1" />
	</g>
	<g
   id="LINE_3478_"
   style="stroke:#ff0000;stroke-opacity:1">
		<line
   class="st0"
   x1="1672.4"
   y1="708.70001"
   x2="1658.3"
   y2="708.70001"
   id="line412"
   style="stroke:#ff0000;stroke-opacity:1" />
	</g>
	<g
   id="LINE_3477_"
   style="stroke:#ff0000;stroke-opacity:1">
		<line
   class="st0"
   x1="1658.3"
   y1="765.40002"
   x2="1672.4"
   y2="765.40002"
   id="line415"
   style="stroke:#ff0000;stroke-opacity:1" />
	</g>
	<g
   id="LINE_3476_"
   style="stroke:#ff0000;stroke-opacity:1">
		<line
   class="st0"
   x1="1644.1"
   y1="1133.9"
   x2="1700.8"
   y2="1133.9"
   id="line418"
   style="stroke:#ff0000;stroke-opacity:1" />
	</g>
	<g
   id="LINE_3475_"
   style="stroke:#ff0000;stroke-opacity:1">
		<line
   class="st0"
   x1="1658.3"
   y1="538.59998"
   x2="1672.4"
   y2="538.59998"
   id="line421"
   style="stroke:#ff0000;stroke-opacity:1" />
	</g>
	<g
   id="LINE_3474_"
   style="stroke:#ff0000;stroke-opacity:1">
		<line
   class="st0"
   x1="1530.7"
   y1="1133.9"
   x2="1587.4"
   y2="1133.9"
   id="line424"
   style="stroke:#ff0000;stroke-opacity:1" />
	</g>
	<g
   id="LINE_3473_"
   style="stroke:#ff0000;stroke-opacity:1">
		<line
   class="st0"
   x1="1190.6"
   y1="28.299999"
   x2="1190.6"
   y2="0"
   id="line427"
   style="stroke:#ff0000;stroke-opacity:1" />
	</g>
	<g
   id="LINE_3472_"
   style="stroke:#ff0000;stroke-opacity:1">
		<line
   class="st0"
   x1="1658.3"
   y1="198.39999"
   x2="1672.4"
   y2="198.39999"
   id="line430"
   style="stroke:#ff0000;stroke-opacity:1" />
	</g>
	<g
   id="LINE_3471_"
   style="stroke:#ff0000;stroke-opacity:1">
		<line
   class="st0"
   x1="1020.5"
   y1="28.299999"
   x2="1077.2"
   y2="28.299999"
   id="line433"
   style="stroke:#ff0000;stroke-opacity:1" />
	</g>
	<g
   id="LINE_3470_"
   style="stroke:#ff0000;stroke-opacity:1">
		<line
   class="st0"
   x1="1474"
   y1="0"
   x2="1474"
   y2="28.299999"
   id="line436"
   style="stroke:#ff0000;stroke-opacity:1" />
	</g>
	<g
   id="LINE_3469_"
   style="stroke:#ff0000;stroke-opacity:1">
		<line
   class="st0"
   x1="1303.9"
   y1="1105.5"
   x2="1247.2"
   y2="1105.5"
   id="line439"
   style="stroke:#ff0000;stroke-opacity:1" />
	</g>
	<g
   id="LINE_3468_"
   style="stroke:#ff0000;stroke-opacity:1">
		<line
   class="st0"
   x1="1587.4"
   y1="0"
   x2="1530.7"
   y2="0"
   id="line442"
   style="stroke:#ff0000;stroke-opacity:1" />
	</g>
	<g
   id="LINE_3467_"
   style="stroke:#ff0000;stroke-opacity:1">
		<line
   class="st0"
   x1="1190.6"
   y1="1133.9"
   x2="1190.6"
   y2="1105.5"
   id="line445"
   style="stroke:#ff0000;stroke-opacity:1" />
	</g>
	<g
   id="LINE_3466_"
   style="stroke:#ff0000;stroke-opacity:1">
		<line
   class="st0"
   x1="878.70001"
   y1="652"
   x2="892.90002"
   y2="652"
   id="line448"
   style="stroke:#ff0000;stroke-opacity:1" />
	</g>
	<g
   id="LINE_3465_"
   style="stroke:#ff0000;stroke-opacity:1">
		<line
   class="st0"
   x1="1672.4"
   y1="878.70001"
   x2="1672.4"
   y2="935.40002"
   id="line451"
   style="stroke:#ff0000;stroke-opacity:1" />
	</g>
	<g
   id="LINE_3464_"
   style="stroke:#ff0000;stroke-opacity:1">
		<line
   class="st0"
   x1="1587.4"
   y1="28.299999"
   x2="1644.1"
   y2="28.299999"
   id="line454"
   style="stroke:#ff0000;stroke-opacity:1" />
	</g>
	<g
   id="LINE_3463_"
   style="stroke:#ff0000;stroke-opacity:1">
		<line
   class="st0"
   x1="963.79999"
   y1="1133.9"
   x2="1020.5"
   y2="1133.9"
   id="line457"
   style="stroke:#ff0000;stroke-opacity:1" />
	</g>
	<g
   id="LINE_3462_"
   style="stroke:#ff0000;stroke-opacity:1">
		<line
   class="st0"
   x1="1417.3"
   y1="0"
   x2="1417.3"
   y2="28.299999"
   id="line460"
   style="stroke:#ff0000;stroke-opacity:1" />
	</g>
	<g
   id="LINE_3461_"
   style="stroke:#ff0000;stroke-opacity:1">
		<line
   class="st0"
   x1="1077.2"
   y1="1133.9"
   x2="1077.2"
   y2="1105.5"
   id="line463"
   style="stroke:#ff0000;stroke-opacity:1" />
	</g>
	<g
   id="LINE_3460_"
   style="stroke:#ff0000;stroke-opacity:1">
		<line
   class="st0"
   x1="1474"
   y1="0"
   x2="1417.3"
   y2="0"
   id="line466"
   style="stroke:#ff0000;stroke-opacity:1" />
	</g>
	<g
   id="LINE_3459_"
   style="stroke:#ff0000;stroke-opacity:1">
		<line
   class="st0"
   x1="1700.8"
   y1="0"
   x2="1644.1"
   y2="0"
   id="line469"
   style="stroke:#ff0000;stroke-opacity:1" />
	</g>
	<g
   id="LINE_3458_"
   style="stroke:#ff0000;stroke-opacity:1">
		<line
   class="st0"
   x1="892.90002"
   y1="765.40002"
   x2="892.90002"
   y2="822"
   id="line472"
   style="stroke:#ff0000;stroke-opacity:1" />
	</g>
	<g
   id="LINE_3457_"
   style="stroke:#ff0000;stroke-opacity:1">
		<line
   class="st0"
   x1="892.90002"
   y1="595.29999"
   x2="878.70001"
   y2="595.29999"
   id="line475"
   style="stroke:#ff0000;stroke-opacity:1" />
	</g>
	<g
   id="LINE_3456_"
   style="stroke:#ff0000;stroke-opacity:1">
		<line
   class="st0"
   x1="1360.6"
   y1="0"
   x2="1303.9"
   y2="0"
   id="line478"
   style="stroke:#ff0000;stroke-opacity:1" />
	</g>
	<g
   id="LINE_3455_"
   style="stroke:#ff0000;stroke-opacity:1">
		<line
   class="st0"
   x1="907.09998"
   y1="1105.5"
   x2="907.09998"
   y2="1133.9"
   id="line481"
   style="stroke:#ff0000;stroke-opacity:1" />
	</g>
	<g
   id="LINE_3454_"
   style="stroke:#ff0000;stroke-opacity:1">
		<line
   class="st0"
   x1="1658.3"
   y1="822"
   x2="1658.3"
   y2="765.40002"
   id="line484"
   style="stroke:#ff0000;stroke-opacity:1" />
	</g>
	<g
   id="LINE_3453_"
   style="stroke:#ff0000;stroke-opacity:1">
		<line
   class="st0"
   x1="892.90002"
   y1="652"
   x2="892.90002"
   y2="708.70001"
   id="line487"
   style="stroke:#ff0000;stroke-opacity:1" />
	</g>
	<g
   id="LINE_3452_"
   style="stroke:#ff0000;stroke-opacity:1">
		<line
   class="st0"
   x1="878.70001"
   y1="878.70001"
   x2="892.90002"
   y2="878.70001"
   id="line490"
   style="stroke:#ff0000;stroke-opacity:1" />
	</g>
	<g
   id="LINE_3451_"
   style="stroke:#ff0000;stroke-opacity:1">
		<line
   class="st0"
   x1="1672.4"
   y1="538.59998"
   x2="1672.4"
   y2="595.29999"
   id="line493"
   style="stroke:#ff0000;stroke-opacity:1" />
	</g>
	<g
   id="LINE_3450_"
   style="stroke:#ff0000;stroke-opacity:1">
		<line
   class="st0"
   x1="892.90002"
   y1="822"
   x2="878.70001"
   y2="822"
   id="line496"
   style="stroke:#ff0000;stroke-opacity:1" />
	</g>
	<g
   id="LINE_3449_"
   style="stroke:#ff0000;stroke-opacity:1">
		<line
   class="st0"
   x1="892.90002"
   y1="935.40002"
   x2="878.70001"
   y2="935.40002"
   id="line499"
   style="stroke:#ff0000;stroke-opacity:1" />
	</g>
	<g
   id="LINE_3448_"
   style="stroke:#ff0000;stroke-opacity:1">
		<line
   class="st0"
   x1="1133.9"
   y1="0"
   x2="1133.9"
   y2="28.299999"
   id="line502"
   style="stroke:#ff0000;stroke-opacity:1" />
	</g>
	<g
   id="LINE_3447_"
   style="stroke:#ff0000;stroke-opacity:1">
		<line
   class="st0"
   x1="1417.3"
   y1="1133.9"
   x2="1474"
   y2="1133.9"
   id="line505"
   style="stroke:#ff0000;stroke-opacity:1" />
	</g>
	<g
   id="LINE_3446_"
   style="stroke:#ff0000;stroke-opacity:1">
		<line
   class="st0"
   x1="1644.1"
   y1="28.299999"
   x2="1644.1"
   y2="0"
   id="line508"
   style="stroke:#ff0000;stroke-opacity:1" />
	</g>
	<g
   id="LINE_3445_"
   style="stroke:#ff0000;stroke-opacity:1">
		<line
   class="st0"
   x1="878.70001"
   y1="538.59998"
   x2="892.90002"
   y2="538.59998"
   id="line511"
   style="stroke:#ff0000;stroke-opacity:1" />
	</g>
	<g
   id="LINE_3444_"
   style="stroke:#ff0000;stroke-opacity:1">
		<line
   class="st0"
   x1="892.90002"
   y1="538.59998"
   x2="892.90002"
   y2="595.29999"
   id="line514"
   style="stroke:#ff0000;stroke-opacity:1" />
	</g>
	<g
   id="LINE_3443_"
   style="stroke:#ff0000;stroke-opacity:1">
		<line
   class="st0"
   x1="1474"
   y1="28.299999"
   x2="1530.7"
   y2="28.299999"
   id="line517"
   style="stroke:#ff0000;stroke-opacity:1" />
	</g>
	<g
   id="LINE_3442_"
   style="stroke:#ff0000;stroke-opacity:1">
		<line
   class="st0"
   x1="1247.2"
   y1="28.299999"
   x2="1303.9"
   y2="28.299999"
   id="line520"
   style="stroke:#ff0000;stroke-opacity:1" />
	</g>
	<g
   id="LINE_3441_"
   style="stroke:#ff0000;stroke-opacity:1">
		<line
   class="st0"
   x1="892.90002"
   y1="141.7"
   x2="878.70001"
   y2="141.7"
   id="line523"
   style="stroke:#ff0000;stroke-opacity:1" />
	</g>
	<g
   id="LINE_3440_"
   style="stroke:#ff0000;stroke-opacity:1">
		<line
   class="st0"
   x1="878.70001"
   y1="85"
   x2="892.90002"
   y2="85"
   id="line526"
   style="stroke:#ff0000;stroke-opacity:1" />
	</g>
	<g
   id="LINE_3439_"
   style="stroke:#ff0000;stroke-opacity:1">
		<line
   class="st0"
   x1="850.40002"
   y1="1133.9"
   x2="907.09998"
   y2="1133.9"
   id="line529"
   style="stroke:#ff0000;stroke-opacity:1" />
	</g>
	<g
   id="LINE_3438_"
   style="stroke:#ff0000;stroke-opacity:1">
		<line
   class="st0"
   x1="1672.4"
   y1="481.89999"
   x2="1658.3"
   y2="481.89999"
   id="line532"
   style="stroke:#ff0000;stroke-opacity:1" />
	</g>
	<g
   id="LINE_3437_"
   style="stroke:#ff0000;stroke-opacity:1">
		<line
   class="st0"
   x1="1559.1"
   y1="283.5"
   x2="1559.1"
   y2="850.40002"
   id="line535"
   style="stroke:#ff0000;stroke-opacity:1" />
	</g>
	<g
   id="LINE_3436_"
   style="stroke:#ff0000;stroke-opacity:1">
		<line
   class="st0"
   x1="892.90002"
   y1="992.09998"
   x2="892.90002"
   y2="1048.8"
   id="line538"
   style="stroke:#ff0000;stroke-opacity:1" />
	</g>
	<g
   id="LINE_3435_"
   style="stroke:#ff0000;stroke-opacity:1">
		<line
   class="st0"
   x1="1658.3"
   y1="1048.8"
   x2="1658.3"
   y2="992.09998"
   id="line541"
   style="stroke:#ff0000;stroke-opacity:1" />
	</g>
	<g
   id="LINE_3434_"
   style="stroke:#ff0000;stroke-opacity:1">
		<line
   class="st0"
   x1="1360.6"
   y1="1105.5"
   x2="1360.6"
   y2="1133.9"
   id="line544"
   style="stroke:#ff0000;stroke-opacity:1" />
	</g>
	<g
   id="LINE_3433_"
   style="stroke:#ff0000;stroke-opacity:1">
		<line
   class="st0"
   x1="1658.3"
   y1="935.40002"
   x2="1658.3"
   y2="878.70001"
   id="line547"
   style="stroke:#ff0000;stroke-opacity:1" />
	</g>
	<g
   id="LINE_3432_"
   style="stroke:#ff0000;stroke-opacity:1">
		<line
   class="st0"
   x1="1672.4"
   y1="595.29999"
   x2="1658.3"
   y2="595.29999"
   id="line550"
   style="stroke:#ff0000;stroke-opacity:1" />
	</g>
	<g
   id="LINE_3431_"
   style="stroke:#ff0000;stroke-opacity:1">
		<line
   class="st0"
   x1="892.90002"
   y1="878.70001"
   x2="892.90002"
   y2="935.40002"
   id="line553"
   style="stroke:#ff0000;stroke-opacity:1" />
	</g>
	<g
   id="LINE_3430_"
   style="stroke:#ff0000;stroke-opacity:1">
		<line
   class="st0"
   x1="1672.4"
   y1="822"
   x2="1658.3"
   y2="822"
   id="line556"
   style="stroke:#ff0000;stroke-opacity:1" />
	</g>
	<g
   id="LINE_3429_"
   style="stroke:#ff0000;stroke-opacity:1">
		<line
   class="st0"
   x1="892.90002"
   y1="481.89999"
   x2="878.70001"
   y2="481.89999"
   id="line559"
   style="stroke:#ff0000;stroke-opacity:1" />
	</g>
	<g
   id="LINE_3428_"
   style="stroke:#ff0000;stroke-opacity:1">
		<line
   class="st0"
   x1="1247.2"
   y1="1105.5"
   x2="1247.2"
   y2="1133.9"
   id="line562"
   style="stroke:#ff0000;stroke-opacity:1" />
	</g>
	<g
   id="LINE_3427_"
   style="stroke:#ff0000;stroke-opacity:1">
		<line
   class="st0"
   x1="1530.7"
   y1="28.299999"
   x2="1530.7"
   y2="0"
   id="line565"
   style="stroke:#ff0000;stroke-opacity:1" />
	</g>
	<g
   id="LINE_3426_"
   style="stroke:#ff0000;stroke-opacity:1">
		<line
   class="st0"
   x1="878.70001"
   y1="935.40002"
   x2="878.70001"
   y2="878.70001"
   id="line568"
   style="stroke:#ff0000;stroke-opacity:1" />
	</g>
	<g
   id="LINE_3425_"
   style="stroke:#ff0000;stroke-opacity:1">
		<line
   class="st0"
   x1="878.70001"
   y1="481.89999"
   x2="878.70001"
   y2="425.20001"
   id="line571"
   style="stroke:#ff0000;stroke-opacity:1" />
	</g>
	<g
   id="LINE_3424_"
   style="stroke:#ff0000;stroke-opacity:1">
		<line
   class="st0"
   x1="878.70001"
   y1="708.70001"
   x2="878.70001"
   y2="652"
   id="line574"
   style="stroke:#ff0000;stroke-opacity:1" />
	</g>
	<g
   id="LINE_3423_"
   style="stroke:#ff0000;stroke-opacity:1">
		<line
   class="st0"
   x1="1247.2"
   y1="0"
   x2="1190.6"
   y2="0"
   id="line577"
   style="stroke:#ff0000;stroke-opacity:1" />
	</g>
	<g
   id="LINE_3422_"
   style="stroke:#ff0000;stroke-opacity:1">
		<line
   class="st0"
   x1="878.70001"
   y1="1048.8"
   x2="878.70001"
   y2="992.09998"
   id="line580"
   style="stroke:#ff0000;stroke-opacity:1" />
	</g>
	<g
   id="LINE_3421_"
   style="stroke:#ff0000;stroke-opacity:1">
		<line
   class="st0"
   x1="1658.3"
   y1="878.70001"
   x2="1672.4"
   y2="878.70001"
   id="line583"
   style="stroke:#ff0000;stroke-opacity:1" />
	</g>
	<g
   id="LINE_3420_"
   style="stroke:#ff0000;stroke-opacity:1">
		<line
   class="st0"
   x1="1672.4"
   y1="935.40002"
   x2="1658.3"
   y2="935.40002"
   id="line586"
   style="stroke:#ff0000;stroke-opacity:1" />
	</g>
	<g
   id="LINE_3419_"
   style="stroke:#ff0000;stroke-opacity:1">
		<line
   class="st0"
   x1="1474"
   y1="396.89999"
   x2="1417.3"
   y2="396.89999"
   id="line589"
   style="stroke:#ff0000;stroke-opacity:1" />
	</g>
	<g
   id="LINE_3418_"
   style="stroke:#ff0000;stroke-opacity:1">
		<line
   class="st0"
   x1="1133.9"
   y1="411"
   x2="1133.9"
   y2="396.89999"
   id="line592"
   style="stroke:#ff0000;stroke-opacity:1" />
	</g>
	<g
   id="LINE_3417_"
   style="stroke:#ff0000;stroke-opacity:1">
		<line
   class="st0"
   x1="1530.7"
   y1="588.20001"
   x2="1544.9"
   y2="588.20001"
   id="line595"
   style="stroke:#ff0000;stroke-opacity:1" />
	</g>
	<g
   id="LINE_3416_"
   style="stroke:#ff0000;stroke-opacity:1">
		<line
   class="st0"
   x1="1530.7"
   y1="815"
   x2="1544.9"
   y2="815"
   id="line598"
   style="stroke:#ff0000;stroke-opacity:1" />
	</g>
	<g
   id="LINE_3415_"
   style="stroke:#ff0000;stroke-opacity:1">
		<line
   class="st0"
   x1="1077.2"
   y1="836.20001"
   x2="1077.2"
   y2="850.40002"
   id="line601"
   style="stroke:#ff0000;stroke-opacity:1" />
	</g>
	<g
   id="LINE_3414_"
   style="stroke:#ff0000;stroke-opacity:1">
		<line
   class="st0"
   x1="1530.7"
   y1="474.79999"
   x2="1544.9"
   y2="474.79999"
   id="line604"
   style="stroke:#ff0000;stroke-opacity:1" />
	</g>
	<g
   id="LINE_3413_"
   style="stroke:#ff0000;stroke-opacity:1">
		<line
   class="st0"
   x1="1190.6"
   y1="836.20001"
   x2="1190.6"
   y2="850.40002"
   id="line607"
   style="stroke:#ff0000;stroke-opacity:1" />
	</g>
	<g
   id="LINE_3412_"
   style="stroke:#ff0000;stroke-opacity:1">
		<line
   class="st0"
   x1="1530.7"
   y1="701.59998"
   x2="1544.9"
   y2="701.59998"
   id="line610"
   style="stroke:#ff0000;stroke-opacity:1" />
	</g>
	<g
   id="LINE_3411_"
   style="stroke:#ff0000;stroke-opacity:1">
		<line
   class="st0"
   x1="999.20001"
   y1="657.20001"
   x2="1002.1"
   y2="654.90002"
   id="line613"
   style="stroke:#ff0000;stroke-opacity:1" />
	</g>
	<g
   id="LINE_3410_"
   style="stroke:#ff0000;stroke-opacity:1">
		<line
   class="st0"
   x1="992.09998"
   y1="850.40002"
   x2="992.09998"
   y2="659.09998"
   id="line616"
   style="stroke:#ff0000;stroke-opacity:1" />
	</g>
	<g
   id="LINE_3409_"
   style="stroke:#ff0000;stroke-opacity:1">
		<line
   class="st0"
   x1="992.09998"
   y1="659.09998"
   x2="995.79999"
   y2="658.59998"
   id="line619"
   style="stroke:#ff0000;stroke-opacity:1" />
	</g>
	<g
   id="LINE_3408_"
   style="stroke:#ff0000;stroke-opacity:1">
		<line
   class="st0"
   x1="995.79999"
   y1="658.59998"
   x2="999.20001"
   y2="657.20001"
   id="line622"
   style="stroke:#ff0000;stroke-opacity:1" />
	</g>
	<g
   id="LINE_3407_"
   style="stroke:#ff0000;stroke-opacity:1">
		<line
   class="st0"
   x1="1002.1"
   y1="654.90002"
   x2="1004.4"
   y2="652"
   id="line625"
   style="stroke:#ff0000;stroke-opacity:1" />
	</g>
	<g
   id="LINE_3406_"
   style="stroke:#ff0000;stroke-opacity:1">
		<line
   class="st0"
   x1="1004.4"
   y1="637.79999"
   x2="1002.1"
   y2="634.90002"
   id="line628"
   style="stroke:#ff0000;stroke-opacity:1" />
	</g>
	<g
   id="LINE_3405_"
   style="stroke:#ff0000;stroke-opacity:1">
		<line
   class="st0"
   x1="1002.1"
   y1="634.90002"
   x2="999.20001"
   y2="632.59998"
   id="line631"
   style="stroke:#ff0000;stroke-opacity:1" />
	</g>
	<g
   id="LINE_3404_"
   style="stroke:#ff0000;stroke-opacity:1">
		<line
   class="st0"
   x1="1006.3"
   y1="644.90002"
   x2="1005.8"
   y2="641.20001"
   id="line634"
   style="stroke:#ff0000;stroke-opacity:1" />
	</g>
	<g
   id="LINE_3403_"
   style="stroke:#ff0000;stroke-opacity:1">
		<line
   class="st0"
   x1="1005.8"
   y1="641.20001"
   x2="1004.4"
   y2="637.79999"
   id="line637"
   style="stroke:#ff0000;stroke-opacity:1" />
	</g>
	<g
   id="LINE_3402_"
   style="stroke:#ff0000;stroke-opacity:1">
		<line
   class="st0"
   x1="1005.8"
   y1="648.59998"
   x2="1006.3"
   y2="644.90002"
   id="line640"
   style="stroke:#ff0000;stroke-opacity:1" />
	</g>
	<g
   id="LINE_3401_"
   style="stroke:#ff0000;stroke-opacity:1">
		<line
   class="st0"
   x1="1004.4"
   y1="652"
   x2="1005.8"
   y2="648.59998"
   id="line643"
   style="stroke:#ff0000;stroke-opacity:1" />
	</g>
	<g
   id="LINE_3400_"
   style="stroke:#ff0000;stroke-opacity:1">
		<line
   class="st0"
   x1="1303.9"
   y1="836.20001"
   x2="1247.2"
   y2="836.20001"
   id="line646"
   style="stroke:#ff0000;stroke-opacity:1" />
	</g>
	<g
   id="LINE_3399_"
   style="stroke:#ff0000;stroke-opacity:1">
		<line
   class="st0"
   x1="1303.9"
   y1="836.20001"
   x2="1303.9"
   y2="850.40002"
   id="line649"
   style="stroke:#ff0000;stroke-opacity:1" />
	</g>
	<g
   id="LINE_3398_"
   style="stroke:#ff0000;stroke-opacity:1">
		<line
   class="st0"
   x1="1360.6"
   y1="836.20001"
   x2="1360.6"
   y2="850.40002"
   id="line652"
   style="stroke:#ff0000;stroke-opacity:1" />
	</g>
	<g
   id="LINE_3397_"
   style="stroke:#ff0000;stroke-opacity:1">
		<line
   class="st0"
   x1="1417.3"
   y1="836.20001"
   x2="1360.6"
   y2="836.20001"
   id="line655"
   style="stroke:#ff0000;stroke-opacity:1" />
	</g>
	<g
   id="LINE_3396_"
   style="stroke:#ff0000;stroke-opacity:1">
		<line
   class="st0"
   x1="1360.6"
   y1="850.40002"
   x2="1303.9"
   y2="850.40002"
   id="line658"
   style="stroke:#ff0000;stroke-opacity:1" />
	</g>
	<g
   id="LINE_3395_"
   style="stroke:#ff0000;stroke-opacity:1">
		<line
   class="st0"
   x1="1417.3"
   y1="836.20001"
   x2="1417.3"
   y2="850.40002"
   id="line661"
   style="stroke:#ff0000;stroke-opacity:1" />
	</g>
	<g
   id="LINE_3394_"
   style="stroke:#ff0000;stroke-opacity:1">
		<line
   class="st0"
   x1="1474"
   y1="850.40002"
   x2="1417.3"
   y2="850.40002"
   id="line664"
   style="stroke:#ff0000;stroke-opacity:1" />
	</g>
	<g
   id="LINE_3393_"
   style="stroke:#ff0000;stroke-opacity:1">
		<line
   class="st0"
   x1="1474"
   y1="836.20001"
   x2="1474"
   y2="850.40002"
   id="line667"
   style="stroke:#ff0000;stroke-opacity:1" />
	</g>
	<g
   id="LINE_3392_"
   style="stroke:#ff0000;stroke-opacity:1">
		<line
   class="st0"
   x1="1530.7"
   y1="836.20001"
   x2="1474"
   y2="836.20001"
   id="line670"
   style="stroke:#ff0000;stroke-opacity:1" />
	</g>
	<g
   id="LINE_3391_"
   style="stroke:#ff0000;stroke-opacity:1">
		<line
   class="st0"
   x1="1530.7"
   y1="758.29999"
   x2="1544.9"
   y2="758.29999"
   id="line673"
   style="stroke:#ff0000;stroke-opacity:1" />
	</g>
	<g
   id="LINE_3390_"
   style="stroke:#ff0000;stroke-opacity:1">
		<line
   class="st0"
   x1="1530.7"
   y1="836.20001"
   x2="1530.7"
   y2="815"
   id="line676"
   style="stroke:#ff0000;stroke-opacity:1" />
	</g>
	<g
   id="LINE_3389_"
   style="stroke:#ff0000;stroke-opacity:1">
		<line
   class="st0"
   x1="1544.9"
   y1="815"
   x2="1544.9"
   y2="758.29999"
   id="line679"
   style="stroke:#ff0000;stroke-opacity:1" />
	</g>
	<g
   id="LINE_3388_"
   style="stroke:#ff0000;stroke-opacity:1">
		<line
   class="st0"
   x1="1530.7"
   y1="758.29999"
   x2="1530.7"
   y2="701.59998"
   id="line682"
   style="stroke:#ff0000;stroke-opacity:1" />
	</g>
	<g
   id="LINE_3387_"
   style="stroke:#ff0000;stroke-opacity:1">
		<line
   class="st0"
   x1="1544.9"
   y1="701.59998"
   x2="1544.9"
   y2="588.20001"
   id="line685"
   style="stroke:#ff0000;stroke-opacity:1" />
	</g>
	<g
   id="LINE_3386_"
   style="stroke:#ff0000;stroke-opacity:1">
		<line
   class="st0"
   x1="1133.9"
   y1="850.40002"
   x2="1077.2"
   y2="850.40002"
   id="line688"
   style="stroke:#ff0000;stroke-opacity:1" />
	</g>
	<g
   id="LINE_3385_"
   style="stroke:#ff0000;stroke-opacity:1">
		<line
   class="st0"
   x1="992.09998"
   y1="630.70001"
   x2="992.09998"
   y2="396.89999"
   id="line691"
   style="stroke:#ff0000;stroke-opacity:1" />
	</g>
	<g
   id="LINE_3384_"
   style="stroke:#ff0000;stroke-opacity:1">
		<line
   class="st0"
   x1="1190.6"
   y1="836.20001"
   x2="1133.9"
   y2="836.20001"
   id="line694"
   style="stroke:#ff0000;stroke-opacity:1" />
	</g>
	<g
   id="LINE_3383_"
   style="stroke:#ff0000;stroke-opacity:1">
		<line
   class="st0"
   x1="1133.9"
   y1="836.20001"
   x2="1133.9"
   y2="850.40002"
   id="line697"
   style="stroke:#ff0000;stroke-opacity:1" />
	</g>
	<g
   id="LINE_3382_"
   style="stroke:#ff0000;stroke-opacity:1">
		<line
   class="st0"
   x1="1247.2"
   y1="850.40002"
   x2="1190.6"
   y2="850.40002"
   id="line700"
   style="stroke:#ff0000;stroke-opacity:1" />
	</g>
	<g
   id="LINE_3381_"
   style="stroke:#ff0000;stroke-opacity:1">
		<line
   class="st0"
   x1="1020.5"
   y1="850.40002"
   x2="992.09998"
   y2="850.40002"
   id="line703"
   style="stroke:#ff0000;stroke-opacity:1" />
	</g>
	<g
   id="LINE_3380_"
   style="stroke:#ff0000;stroke-opacity:1">
		<line
   class="st0"
   x1="1020.5"
   y1="836.20001"
   x2="1020.5"
   y2="850.40002"
   id="line706"
   style="stroke:#ff0000;stroke-opacity:1" />
	</g>
	<g
   id="LINE_3379_"
   style="stroke:#ff0000;stroke-opacity:1">
		<line
   class="st0"
   x1="1474"
   y1="411"
   x2="1474"
   y2="396.89999"
   id="line709"
   style="stroke:#ff0000;stroke-opacity:1" />
	</g>
	<g
   id="LINE_3378_"
   style="stroke:#ff0000;stroke-opacity:1">
		<line
   class="st0"
   x1="1077.2"
   y1="836.20001"
   x2="1020.5"
   y2="836.20001"
   id="line712"
   style="stroke:#ff0000;stroke-opacity:1" />
	</g>
	<g
   id="LINE_3377_"
   style="stroke:#ff0000;stroke-opacity:1">
		<line
   class="st0"
   x1="1247.2"
   y1="836.20001"
   x2="1247.2"
   y2="850.40002"
   id="line715"
   style="stroke:#ff0000;stroke-opacity:1" />
	</g>
	<g
   id="LINE_3376_"
   style="stroke:#ff0000;stroke-opacity:1">
		<line
   class="st0"
   x1="1530.7"
   y1="588.20001"
   x2="1530.7"
   y2="531.5"
   id="line718"
   style="stroke:#ff0000;stroke-opacity:1" />
	</g>
	<g
   id="LINE_3375_"
   style="stroke:#ff0000;stroke-opacity:1">
		<line
   class="st0"
   x1="1530.7"
   y1="531.5"
   x2="1544.9"
   y2="531.5"
   id="line721"
   style="stroke:#ff0000;stroke-opacity:1" />
	</g>
	<g
   id="LINE_3374_"
   style="stroke:#ff0000;stroke-opacity:1">
		<line
   class="st0"
   x1="1544.9"
   y1="531.5"
   x2="1544.9"
   y2="474.79999"
   id="line724"
   style="stroke:#ff0000;stroke-opacity:1" />
	</g>
	<g
   id="LINE_3373_"
   style="stroke:#ff0000;stroke-opacity:1">
		<line
   class="st0"
   x1="1530.7"
   y1="474.79999"
   x2="1530.7"
   y2="411"
   id="line727"
   style="stroke:#ff0000;stroke-opacity:1" />
	</g>
	<g
   id="LINE_3372_"
   style="stroke:#ff0000;stroke-opacity:1">
		<line
   class="st0"
   x1="1530.7"
   y1="411"
   x2="1474"
   y2="411"
   id="line730"
   style="stroke:#ff0000;stroke-opacity:1" />
	</g>
	<g
   id="LINE_3371_"
   style="stroke:#ff0000;stroke-opacity:1">
		<line
   class="st0"
   x1="1417.3"
   y1="411"
   x2="1417.3"
   y2="396.89999"
   id="line733"
   style="stroke:#ff0000;stroke-opacity:1" />
	</g>
	<g
   id="LINE_3370_"
   style="stroke:#ff0000;stroke-opacity:1">
		<line
   class="st0"
   x1="1417.3"
   y1="411"
   x2="1360.6"
   y2="411"
   id="line736"
   style="stroke:#ff0000;stroke-opacity:1" />
	</g>
	<g
   id="LINE_3369_"
   style="stroke:#ff0000;stroke-opacity:1">
		<line
   class="st0"
   x1="1360.6"
   y1="411"
   x2="1360.6"
   y2="396.89999"
   id="line739"
   style="stroke:#ff0000;stroke-opacity:1" />
	</g>
	<g
   id="LINE_3368_"
   style="stroke:#ff0000;stroke-opacity:1">
		<line
   class="st0"
   x1="1360.6"
   y1="396.89999"
   x2="1303.9"
   y2="396.89999"
   id="line742"
   style="stroke:#ff0000;stroke-opacity:1" />
	</g>
	<g
   id="LINE_3367_"
   style="stroke:#ff0000;stroke-opacity:1">
		<line
   class="st0"
   x1="1303.9"
   y1="411"
   x2="1303.9"
   y2="396.89999"
   id="line745"
   style="stroke:#ff0000;stroke-opacity:1" />
	</g>
	<g
   id="LINE_3366_"
   style="stroke:#ff0000;stroke-opacity:1">
		<line
   class="st0"
   x1="1303.9"
   y1="411"
   x2="1247.2"
   y2="411"
   id="line748"
   style="stroke:#ff0000;stroke-opacity:1" />
	</g>
	<g
   id="LINE_3365_"
   style="stroke:#ff0000;stroke-opacity:1">
		<line
   class="st0"
   x1="1247.2"
   y1="411"
   x2="1247.2"
   y2="396.89999"
   id="line751"
   style="stroke:#ff0000;stroke-opacity:1" />
	</g>
	<g
   id="LINE_3364_"
   style="stroke:#ff0000;stroke-opacity:1">
		<line
   class="st0"
   x1="1247.2"
   y1="396.89999"
   x2="1190.6"
   y2="396.89999"
   id="line754"
   style="stroke:#ff0000;stroke-opacity:1" />
	</g>
	<g
   id="LINE_3363_"
   style="stroke:#ff0000;stroke-opacity:1">
		<line
   class="st0"
   x1="1190.6"
   y1="411"
   x2="1190.6"
   y2="396.89999"
   id="line757"
   style="stroke:#ff0000;stroke-opacity:1" />
	</g>
	<g
   id="LINE_3362_"
   style="stroke:#ff0000;stroke-opacity:1">
		<line
   class="st0"
   x1="1190.6"
   y1="411"
   x2="1133.9"
   y2="411"
   id="line760"
   style="stroke:#ff0000;stroke-opacity:1" />
	</g>
	<g
   id="LINE_3361_"
   style="stroke:#ff0000;stroke-opacity:1">
		<line
   class="st0"
   x1="1133.9"
   y1="396.89999"
   x2="1077.2"
   y2="396.89999"
   id="line763"
   style="stroke:#ff0000;stroke-opacity:1" />
	</g>
	<g
   id="LINE_3360_"
   style="stroke:#ff0000;stroke-opacity:1">
		<line
   class="st0"
   x1="1077.2"
   y1="411"
   x2="1077.2"
   y2="396.89999"
   id="line766"
   style="stroke:#ff0000;stroke-opacity:1" />
	</g>
	<g
   id="LINE_3359_"
   style="stroke:#ff0000;stroke-opacity:1">
		<line
   class="st0"
   x1="1077.2"
   y1="411"
   x2="1020.5"
   y2="411"
   id="line769"
   style="stroke:#ff0000;stroke-opacity:1" />
	</g>
	<g
   id="LINE_3358_"
   style="stroke:#ff0000;stroke-opacity:1">
		<line
   class="st0"
   x1="1020.5"
   y1="411"
   x2="1020.5"
   y2="396.89999"
   id="line772"
   style="stroke:#ff0000;stroke-opacity:1" />
	</g>
	<g
   id="LINE_3357_"
   style="stroke:#ff0000;stroke-opacity:1">
		<line
   class="st0"
   x1="1020.5"
   y1="396.89999"
   x2="992.09998"
   y2="396.89999"
   id="line775"
   style="stroke:#ff0000;stroke-opacity:1" />
	</g>
	<g
   id="LINE_3356_"
   style="stroke:#ff0000;stroke-opacity:1">
		<line
   class="st0"
   x1="995.79999"
   y1="631.20001"
   x2="992.09998"
   y2="630.70001"
   id="line778"
   style="stroke:#ff0000;stroke-opacity:1" />
	</g>
	<g
   id="LINE_3355_"
   style="stroke:#ff0000;stroke-opacity:1">
		<line
   class="st0"
   x1="999.20001"
   y1="632.59998"
   x2="995.79999"
   y2="631.20001"
   id="line781"
   style="stroke:#ff0000;stroke-opacity:1" />
	</g>
	<g
   id="LINE_3354_"
   style="stroke:#ff0000;stroke-opacity:1">
		<line
   class="st0"
   x1="396.89999"
   y1="396.89999"
   x2="340.20001"
   y2="396.89999"
   id="line784"
   style="stroke:#ff0000;stroke-opacity:1" />
	</g>
	<g
   id="LINE_3353_"
   style="stroke:#ff0000;stroke-opacity:1">
		<line
   class="st0"
   x1="226.8"
   y1="411"
   x2="226.8"
   y2="396.89999"
   id="line787"
   style="stroke:#ff0000;stroke-opacity:1" />
	</g>
	<g
   id="LINE_3352_"
   style="stroke:#ff0000;stroke-opacity:1">
		<line
   class="st0"
   x1="453.5"
   y1="411"
   x2="396.89999"
   y2="411"
   id="line790"
   style="stroke:#ff0000;stroke-opacity:1" />
	</g>
	<g
   id="LINE_3351_"
   style="stroke:#ff0000;stroke-opacity:1">
		<line
   class="st0"
   x1="141.7"
   y1="396.89999"
   x2="141.7"
   y2="588.20001"
   id="line793"
   style="stroke:#ff0000;stroke-opacity:1" />
	</g>
	<g
   id="LINE_3350_"
   style="stroke:#ff0000;stroke-opacity:1">
		<line
   class="st0"
   x1="226.8"
   y1="411"
   x2="170.10001"
   y2="411"
   id="line796"
   style="stroke:#ff0000;stroke-opacity:1" />
	</g>
	<g
   id="LINE_3349_"
   style="stroke:#ff0000;stroke-opacity:1">
		<line
   class="st0"
   x1="170.10001"
   y1="396.89999"
   x2="141.7"
   y2="396.89999"
   id="line799"
   style="stroke:#ff0000;stroke-opacity:1" />
	</g>
	<g
   id="LINE_3348_"
   style="stroke:#ff0000;stroke-opacity:1">
		<line
   class="st0"
   x1="141.7"
   y1="588.20001"
   x2="145.39999"
   y2="588.70001"
   id="line802"
   style="stroke:#ff0000;stroke-opacity:1" />
	</g>
	<g
   id="LINE_3347_"
   style="stroke:#ff0000;stroke-opacity:1">
		<line
   class="st0"
   x1="510.20001"
   y1="411"
   x2="510.20001"
   y2="396.89999"
   id="line805"
   style="stroke:#ff0000;stroke-opacity:1" />
	</g>
	<g
   id="LINE_3346_"
   style="stroke:#ff0000;stroke-opacity:1">
		<line
   class="st0"
   x1="148.8"
   y1="590.09998"
   x2="151.8"
   y2="592.29999"
   id="line808"
   style="stroke:#ff0000;stroke-opacity:1" />
	</g>
	<g
   id="LINE_3345_"
   style="stroke:#ff0000;stroke-opacity:1">
		<line
   class="st0"
   x1="151.8"
   y1="592.29999"
   x2="154"
   y2="595.29999"
   id="line811"
   style="stroke:#ff0000;stroke-opacity:1" />
	</g>
	<g
   id="LINE_3344_"
   style="stroke:#ff0000;stroke-opacity:1">
		<line
   class="st0"
   x1="155.39999"
   y1="598.70001"
   x2="155.89999"
   y2="602.40002"
   id="line814"
   style="stroke:#ff0000;stroke-opacity:1" />
	</g>
	<g
   id="LINE_3343_"
   style="stroke:#ff0000;stroke-opacity:1">
		<line
   class="st0"
   x1="155.39999"
   y1="606"
   x2="154"
   y2="609.40002"
   id="line817"
   style="stroke:#ff0000;stroke-opacity:1" />
	</g>
	<g
   id="LINE_3342_"
   style="stroke:#ff0000;stroke-opacity:1">
		<line
   class="st0"
   x1="154"
   y1="609.40002"
   x2="151.8"
   y2="612.40002"
   id="line820"
   style="stroke:#ff0000;stroke-opacity:1" />
	</g>
	<g
   id="LINE_3341_"
   style="stroke:#ff0000;stroke-opacity:1">
		<line
   class="st0"
   x1="283.5"
   y1="411"
   x2="283.5"
   y2="396.89999"
   id="line823"
   style="stroke:#ff0000;stroke-opacity:1" />
	</g>
	<g
   id="LINE_3340_"
   style="stroke:#ff0000;stroke-opacity:1">
		<line
   class="st0"
   x1="151.8"
   y1="612.40002"
   x2="148.8"
   y2="614.59998"
   id="line826"
   style="stroke:#ff0000;stroke-opacity:1" />
	</g>
	<g
   id="LINE_3339_"
   style="stroke:#ff0000;stroke-opacity:1">
		<line
   class="st0"
   x1="148.8"
   y1="614.59998"
   x2="145.39999"
   y2="616.09998"
   id="line829"
   style="stroke:#ff0000;stroke-opacity:1" />
	</g>
	<g
   id="LINE_3338_"
   style="stroke:#ff0000;stroke-opacity:1">
		<line
   class="st0"
   x1="145.39999"
   y1="616.09998"
   x2="141.7"
   y2="616.5"
   id="line832"
   style="stroke:#ff0000;stroke-opacity:1" />
	</g>
	<g
   id="LINE_3337_"
   style="stroke:#ff0000;stroke-opacity:1">
		<line
   class="st0"
   x1="170.10001"
   y1="850.40002"
   x2="141.7"
   y2="850.40002"
   id="line835"
   style="stroke:#ff0000;stroke-opacity:1" />
	</g>
	<g
   id="LINE_3336_"
   style="stroke:#ff0000;stroke-opacity:1">
		<line
   class="st0"
   x1="623.59998"
   y1="411"
   x2="623.59998"
   y2="396.89999"
   id="line838"
   style="stroke:#ff0000;stroke-opacity:1" />
	</g>
	<g
   id="LINE_3335_"
   style="stroke:#ff0000;stroke-opacity:1">
		<line
   class="st0"
   x1="170.10001"
   y1="836.20001"
   x2="170.10001"
   y2="850.40002"
   id="line841"
   style="stroke:#ff0000;stroke-opacity:1" />
	</g>
	<g
   id="LINE_3334_"
   style="stroke:#ff0000;stroke-opacity:1">
		<line
   class="st0"
   x1="396.89999"
   y1="411"
   x2="396.89999"
   y2="396.89999"
   id="line844"
   style="stroke:#ff0000;stroke-opacity:1" />
	</g>
	<g
   id="LINE_3333_"
   style="stroke:#ff0000;stroke-opacity:1">
		<line
   class="st0"
   x1="566.90002"
   y1="411"
   x2="566.90002"
   y2="396.89999"
   id="line847"
   style="stroke:#ff0000;stroke-opacity:1" />
	</g>
	<g
   id="LINE_3332_"
   style="stroke:#ff0000;stroke-opacity:1">
		<line
   class="st0"
   x1="340.20001"
   y1="411"
   x2="283.5"
   y2="411"
   id="line850"
   style="stroke:#ff0000;stroke-opacity:1" />
	</g>
	<g
   id="LINE_3331_"
   style="stroke:#ff0000;stroke-opacity:1">
		<line
   class="st0"
   x1="283.5"
   y1="836.20001"
   x2="283.5"
   y2="850.40002"
   id="line853"
   style="stroke:#ff0000;stroke-opacity:1" />
	</g>
	<g
   id="LINE_3330_"
   style="stroke:#ff0000;stroke-opacity:1">
		<line
   class="st0"
   x1="396.89999"
   y1="836.20001"
   x2="396.89999"
   y2="850.40002"
   id="line856"
   style="stroke:#ff0000;stroke-opacity:1" />
	</g>
	<g
   id="LINE_3329_"
   style="stroke:#ff0000;stroke-opacity:1">
		<line
   class="st0"
   x1="145.39999"
   y1="588.70001"
   x2="148.8"
   y2="590.09998"
   id="line859"
   style="stroke:#ff0000;stroke-opacity:1" />
	</g>
	<g
   id="LINE_3328_"
   style="stroke:#ff0000;stroke-opacity:1">
		<line
   class="st0"
   x1="154"
   y1="595.29999"
   x2="155.39999"
   y2="598.70001"
   id="line862"
   style="stroke:#ff0000;stroke-opacity:1" />
	</g>
	<g
   id="LINE_3327_"
   style="stroke:#ff0000;stroke-opacity:1">
		<line
   class="st0"
   x1="566.90002"
   y1="411"
   x2="510.20001"
   y2="411"
   id="line865"
   style="stroke:#ff0000;stroke-opacity:1" />
	</g>
	<g
   id="LINE_3326_"
   style="stroke:#ff0000;stroke-opacity:1">
		<line
   class="st0"
   x1="340.20001"
   y1="411"
   x2="340.20001"
   y2="396.89999"
   id="line868"
   style="stroke:#ff0000;stroke-opacity:1" />
	</g>
	<g
   id="LINE_3325_"
   style="stroke:#ff0000;stroke-opacity:1">
		<line
   class="st0"
   x1="680.29999"
   y1="411"
   x2="623.59998"
   y2="411"
   id="line871"
   style="stroke:#ff0000;stroke-opacity:1" />
	</g>
	<g
   id="LINE_3324_"
   style="stroke:#ff0000;stroke-opacity:1">
		<line
   class="st0"
   x1="623.59998"
   y1="396.89999"
   x2="566.90002"
   y2="396.89999"
   id="line874"
   style="stroke:#ff0000;stroke-opacity:1" />
	</g>
	<g
   id="LINE_3323_"
   style="stroke:#ff0000;stroke-opacity:1">
		<line
   class="st0"
   x1="510.20001"
   y1="396.89999"
   x2="453.5"
   y2="396.89999"
   id="line877"
   style="stroke:#ff0000;stroke-opacity:1" />
	</g>
	<g
   id="LINE_3322_"
   style="stroke:#ff0000;stroke-opacity:1">
		<line
   class="st0"
   x1="453.5"
   y1="411"
   x2="453.5"
   y2="396.89999"
   id="line880"
   style="stroke:#ff0000;stroke-opacity:1" />
	</g>
	<g
   id="LINE_3321_"
   style="stroke:#ff0000;stroke-opacity:1">
		<line
   class="st0"
   x1="283.5"
   y1="396.89999"
   x2="226.8"
   y2="396.89999"
   id="line883"
   style="stroke:#ff0000;stroke-opacity:1" />
	</g>
	<g
   id="LINE_3320_"
   style="stroke:#ff0000;stroke-opacity:1">
		<line
   class="st0"
   x1="170.10001"
   y1="411"
   x2="170.10001"
   y2="396.89999"
   id="line886"
   style="stroke:#ff0000;stroke-opacity:1" />
	</g>
	<g
   id="LINE_3319_"
   style="stroke:#ff0000;stroke-opacity:1">
		<line
   class="st0"
   x1="155.89999"
   y1="602.40002"
   x2="155.39999"
   y2="606"
   id="line889"
   style="stroke:#ff0000;stroke-opacity:1" />
	</g>
	<g
   id="LINE_3318_"
   style="stroke:#ff0000;stroke-opacity:1">
		<line
   class="st0"
   x1="141.7"
   y1="616.5"
   x2="141.7"
   y2="850.40002"
   id="line892"
   style="stroke:#ff0000;stroke-opacity:1" />
	</g>
	<g
   id="LINE_3317_"
   style="stroke:#ff0000;stroke-opacity:1">
		<line
   class="st0"
   x1="226.8"
   y1="836.20001"
   x2="170.10001"
   y2="836.20001"
   id="line895"
   style="stroke:#ff0000;stroke-opacity:1" />
	</g>
	<g
   id="LINE_3316_"
   style="stroke:#ff0000;stroke-opacity:1">
		<line
   class="st0"
   x1="226.8"
   y1="836.20001"
   x2="226.8"
   y2="850.40002"
   id="line898"
   style="stroke:#ff0000;stroke-opacity:1" />
	</g>
	<g
   id="LINE_3315_"
   style="stroke:#ff0000;stroke-opacity:1">
		<line
   class="st0"
   x1="283.5"
   y1="850.40002"
   x2="226.8"
   y2="850.40002"
   id="line901"
   style="stroke:#ff0000;stroke-opacity:1" />
	</g>
	<g
   id="LINE_3314_"
   style="stroke:#ff0000;stroke-opacity:1">
		<line
   class="st0"
   x1="340.20001"
   y1="836.20001"
   x2="283.5"
   y2="836.20001"
   id="line904"
   style="stroke:#ff0000;stroke-opacity:1" />
	</g>
	<g
   id="LINE_3313_"
   style="stroke:#ff0000;stroke-opacity:1">
		<line
   class="st0"
   x1="340.20001"
   y1="836.20001"
   x2="340.20001"
   y2="850.40002"
   id="line907"
   style="stroke:#ff0000;stroke-opacity:1" />
	</g>
	<g
   id="LINE_3312_"
   style="stroke:#ff0000;stroke-opacity:1">
		<line
   class="st0"
   x1="396.89999"
   y1="850.40002"
   x2="340.20001"
   y2="850.40002"
   id="line910"
   style="stroke:#ff0000;stroke-opacity:1" />
	</g>
	<g
   id="LINE_3311_"
   style="stroke:#ff0000;stroke-opacity:1">
		<line
   class="st0"
   x1="453.5"
   y1="836.20001"
   x2="396.89999"
   y2="836.20001"
   id="line913"
   style="stroke:#ff0000;stroke-opacity:1" />
	</g>
	<g
   id="LINE_3310_"
   style="stroke:#ff0000;stroke-opacity:1">
		<line
   class="st0"
   x1="453.5"
   y1="836.20001"
   x2="453.5"
   y2="850.40002"
   id="line916"
   style="stroke:#ff0000;stroke-opacity:1" />
	</g>
	<g
   id="LINE_3309_"
   style="stroke:#ff0000;stroke-opacity:1">
		<line
   class="st0"
   x1="510.20001"
   y1="850.40002"
   x2="453.5"
   y2="850.40002"
   id="line919"
   style="stroke:#ff0000;stroke-opacity:1" />
	</g>
	<g
   id="LINE_3308_"
   style="stroke:#ff0000;stroke-opacity:1">
		<line
   class="st0"
   x1="510.20001"
   y1="836.20001"
   x2="510.20001"
   y2="850.40002"
   id="line922"
   style="stroke:#ff0000;stroke-opacity:1" />
	</g>
	<g
   id="LINE_3307_"
   style="stroke:#ff0000;stroke-opacity:1">
		<line
   class="st0"
   x1="566.90002"
   y1="836.20001"
   x2="510.20001"
   y2="836.20001"
   id="line925"
   style="stroke:#ff0000;stroke-opacity:1" />
	</g>
	<g
   id="LINE_3306_"
   style="stroke:#ff0000;stroke-opacity:1">
		<line
   class="st0"
   x1="566.90002"
   y1="836.20001"
   x2="566.90002"
   y2="850.40002"
   id="line928"
   style="stroke:#ff0000;stroke-opacity:1" />
	</g>
	<g
   id="LINE_3305_"
   style="stroke:#ff0000;stroke-opacity:1">
		<line
   class="st0"
   x1="623.59998"
   y1="850.40002"
   x2="566.90002"
   y2="850.40002"
   id="line931"
   style="stroke:#ff0000;stroke-opacity:1" />
	</g>
	<g
   id="LINE_3304_"
   style="stroke:#ff0000;stroke-opacity:1">
		<line
   class="st0"
   x1="623.59998"
   y1="836.20001"
   x2="623.59998"
   y2="850.40002"
   id="line934"
   style="stroke:#ff0000;stroke-opacity:1" />
	</g>
	<g
   id="LINE_3303_"
   style="stroke:#ff0000;stroke-opacity:1">
		<line
   class="st0"
   x1="680.29999"
   y1="836.20001"
   x2="623.59998"
   y2="836.20001"
   id="line937"
   style="stroke:#ff0000;stroke-opacity:1" />
	</g>
	<g
   id="LINE_3302_"
   style="stroke:#ff0000;stroke-opacity:1">
		<line
   class="st0"
   x1="680.29999"
   y1="772.40002"
   x2="680.29999"
   y2="836.20001"
   id="line940"
   style="stroke:#ff0000;stroke-opacity:1" />
	</g>
	<g
   id="LINE_3301_"
   style="stroke:#ff0000;stroke-opacity:1">
		<line
   class="st0"
   x1="680.29999"
   y1="772.40002"
   x2="694.5"
   y2="772.40002"
   id="line943"
   style="stroke:#ff0000;stroke-opacity:1" />
	</g>
	<g
   id="LINE_3300_"
   style="stroke:#ff0000;stroke-opacity:1">
		<line
   class="st0"
   x1="694.5"
   y1="715.70001"
   x2="694.5"
   y2="772.40002"
   id="line946"
   style="stroke:#ff0000;stroke-opacity:1" />
	</g>
	<g
   id="LINE_3299_"
   style="stroke:#ff0000;stroke-opacity:1">
		<line
   class="st0"
   x1="680.29999"
   y1="715.70001"
   x2="694.5"
   y2="715.70001"
   id="line949"
   style="stroke:#ff0000;stroke-opacity:1" />
	</g>
	<g
   id="LINE_3298_"
   style="stroke:#ff0000;stroke-opacity:1">
		<line
   class="st0"
   x1="680.29999"
   y1="659.09998"
   x2="680.29999"
   y2="715.70001"
   id="line952"
   style="stroke:#ff0000;stroke-opacity:1" />
	</g>
	<g
   id="LINE_3297_"
   style="stroke:#ff0000;stroke-opacity:1">
		<line
   class="st0"
   x1="680.29999"
   y1="659.09998"
   x2="694.5"
   y2="659.09998"
   id="line955"
   style="stroke:#ff0000;stroke-opacity:1" />
	</g>
	<g
   id="LINE_3296_"
   style="stroke:#ff0000;stroke-opacity:1">
		<line
   class="st0"
   x1="694.5"
   y1="545.70001"
   x2="694.5"
   y2="659.09998"
   id="line958"
   style="stroke:#ff0000;stroke-opacity:1" />
	</g>
	<g
   id="LINE_3295_"
   style="stroke:#ff0000;stroke-opacity:1">
		<line
   class="st0"
   x1="680.29999"
   y1="545.70001"
   x2="694.5"
   y2="545.70001"
   id="line961"
   style="stroke:#ff0000;stroke-opacity:1" />
	</g>
	<g
   id="LINE_3294_"
   style="stroke:#ff0000;stroke-opacity:1">
		<line
   class="st0"
   x1="680.29999"
   y1="489"
   x2="680.29999"
   y2="545.70001"
   id="line964"
   style="stroke:#ff0000;stroke-opacity:1" />
	</g>
	<g
   id="LINE_3293_"
   style="stroke:#ff0000;stroke-opacity:1">
		<line
   class="st0"
   x1="680.29999"
   y1="489"
   x2="694.5"
   y2="489"
   id="line967"
   style="stroke:#ff0000;stroke-opacity:1" />
	</g>
	<g
   id="LINE_3292_"
   style="stroke:#ff0000;stroke-opacity:1">
		<line
   class="st0"
   x1="694.5"
   y1="432.29999"
   x2="694.5"
   y2="489"
   id="line970"
   style="stroke:#ff0000;stroke-opacity:1" />
	</g>
	<g
   id="LINE_3291_"
   style="stroke:#ff0000;stroke-opacity:1">
		<line
   class="st0"
   x1="680.29999"
   y1="432.29999"
   x2="694.5"
   y2="432.29999"
   id="line973"
   style="stroke:#ff0000;stroke-opacity:1" />
	</g>
	<g
   id="LINE_3290_"
   style="stroke:#ff0000;stroke-opacity:1">
		<line
   class="st0"
   x1="680.29999"
   y1="411"
   x2="680.29999"
   y2="432.29999"
   id="line976"
   style="stroke:#ff0000;stroke-opacity:1" />
	</g>
	<g
   id="LINE_3289_"
   style="stroke:#ff0000;stroke-opacity:1">
		<line
   class="st0"
   x1="212.60001"
   y1="326"
   x2="212.60001"
   y2="340.20001"
   id="line979"
   style="stroke:#ff0000;stroke-opacity:1" />
	</g>
	<g
   id="LINE_3288_"
   style="stroke:#ff0000;stroke-opacity:1">
		<line
   class="st0"
   x1="240.89999"
   y1="382.70001"
   x2="226.8"
   y2="382.70001"
   id="line982"
   style="stroke:#ff0000;stroke-opacity:1" />
	</g>
	<g
   id="LINE_3287_"
   style="stroke:#ff0000;stroke-opacity:1">
		<line
   class="st0"
   x1="411"
   y1="368.5"
   x2="382.70001"
   y2="368.5"
   id="line985"
   style="stroke:#ff0000;stroke-opacity:1" />
	</g>
	<g
   id="LINE_3286_"
   style="stroke:#ff0000;stroke-opacity:1">
		<line
   class="st0"
   x1="269.29999"
   y1="340.20001"
   x2="326"
   y2="340.20001"
   id="line988"
   style="stroke:#ff0000;stroke-opacity:1" />
	</g>
	<g
   id="LINE_3285_"
   style="stroke:#ff0000;stroke-opacity:1">
		<line
   class="st0"
   x1="269.29999"
   y1="354.29999"
   x2="269.29999"
   y2="340.20001"
   id="line991"
   style="stroke:#ff0000;stroke-opacity:1" />
	</g>
	<g
   id="LINE_3284_"
   style="stroke:#ff0000;stroke-opacity:1">
		<line
   class="st0"
   x1="411"
   y1="354.29999"
   x2="623.59998"
   y2="354.29999"
   id="line994"
   style="stroke:#ff0000;stroke-opacity:1" />
	</g>
	<g
   id="LINE_3283_"
   style="stroke:#ff0000;stroke-opacity:1">
		<line
   class="st0"
   x1="240.89999"
   y1="368.5"
   x2="240.89999"
   y2="382.70001"
   id="line997"
   style="stroke:#ff0000;stroke-opacity:1" />
	</g>
	<g
   id="LINE_3282_"
   style="stroke:#ff0000;stroke-opacity:1">
		<line
   class="st0"
   x1="609.40002"
   y1="340.20001"
   x2="609.40002"
   y2="326"
   id="line1000"
   style="stroke:#ff0000;stroke-opacity:1" />
	</g>
	<g
   id="LINE_3281_"
   style="stroke:#ff0000;stroke-opacity:1">
		<line
   class="st0"
   x1="212.60001"
   y1="340.20001"
   x2="198.39999"
   y2="340.20001"
   id="line1003"
   style="stroke:#ff0000;stroke-opacity:1" />
	</g>
	<g
   id="LINE_3280_"
   style="stroke:#ff0000;stroke-opacity:1">
		<line
   class="st0"
   x1="623.59998"
   y1="354.29999"
   x2="623.59998"
   y2="340.20001"
   id="line1006"
   style="stroke:#ff0000;stroke-opacity:1" />
	</g>
	<g
   id="LINE_3279_"
   style="stroke:#ff0000;stroke-opacity:1">
		<line
   class="st0"
   x1="198.39999"
   y1="340.20001"
   x2="198.39999"
   y2="368.5"
   id="line1009"
   style="stroke:#ff0000;stroke-opacity:1" />
	</g>
	<g
   id="LINE_3278_"
   style="stroke:#ff0000;stroke-opacity:1">
		<line
   class="st0"
   x1="326"
   y1="340.20001"
   x2="326"
   y2="354.29999"
   id="line1012"
   style="stroke:#ff0000;stroke-opacity:1" />
	</g>
	<g
   id="LINE_3277_"
   style="stroke:#ff0000;stroke-opacity:1">
		<line
   class="st0"
   x1="283.5"
   y1="382.70001"
   x2="283.5"
   y2="396.89999"
   id="line1015"
   style="stroke:#ff0000;stroke-opacity:1" />
	</g>
	<g
   id="LINE_3276_"
   style="stroke:#ff0000;stroke-opacity:1">
		<line
   class="st0"
   x1="396.89999"
   y1="382.70001"
   x2="396.89999"
   y2="396.89999"
   id="line1018"
   style="stroke:#ff0000;stroke-opacity:1" />
	</g>
	<g
   id="LINE_3275_"
   style="stroke:#ff0000;stroke-opacity:1">
		<line
   class="st0"
   x1="226.8"
   y1="382.70001"
   x2="226.8"
   y2="396.89999"
   id="line1021"
   style="stroke:#ff0000;stroke-opacity:1" />
	</g>
	<g
   id="LINE_3274_"
   style="stroke:#ff0000;stroke-opacity:1">
		<line
   class="st0"
   x1="340.20001"
   y1="382.70001"
   x2="340.20001"
   y2="396.89999"
   id="line1024"
   style="stroke:#ff0000;stroke-opacity:1" />
	</g>
	<g
   id="LINE_3273_"
   style="stroke:#ff0000;stroke-opacity:1">
		<line
   class="st0"
   x1="411"
   y1="368.5"
   x2="411"
   y2="354.29999"
   id="line1027"
   style="stroke:#ff0000;stroke-opacity:1" />
	</g>
	<g
   id="LINE_3272_"
   style="stroke:#ff0000;stroke-opacity:1">
		<line
   class="st0"
   x1="609.40002"
   y1="326"
   x2="212.60001"
   y2="326"
   id="line1030"
   style="stroke:#ff0000;stroke-opacity:1" />
	</g>
	<g
   id="LINE_3271_"
   style="stroke:#ff0000;stroke-opacity:1">
		<line
   class="st0"
   x1="283.5"
   y1="382.70001"
   x2="340.20001"
   y2="382.70001"
   id="line1033"
   style="stroke:#ff0000;stroke-opacity:1" />
	</g>
	<g
   id="LINE_3270_"
   style="stroke:#ff0000;stroke-opacity:1">
		<line
   class="st0"
   x1="382.70001"
   y1="368.5"
   x2="382.70001"
   y2="382.70001"
   id="line1036"
   style="stroke:#ff0000;stroke-opacity:1" />
	</g>
	<g
   id="LINE_3269_"
   style="stroke:#ff0000;stroke-opacity:1">
		<line
   class="st0"
   x1="382.70001"
   y1="382.70001"
   x2="396.89999"
   y2="382.70001"
   id="line1039"
   style="stroke:#ff0000;stroke-opacity:1" />
	</g>
	<g
   id="LINE_3268_"
   style="stroke:#ff0000;stroke-opacity:1">
		<line
   class="st0"
   x1="609.40002"
   y1="340.20001"
   x2="623.59998"
   y2="340.20001"
   id="line1042"
   style="stroke:#ff0000;stroke-opacity:1" />
	</g>
	<g
   id="LINE_3267_"
   style="stroke:#ff0000;stroke-opacity:1">
		<line
   class="st0"
   x1="326"
   y1="354.29999"
   x2="269.29999"
   y2="354.29999"
   id="line1045"
   style="stroke:#ff0000;stroke-opacity:1" />
	</g>
	<g
   id="LINE_3266_"
   style="stroke:#ff0000;stroke-opacity:1">
		<line
   class="st0"
   x1="141.7"
   y1="396.89999"
   x2="141.7"
   y2="283.5"
   id="line1048"
   style="stroke:#ff0000;stroke-opacity:1" />
	</g>
	<g
   id="LINE_3265_"
   style="stroke:#ff0000;stroke-opacity:1">
		<line
   class="st0"
   x1="226.8"
   y1="850.40002"
   x2="170.10001"
   y2="850.40002"
   id="line1051"
   style="stroke:#ff0000;stroke-opacity:1" />
	</g>
	<g
   id="LINE_3264_"
   style="stroke:#ff0000;stroke-opacity:1">
		<line
   class="st0"
   x1="1077.2"
   y1="850.40002"
   x2="1020.5"
   y2="850.40002"
   id="line1054"
   style="stroke:#ff0000;stroke-opacity:1" />
	</g>
	<g
   id="LINE_3260_"
   style="stroke:#ff0000;stroke-opacity:1">
		<line
   class="st0"
   x1="992.09998"
   y1="659.09998"
   x2="992.09998"
   y2="630.70001"
   id="line1057"
   style="stroke:#ff0000;stroke-opacity:1" />
	</g>
	<g
   id="LINE_3257_"
   style="stroke:#ff0000;stroke-opacity:1">
		<line
   class="st0"
   x1="141.7"
   y1="616.5"
   x2="141.7"
   y2="588.20001"
   id="line1060"
   style="stroke:#ff0000;stroke-opacity:1" />
	</g>
	<g
   id="LINE_3252_"
   style="stroke:#ff0000;stroke-opacity:1">
		<line
   class="st0"
   x1="992.09998"
   y1="396.89999"
   x2="992.09998"
   y2="283.5"
   id="line1063"
   style="stroke:#ff0000;stroke-opacity:1" />
	</g>
	<g
   id="LINE_3247_"
   style="stroke:#ff0000;stroke-opacity:1">
		<line
   class="st0"
   x1="340.20001"
   y1="850.40002"
   x2="283.5"
   y2="850.40002"
   id="line1066"
   style="stroke:#ff0000;stroke-opacity:1" />
	</g>
	<g
   id="LINE_3192_"
   style="stroke:#ff0000;stroke-opacity:1">
		<line
   class="st0"
   x1="1190.6"
   y1="850.40002"
   x2="1133.9"
   y2="850.40002"
   id="line1069"
   style="stroke:#ff0000;stroke-opacity:1" />
	</g>
	<g
   id="LINE_3191_"
   style="stroke:#ff0000;stroke-opacity:1">
		<line
   class="st0"
   x1="1303.9"
   y1="850.40002"
   x2="1247.2"
   y2="850.40002"
   id="line1072"
   style="stroke:#ff0000;stroke-opacity:1" />
	</g>
	<g
   id="LINE_3190_"
   style="stroke:#ff0000;stroke-opacity:1">
		<line
   class="st0"
   x1="453.5"
   y1="850.40002"
   x2="396.89999"
   y2="850.40002"
   id="line1075"
   style="stroke:#ff0000;stroke-opacity:1" />
	</g>
	<g
   id="LINE_3189_"
   style="stroke:#ff0000;stroke-opacity:1">
		<line
   class="st0"
   x1="1417.3"
   y1="850.40002"
   x2="1360.6"
   y2="850.40002"
   id="line1078"
   style="stroke:#ff0000;stroke-opacity:1" />
	</g>
	<g
   id="LINE_3120_"
   style="stroke:#ff0000;stroke-opacity:1">
		<line
   class="st0"
   x1="1559.1"
   y1="850.40002"
   x2="1474"
   y2="850.40002"
   id="line1081"
   style="stroke:#ff0000;stroke-opacity:1" />
	</g>
	<g
   id="LINE_3119_"
   style="stroke:#ff0000;stroke-opacity:1">
		<line
   class="st0"
   x1="566.90002"
   y1="850.40002"
   x2="510.20001"
   y2="850.40002"
   id="line1084"
   style="stroke:#ff0000;stroke-opacity:1" />
	</g>
	<g
   id="LINE_3118_"
   style="stroke:#ff0000;stroke-opacity:1">
		<line
   class="st0"
   x1="708.70001"
   y1="850.40002"
   x2="623.59998"
   y2="850.40002"
   id="line1087"
   style="stroke:#ff0000;stroke-opacity:1" />
	</g>
	<g
   id="LINE_3117_"
   style="stroke:#ff0000;stroke-opacity:1">
		<line
   class="st0"
   x1="198.39999"
   y1="368.5"
   x2="240.89999"
   y2="368.5"
   id="line1090"
   style="stroke:#ff0000;stroke-opacity:1" />
	</g>
</g>
<g
   id="contour"
   style="stroke:#ff0000;stroke-opacity:1">
	<rect
   class="st1"
   width="1700.8"
   height="1133.9"
   id="rect1094"
   x="0"
   y="0"
   style="fill:none;stroke:#ff0000;stroke-miterlimit:10;stroke-opacity:1" />
</g>
</svg>