<?xml version="1.0" encoding="UTF-8" standalone="no"?>
<!-- Generator: Adobe Illustrator 21.1.0, SVG Export Plug-In . SVG Version: 6.00 Build 0)  -->

<svg
   xmlns:dc="http://purl.org/dc/elements/1.1/"
   xmlns:cc="http://creativecommons.org/ns#"
   xmlns:rdf="http://www.w3.org/1999/02/22-rdf-syntax-ns#"
   xmlns:svg="http://www.w3.org/2000/svg"
   xmlns="http://www.w3.org/2000/svg"
   xmlns:sodipodi="http://sodipodi.sourceforge.net/DTD/sodipodi-0.dtd"
   xmlns:inkscape="http://www.inkscape.org/namespaces/inkscape"
   version="1.1"
   x="0px"
   y="0px"
   viewBox="0 0 2267.7165 1511.811"
   xml:space="preserve"
   id="svg391"
   sodipodi:docname="calque 13 .svg"
   width="2267.7166"
   height="1511.811"
   inkscape:version="0.92.3 (2405546, 2018-03-11)"><metadata
   id="metadata397"><rdf:RDF><cc:Work
       rdf:about=""><dc:format>image/svg+xml</dc:format><dc:type
         rdf:resource="http://purl.org/dc/dcmitype/StillImage" /></cc:Work></rdf:RDF></metadata><defs
   id="defs395" /><sodipodi:namedview
   pagecolor="#ffffff"
   bordercolor="#666666"
   borderopacity="1"
   objecttolerance="10"
   gridtolerance="10"
   guidetolerance="10"
   inkscape:pageopacity="0"
   inkscape:pageshadow="2"
   inkscape:window-width="1920"
   inkscape:window-height="1017"
   id="namedview393"
   showgrid="false"
   inkscape:zoom="0.41626245"
   inkscape:cx="901.35383"
   inkscape:cy="643.95542"
   inkscape:window-x="-8"
   inkscape:window-y="-8"
   inkscape:window-maximized="1"
   inkscape:current-layer="svg391" />
<style
   type="text/css"
   id="style2">
	.st0{fill:none;stroke:#FF0000;stroke-width:1.000000e-02;stroke-linecap:round;stroke-linejoin:round;stroke-miterlimit:10;}
	.st1{fill:none;stroke:#0000FF;stroke-miterlimit:10;}
</style>
<g
   id="Calque_13"
   style="fill:none;stroke:#ff0000;stroke-opacity:1;stroke-width:0.75056782;stroke-miterlimit:4;stroke-dasharray:none"
   transform="matrix(1.3325399,0,0,1.3321094,0.66626995,0.6660547)">
	<g
   id="LINE_3263_"
   style="fill:none;stroke:#ff0000;stroke-opacity:1;stroke-width:0.75056782;stroke-miterlimit:4;stroke-dasharray:none">
		<line
   class="st0"
   x1="453.5"
   y1="1133.9"
   x2="453.5"
   y2="1105.5"
   id="line4"
   style="fill:none;stroke:#ff0000;stroke-opacity:1;stroke-width:0.75056782;stroke-miterlimit:4;stroke-dasharray:none" />
	</g>
	<g
   id="LINE_3262_"
   style="fill:none;stroke:#ff0000;stroke-opacity:1;stroke-width:0.75056782;stroke-miterlimit:4;stroke-dasharray:none">
		<line
   class="st0"
   x1="283.5"
   y1="1133.9"
   x2="283.5"
   y2="1105.5"
   id="line7"
   style="fill:none;stroke:#ff0000;stroke-opacity:1;stroke-width:0.75056782;stroke-miterlimit:4;stroke-dasharray:none" />
	</g>
	<g
   id="LINE_3259_"
   style="fill:none;stroke:#ff0000;stroke-opacity:1;stroke-width:0.75056782;stroke-miterlimit:4;stroke-dasharray:none">
		<line
   class="st0"
   x1="510.20001"
   y1="1105.5"
   x2="510.20001"
   y2="1133.9"
   id="line10"
   style="fill:none;stroke:#ff0000;stroke-opacity:1;stroke-width:0.75056782;stroke-miterlimit:4;stroke-dasharray:none" />
	</g>
	<g
   id="LINE_3256_"
   style="fill:none;stroke:#ff0000;stroke-opacity:1;stroke-width:0.75056782;stroke-miterlimit:4;stroke-dasharray:none">
		<line
   class="st0"
   x1="680.29999"
   y1="28.299999"
   x2="680.29999"
   y2="0"
   id="line13"
   style="fill:none;stroke:#ff0000;stroke-opacity:1;stroke-width:0.75056782;stroke-miterlimit:4;stroke-dasharray:none" />
	</g>
	<g
   id="LINE_3255_"
   style="fill:none;stroke:#ff0000;stroke-opacity:1;stroke-width:0.75056782;stroke-miterlimit:4;stroke-dasharray:none">
		<line
   class="st0"
   x1="170.10001"
   y1="1105.5"
   x2="170.10001"
   y2="1133.9"
   id="line16"
   style="fill:none;stroke:#ff0000;stroke-opacity:1;stroke-width:0.75056782;stroke-miterlimit:4;stroke-dasharray:none" />
	</g>
	<g
   id="LINE_3254_"
   style="fill:none;stroke:#ff0000;stroke-opacity:1;stroke-width:0.75056782;stroke-miterlimit:4;stroke-dasharray:none">
		<line
   class="st0"
   x1="566.90002"
   y1="1105.5"
   x2="510.20001"
   y2="1105.5"
   id="line19"
   style="fill:none;stroke:#ff0000;stroke-opacity:1;stroke-width:0.75056782;stroke-miterlimit:4;stroke-dasharray:none" />
	</g>
	<g
   id="LINE_3253_"
   style="fill:none;stroke:#ff0000;stroke-opacity:1;stroke-width:0.75056782;stroke-miterlimit:4;stroke-dasharray:none">
		<line
   class="st0"
   x1="113.4"
   y1="28.299999"
   x2="113.4"
   y2="0"
   id="line22"
   style="fill:none;stroke:#ff0000;stroke-opacity:1;stroke-width:0.75056782;stroke-miterlimit:4;stroke-dasharray:none" />
	</g>
	<g
   id="LINE_3251_"
   style="fill:none;stroke:#ff0000;stroke-opacity:1;stroke-width:0.75056782;stroke-miterlimit:4;stroke-dasharray:none">
		<line
   class="st0"
   x1="680.29999"
   y1="1133.9"
   x2="680.29999"
   y2="1105.5"
   id="line25"
   style="fill:none;stroke:#ff0000;stroke-opacity:1;stroke-width:0.75056782;stroke-miterlimit:4;stroke-dasharray:none" />
	</g>
	<g
   id="LINE_3250_"
   style="fill:none;stroke:#ff0000;stroke-opacity:1;stroke-width:0.75056782;stroke-miterlimit:4;stroke-dasharray:none">
		<line
   class="st0"
   x1="56.700001"
   y1="28.299999"
   x2="113.4"
   y2="28.299999"
   id="line28"
   style="fill:none;stroke:#ff0000;stroke-opacity:1;stroke-width:0.75056782;stroke-miterlimit:4;stroke-dasharray:none" />
	</g>
	<g
   id="LINE_3249_"
   style="fill:none;stroke:#ff0000;stroke-opacity:1;stroke-width:0.75056782;stroke-miterlimit:4;stroke-dasharray:none">
		<line
   class="st0"
   x1="737"
   y1="0"
   x2="737"
   y2="28.299999"
   id="line31"
   style="fill:none;stroke:#ff0000;stroke-opacity:1;stroke-width:0.75056782;stroke-miterlimit:4;stroke-dasharray:none" />
	</g>
	<g
   id="LINE_3248_"
   style="fill:none;stroke:#ff0000;stroke-opacity:1;stroke-width:0.75056782;stroke-miterlimit:4;stroke-dasharray:none">
		<line
   class="st0"
   x1="170.10001"
   y1="0"
   x2="170.10001"
   y2="28.299999"
   id="line34"
   style="fill:none;stroke:#ff0000;stroke-opacity:1;stroke-width:0.75056782;stroke-miterlimit:4;stroke-dasharray:none" />
	</g>
	<g
   id="LINE_3246_"
   style="fill:none;stroke:#ff0000;stroke-opacity:1;stroke-width:0.75056782;stroke-miterlimit:4;stroke-dasharray:none">
		<line
   class="st0"
   x1="226.8"
   y1="28.299999"
   x2="226.8"
   y2="0"
   id="line37"
   style="fill:none;stroke:#ff0000;stroke-opacity:1;stroke-width:0.75056782;stroke-miterlimit:4;stroke-dasharray:none" />
	</g>
	<g
   id="LINE_3245_"
   style="fill:none;stroke:#ff0000;stroke-opacity:1;stroke-width:0.75056782;stroke-miterlimit:4;stroke-dasharray:none">
		<line
   class="st0"
   x1="737"
   y1="0"
   x2="680.29999"
   y2="0"
   id="line40"
   style="fill:none;stroke:#ff0000;stroke-opacity:1;stroke-width:0.75056782;stroke-miterlimit:4;stroke-dasharray:none" />
	</g>
	<g
   id="LINE_3244_"
   style="fill:none;stroke:#ff0000;stroke-opacity:1;stroke-width:0.75056782;stroke-miterlimit:4;stroke-dasharray:none">
		<line
   class="st0"
   x1="283.5"
   y1="28.299999"
   x2="340.20001"
   y2="28.299999"
   id="line43"
   style="fill:none;stroke:#ff0000;stroke-opacity:1;stroke-width:0.75056782;stroke-miterlimit:4;stroke-dasharray:none" />
	</g>
	<g
   id="LINE_3243_"
   style="fill:none;stroke:#ff0000;stroke-opacity:1;stroke-width:0.75056782;stroke-miterlimit:4;stroke-dasharray:none">
		<line
   class="st0"
   x1="510.20001"
   y1="0"
   x2="510.20001"
   y2="28.299999"
   id="line46"
   style="fill:none;stroke:#ff0000;stroke-opacity:1;stroke-width:0.75056782;stroke-miterlimit:4;stroke-dasharray:none" />
	</g>
	<g
   id="LINE_3241_"
   style="fill:none;stroke:#ff0000;stroke-opacity:1;stroke-width:0.75056782;stroke-miterlimit:4;stroke-dasharray:none">
		<line
   class="st0"
   x1="283.5"
   y1="0"
   x2="226.8"
   y2="0"
   id="line49"
   style="fill:none;stroke:#ff0000;stroke-opacity:1;stroke-width:0.75056782;stroke-miterlimit:4;stroke-dasharray:none" />
	</g>
	<g
   id="LINE_3240_"
   style="fill:none;stroke:#ff0000;stroke-opacity:1;stroke-width:0.75056782;stroke-miterlimit:4;stroke-dasharray:none">
		<line
   class="st0"
   x1="0"
   y1="1133.9"
   x2="56.700001"
   y2="1133.9"
   id="line52"
   style="fill:none;stroke:#ff0000;stroke-opacity:1;stroke-width:0.75056782;stroke-miterlimit:4;stroke-dasharray:none" />
	</g>
	<g
   id="LINE_3239_"
   style="fill:none;stroke:#ff0000;stroke-opacity:1;stroke-width:0.75056782;stroke-miterlimit:4;stroke-dasharray:none">
		<line
   class="st0"
   x1="283.5"
   y1="1105.5"
   x2="340.20001"
   y2="1105.5"
   id="line55"
   style="fill:none;stroke:#ff0000;stroke-opacity:1;stroke-width:0.75056782;stroke-miterlimit:4;stroke-dasharray:none" />
	</g>
	<g
   id="LINE_3237_"
   style="fill:none;stroke:#ff0000;stroke-opacity:1;stroke-width:0.75056782;stroke-miterlimit:4;stroke-dasharray:none">
		<line
   class="st0"
   x1="340.20001"
   y1="28.299999"
   x2="340.20001"
   y2="0"
   id="line58"
   style="fill:none;stroke:#ff0000;stroke-opacity:1;stroke-width:0.75056782;stroke-miterlimit:4;stroke-dasharray:none" />
	</g>
	<g
   id="LINE_3236_"
   style="fill:none;stroke:#ff0000;stroke-opacity:1;stroke-width:0.75056782;stroke-miterlimit:4;stroke-dasharray:none">
		<line
   class="st0"
   x1="56.700001"
   y1="1105.5"
   x2="56.700001"
   y2="1133.9"
   id="line61"
   style="fill:none;stroke:#ff0000;stroke-opacity:1;stroke-width:0.75056782;stroke-miterlimit:4;stroke-dasharray:none" />
	</g>
	<g
   id="LINE_3235_"
   style="fill:none;stroke:#ff0000;stroke-opacity:1;stroke-width:0.75056782;stroke-miterlimit:4;stroke-dasharray:none">
		<line
   class="st0"
   x1="737"
   y1="28.299999"
   x2="793.70001"
   y2="28.299999"
   id="line64"
   style="fill:none;stroke:#ff0000;stroke-opacity:1;stroke-width:0.75056782;stroke-miterlimit:4;stroke-dasharray:none" />
	</g>
	<g
   id="LINE_3234_"
   style="fill:none;stroke:#ff0000;stroke-opacity:1;stroke-width:0.75056782;stroke-miterlimit:4;stroke-dasharray:none">
		<line
   class="st0"
   x1="623.59998"
   y1="28.299999"
   x2="680.29999"
   y2="28.299999"
   id="line67"
   style="fill:none;stroke:#ff0000;stroke-opacity:1;stroke-width:0.75056782;stroke-miterlimit:4;stroke-dasharray:none" />
	</g>
	<g
   id="LINE_3233_"
   style="fill:none;stroke:#ff0000;stroke-opacity:1;stroke-width:0.75056782;stroke-miterlimit:4;stroke-dasharray:none">
		<line
   class="st0"
   x1="623.59998"
   y1="0"
   x2="623.59998"
   y2="28.299999"
   id="line70"
   style="fill:none;stroke:#ff0000;stroke-opacity:1;stroke-width:0.75056782;stroke-miterlimit:4;stroke-dasharray:none" />
	</g>
	<g
   id="LINE_3232_"
   style="fill:none;stroke:#ff0000;stroke-opacity:1;stroke-width:0.75056782;stroke-miterlimit:4;stroke-dasharray:none">
		<line
   class="st0"
   x1="623.59998"
   y1="0"
   x2="566.90002"
   y2="0"
   id="line73"
   style="fill:none;stroke:#ff0000;stroke-opacity:1;stroke-width:0.75056782;stroke-miterlimit:4;stroke-dasharray:none" />
	</g>
	<g
   id="LINE_3231_"
   style="fill:none;stroke:#ff0000;stroke-opacity:1;stroke-width:0.75056782;stroke-miterlimit:4;stroke-dasharray:none">
		<line
   class="st0"
   x1="566.90002"
   y1="28.299999"
   x2="566.90002"
   y2="0"
   id="line76"
   style="fill:none;stroke:#ff0000;stroke-opacity:1;stroke-width:0.75056782;stroke-miterlimit:4;stroke-dasharray:none" />
	</g>
	<g
   id="LINE_3230_"
   style="fill:none;stroke:#ff0000;stroke-opacity:1;stroke-width:0.75056782;stroke-miterlimit:4;stroke-dasharray:none">
		<line
   class="st0"
   x1="510.20001"
   y1="28.299999"
   x2="566.90002"
   y2="28.299999"
   id="line79"
   style="fill:none;stroke:#ff0000;stroke-opacity:1;stroke-width:0.75056782;stroke-miterlimit:4;stroke-dasharray:none" />
	</g>
	<g
   id="LINE_3229_"
   style="fill:none;stroke:#ff0000;stroke-opacity:1;stroke-width:0.75056782;stroke-miterlimit:4;stroke-dasharray:none">
		<line
   class="st0"
   x1="510.20001"
   y1="0"
   x2="453.5"
   y2="0"
   id="line82"
   style="fill:none;stroke:#ff0000;stroke-opacity:1;stroke-width:0.75056782;stroke-miterlimit:4;stroke-dasharray:none" />
	</g>
	<g
   id="LINE_3228_"
   style="fill:none;stroke:#ff0000;stroke-opacity:1;stroke-width:0.75056782;stroke-miterlimit:4;stroke-dasharray:none">
		<line
   class="st0"
   x1="453.5"
   y1="28.299999"
   x2="453.5"
   y2="0"
   id="line85"
   style="fill:none;stroke:#ff0000;stroke-opacity:1;stroke-width:0.75056782;stroke-miterlimit:4;stroke-dasharray:none" />
	</g>
	<g
   id="LINE_3227_"
   style="fill:none;stroke:#ff0000;stroke-opacity:1;stroke-width:0.75056782;stroke-miterlimit:4;stroke-dasharray:none">
		<line
   class="st0"
   x1="396.89999"
   y1="28.299999"
   x2="453.5"
   y2="28.299999"
   id="line88"
   style="fill:none;stroke:#ff0000;stroke-opacity:1;stroke-width:0.75056782;stroke-miterlimit:4;stroke-dasharray:none" />
	</g>
	<g
   id="LINE_3226_"
   style="fill:none;stroke:#ff0000;stroke-opacity:1;stroke-width:0.75056782;stroke-miterlimit:4;stroke-dasharray:none">
		<line
   class="st0"
   x1="396.89999"
   y1="0"
   x2="396.89999"
   y2="28.299999"
   id="line91"
   style="fill:none;stroke:#ff0000;stroke-opacity:1;stroke-width:0.75056782;stroke-miterlimit:4;stroke-dasharray:none" />
	</g>
	<g
   id="LINE_3225_"
   style="fill:none;stroke:#ff0000;stroke-opacity:1;stroke-width:0.75056782;stroke-miterlimit:4;stroke-dasharray:none">
		<line
   class="st0"
   x1="396.89999"
   y1="0"
   x2="340.20001"
   y2="0"
   id="line94"
   style="fill:none;stroke:#ff0000;stroke-opacity:1;stroke-width:0.75056782;stroke-miterlimit:4;stroke-dasharray:none" />
	</g>
	<g
   id="LINE_3224_"
   style="fill:none;stroke:#ff0000;stroke-opacity:1;stroke-width:0.75056782;stroke-miterlimit:4;stroke-dasharray:none">
		<line
   class="st0"
   x1="283.5"
   y1="0"
   x2="283.5"
   y2="28.299999"
   id="line97"
   style="fill:none;stroke:#ff0000;stroke-opacity:1;stroke-width:0.75056782;stroke-miterlimit:4;stroke-dasharray:none" />
	</g>
	<g
   id="LINE_3223_"
   style="fill:none;stroke:#ff0000;stroke-opacity:1;stroke-width:0.75056782;stroke-miterlimit:4;stroke-dasharray:none">
		<line
   class="st0"
   x1="170.10001"
   y1="28.299999"
   x2="226.8"
   y2="28.299999"
   id="line100"
   style="fill:none;stroke:#ff0000;stroke-opacity:1;stroke-width:0.75056782;stroke-miterlimit:4;stroke-dasharray:none" />
	</g>
	<g
   id="LINE_3222_"
   style="fill:none;stroke:#ff0000;stroke-opacity:1;stroke-width:0.75056782;stroke-miterlimit:4;stroke-dasharray:none">
		<line
   class="st0"
   x1="170.10001"
   y1="0"
   x2="113.4"
   y2="0"
   id="line103"
   style="fill:none;stroke:#ff0000;stroke-opacity:1;stroke-width:0.75056782;stroke-miterlimit:4;stroke-dasharray:none" />
	</g>
	<g
   id="LINE_3221_"
   style="fill:none;stroke:#ff0000;stroke-opacity:1;stroke-width:0.75056782;stroke-miterlimit:4;stroke-dasharray:none">
		<line
   class="st0"
   x1="56.700001"
   y1="0"
   x2="56.700001"
   y2="28.299999"
   id="line106"
   style="fill:none;stroke:#ff0000;stroke-opacity:1;stroke-width:0.75056782;stroke-miterlimit:4;stroke-dasharray:none" />
	</g>
	<g
   id="LINE_3220_"
   style="fill:none;stroke:#ff0000;stroke-opacity:1;stroke-width:0.75056782;stroke-miterlimit:4;stroke-dasharray:none">
		<line
   class="st0"
   x1="56.700001"
   y1="0"
   x2="0"
   y2="0"
   id="line109"
   style="fill:none;stroke:#ff0000;stroke-opacity:1;stroke-width:0.75056782;stroke-miterlimit:4;stroke-dasharray:none" />
	</g>
	<g
   id="LINE_3219_"
   style="fill:none;stroke:#ff0000;stroke-opacity:1;stroke-width:0.75056782;stroke-miterlimit:4;stroke-dasharray:none">
		<line
   class="st0"
   x1="0"
   y1="0"
   x2="0"
   y2="1133.9"
   id="line112"
   style="fill:none;stroke:#ff0000;stroke-opacity:1;stroke-width:0.75056782;stroke-miterlimit:4;stroke-dasharray:none" />
	</g>
	<g
   id="LINE_3218_"
   style="fill:none;stroke:#ff0000;stroke-opacity:1;stroke-width:0.75056782;stroke-miterlimit:4;stroke-dasharray:none">
		<line
   class="st0"
   x1="113.4"
   y1="1105.5"
   x2="56.700001"
   y2="1105.5"
   id="line115"
   style="fill:none;stroke:#ff0000;stroke-opacity:1;stroke-width:0.75056782;stroke-miterlimit:4;stroke-dasharray:none" />
	</g>
	<g
   id="LINE_3217_"
   style="fill:none;stroke:#ff0000;stroke-opacity:1;stroke-width:0.75056782;stroke-miterlimit:4;stroke-dasharray:none">
		<line
   class="st0"
   x1="113.4"
   y1="1133.9"
   x2="113.4"
   y2="1105.5"
   id="line118"
   style="fill:none;stroke:#ff0000;stroke-opacity:1;stroke-width:0.75056782;stroke-miterlimit:4;stroke-dasharray:none" />
	</g>
	<g
   id="LINE_3216_"
   style="fill:none;stroke:#ff0000;stroke-opacity:1;stroke-width:0.75056782;stroke-miterlimit:4;stroke-dasharray:none">
		<line
   class="st0"
   x1="113.4"
   y1="1133.9"
   x2="170.10001"
   y2="1133.9"
   id="line121"
   style="fill:none;stroke:#ff0000;stroke-opacity:1;stroke-width:0.75056782;stroke-miterlimit:4;stroke-dasharray:none" />
	</g>
	<g
   id="LINE_3215_"
   style="fill:none;stroke:#ff0000;stroke-opacity:1;stroke-width:0.75056782;stroke-miterlimit:4;stroke-dasharray:none">
		<line
   class="st0"
   x1="226.8"
   y1="1105.5"
   x2="170.10001"
   y2="1105.5"
   id="line124"
   style="fill:none;stroke:#ff0000;stroke-opacity:1;stroke-width:0.75056782;stroke-miterlimit:4;stroke-dasharray:none" />
	</g>
	<g
   id="LINE_3214_"
   style="fill:none;stroke:#ff0000;stroke-opacity:1;stroke-width:0.75056782;stroke-miterlimit:4;stroke-dasharray:none">
		<line
   class="st0"
   x1="226.8"
   y1="1133.9"
   x2="226.8"
   y2="1105.5"
   id="line127"
   style="fill:none;stroke:#ff0000;stroke-opacity:1;stroke-width:0.75056782;stroke-miterlimit:4;stroke-dasharray:none" />
	</g>
	<g
   id="LINE_3213_"
   style="fill:none;stroke:#ff0000;stroke-opacity:1;stroke-width:0.75056782;stroke-miterlimit:4;stroke-dasharray:none">
		<line
   class="st0"
   x1="226.8"
   y1="1133.9"
   x2="283.5"
   y2="1133.9"
   id="line130"
   style="fill:none;stroke:#ff0000;stroke-opacity:1;stroke-width:0.75056782;stroke-miterlimit:4;stroke-dasharray:none" />
	</g>
	<g
   id="LINE_3212_"
   style="fill:none;stroke:#ff0000;stroke-opacity:1;stroke-width:0.75056782;stroke-miterlimit:4;stroke-dasharray:none">
		<line
   class="st0"
   x1="340.20001"
   y1="1105.5"
   x2="340.20001"
   y2="1133.9"
   id="line133"
   style="fill:none;stroke:#ff0000;stroke-opacity:1;stroke-width:0.75056782;stroke-miterlimit:4;stroke-dasharray:none" />
	</g>
	<g
   id="LINE_3211_"
   style="fill:none;stroke:#ff0000;stroke-opacity:1;stroke-width:0.75056782;stroke-miterlimit:4;stroke-dasharray:none">
		<line
   class="st0"
   x1="340.20001"
   y1="1133.9"
   x2="396.89999"
   y2="1133.9"
   id="line136"
   style="fill:none;stroke:#ff0000;stroke-opacity:1;stroke-width:0.75056782;stroke-miterlimit:4;stroke-dasharray:none" />
	</g>
	<g
   id="LINE_3210_"
   style="fill:none;stroke:#ff0000;stroke-opacity:1;stroke-width:0.75056782;stroke-miterlimit:4;stroke-dasharray:none">
		<line
   class="st0"
   x1="396.89999"
   y1="1105.5"
   x2="396.89999"
   y2="1133.9"
   id="line139"
   style="fill:none;stroke:#ff0000;stroke-opacity:1;stroke-width:0.75056782;stroke-miterlimit:4;stroke-dasharray:none" />
	</g>
	<g
   id="LINE_3209_"
   style="fill:none;stroke:#ff0000;stroke-opacity:1;stroke-width:0.75056782;stroke-miterlimit:4;stroke-dasharray:none">
		<line
   class="st0"
   x1="453.5"
   y1="1105.5"
   x2="396.89999"
   y2="1105.5"
   id="line142"
   style="fill:none;stroke:#ff0000;stroke-opacity:1;stroke-width:0.75056782;stroke-miterlimit:4;stroke-dasharray:none" />
	</g>
	<g
   id="LINE_3208_"
   style="fill:none;stroke:#ff0000;stroke-opacity:1;stroke-width:0.75056782;stroke-miterlimit:4;stroke-dasharray:none">
		<line
   class="st0"
   x1="453.5"
   y1="1133.9"
   x2="510.20001"
   y2="1133.9"
   id="line145"
   style="fill:none;stroke:#ff0000;stroke-opacity:1;stroke-width:0.75056782;stroke-miterlimit:4;stroke-dasharray:none" />
	</g>
	<g
   id="LINE_3207_"
   style="fill:none;stroke:#ff0000;stroke-opacity:1;stroke-width:0.75056782;stroke-miterlimit:4;stroke-dasharray:none">
		<line
   class="st0"
   x1="566.90002"
   y1="1133.9"
   x2="566.90002"
   y2="1105.5"
   id="line148"
   style="fill:none;stroke:#ff0000;stroke-opacity:1;stroke-width:0.75056782;stroke-miterlimit:4;stroke-dasharray:none" />
	</g>
	<g
   id="LINE_3206_"
   style="fill:none;stroke:#ff0000;stroke-opacity:1;stroke-width:0.75056782;stroke-miterlimit:4;stroke-dasharray:none">
		<line
   class="st0"
   x1="566.90002"
   y1="1133.9"
   x2="623.59998"
   y2="1133.9"
   id="line151"
   style="fill:none;stroke:#ff0000;stroke-opacity:1;stroke-width:0.75056782;stroke-miterlimit:4;stroke-dasharray:none" />
	</g>
	<g
   id="LINE_3205_"
   style="fill:none;stroke:#ff0000;stroke-opacity:1;stroke-width:0.75056782;stroke-miterlimit:4;stroke-dasharray:none">
		<line
   class="st0"
   x1="623.59998"
   y1="1105.5"
   x2="623.59998"
   y2="1133.9"
   id="line154"
   style="fill:none;stroke:#ff0000;stroke-opacity:1;stroke-width:0.75056782;stroke-miterlimit:4;stroke-dasharray:none" />
	</g>
	<g
   id="LINE_3204_"
   style="fill:none;stroke:#ff0000;stroke-opacity:1;stroke-width:0.75056782;stroke-miterlimit:4;stroke-dasharray:none">
		<line
   class="st0"
   x1="680.29999"
   y1="1105.5"
   x2="623.59998"
   y2="1105.5"
   id="line157"
   style="fill:none;stroke:#ff0000;stroke-opacity:1;stroke-width:0.75056782;stroke-miterlimit:4;stroke-dasharray:none" />
	</g>
	<g
   id="LINE_3203_"
   style="fill:none;stroke:#ff0000;stroke-opacity:1;stroke-width:0.75056782;stroke-miterlimit:4;stroke-dasharray:none">
		<line
   class="st0"
   x1="680.29999"
   y1="1133.9"
   x2="737"
   y2="1133.9"
   id="line160"
   style="fill:none;stroke:#ff0000;stroke-opacity:1;stroke-width:0.75056782;stroke-miterlimit:4;stroke-dasharray:none" />
	</g>
	<g
   id="LINE_3202_"
   style="fill:none;stroke:#ff0000;stroke-opacity:1;stroke-width:0.75056782;stroke-miterlimit:4;stroke-dasharray:none">
		<line
   class="st0"
   x1="737"
   y1="1105.5"
   x2="737"
   y2="1133.9"
   id="line163"
   style="fill:none;stroke:#ff0000;stroke-opacity:1;stroke-width:0.75056782;stroke-miterlimit:4;stroke-dasharray:none" />
	</g>
	<g
   id="LINE_3201_"
   style="fill:none;stroke:#ff0000;stroke-opacity:1;stroke-width:0.75056782;stroke-miterlimit:4;stroke-dasharray:none">
		<line
   class="st0"
   x1="793.70001"
   y1="1105.5"
   x2="737"
   y2="1105.5"
   id="line166"
   style="fill:none;stroke:#ff0000;stroke-opacity:1;stroke-width:0.75056782;stroke-miterlimit:4;stroke-dasharray:none" />
	</g>
	<g
   id="LINE_3200_"
   style="fill:none;stroke:#ff0000;stroke-opacity:1;stroke-width:0.75056782;stroke-miterlimit:4;stroke-dasharray:none">
		<line
   class="st0"
   x1="793.70001"
   y1="1133.9"
   x2="793.70001"
   y2="1105.5"
   id="line169"
   style="fill:none;stroke:#ff0000;stroke-opacity:1;stroke-width:0.75056782;stroke-miterlimit:4;stroke-dasharray:none" />
	</g>
	<g
   id="LINE_3199_"
   style="fill:none;stroke:#ff0000;stroke-opacity:1;stroke-width:0.75056782;stroke-miterlimit:4;stroke-dasharray:none">
		<line
   class="st0"
   x1="793.70001"
   y1="1133.9"
   x2="850.40002"
   y2="1133.9"
   id="line172"
   style="fill:none;stroke:#ff0000;stroke-opacity:1;stroke-width:0.75056782;stroke-miterlimit:4;stroke-dasharray:none" />
	</g>
	<g
   id="LINE_3198_"
   style="fill:none;stroke:#ff0000;stroke-opacity:1;stroke-width:0.75056782;stroke-miterlimit:4;stroke-dasharray:none">
		<line
   class="st0"
   x1="850.40002"
   y1="1133.9"
   x2="850.40002"
   y2="0"
   id="line175"
   style="fill:none;stroke:#ff0000;stroke-opacity:1;stroke-width:0.75056782;stroke-miterlimit:4;stroke-dasharray:none" />
	</g>
	<g
   id="LINE_3197_"
   style="fill:none;stroke:#ff0000;stroke-opacity:1;stroke-width:0.75056782;stroke-miterlimit:4;stroke-dasharray:none">
		<line
   class="st0"
   x1="850.40002"
   y1="0"
   x2="793.70001"
   y2="0"
   id="line178"
   style="fill:none;stroke:#ff0000;stroke-opacity:1;stroke-width:0.75056782;stroke-miterlimit:4;stroke-dasharray:none" />
	</g>
	<g
   id="LINE_3196_"
   style="fill:none;stroke:#ff0000;stroke-opacity:1;stroke-width:0.75056782;stroke-miterlimit:4;stroke-dasharray:none">
		<line
   class="st0"
   x1="793.70001"
   y1="28.299999"
   x2="793.70001"
   y2="0"
   id="line181"
   style="fill:none;stroke:#ff0000;stroke-opacity:1;stroke-width:0.75056782;stroke-miterlimit:4;stroke-dasharray:none" />
	</g>
	<g
   id="LINE_3187_"
   style="fill:none;stroke:#ff0000;stroke-opacity:1;stroke-width:0.75056782;stroke-miterlimit:4;stroke-dasharray:none">
		<line
   class="st0"
   x1="1474"
   y1="0"
   x2="1417.3"
   y2="0"
   id="line184"
   style="fill:none;stroke:#ff0000;stroke-opacity:1;stroke-width:0.75056782;stroke-miterlimit:4;stroke-dasharray:none" />
	</g>
	<g
   id="LINE_3186_"
   style="fill:none;stroke:#ff0000;stroke-opacity:1;stroke-width:0.75056782;stroke-miterlimit:4;stroke-dasharray:none">
		<line
   class="st0"
   x1="1360.6"
   y1="28.299999"
   x2="1417.3"
   y2="28.299999"
   id="line187"
   style="fill:none;stroke:#ff0000;stroke-opacity:1;stroke-width:0.75056782;stroke-miterlimit:4;stroke-dasharray:none" />
	</g>
	<g
   id="LINE_3185_"
   style="fill:none;stroke:#ff0000;stroke-opacity:1;stroke-width:0.75056782;stroke-miterlimit:4;stroke-dasharray:none">
		<line
   class="st0"
   x1="1247.2"
   y1="0"
   x2="1247.2"
   y2="28.299999"
   id="line190"
   style="fill:none;stroke:#ff0000;stroke-opacity:1;stroke-width:0.75056782;stroke-miterlimit:4;stroke-dasharray:none" />
	</g>
	<g
   id="LINE_3184_"
   style="fill:none;stroke:#ff0000;stroke-opacity:1;stroke-width:0.75056782;stroke-miterlimit:4;stroke-dasharray:none">
		<line
   class="st0"
   x1="1133.9"
   y1="0"
   x2="1133.9"
   y2="28.299999"
   id="line193"
   style="fill:none;stroke:#ff0000;stroke-opacity:1;stroke-width:0.75056782;stroke-miterlimit:4;stroke-dasharray:none" />
	</g>
	<g
   id="LINE_3183_"
   style="fill:none;stroke:#ff0000;stroke-opacity:1;stroke-width:0.75056782;stroke-miterlimit:4;stroke-dasharray:none">
		<line
   class="st0"
   x1="1644.1"
   y1="28.299999"
   x2="1644.1"
   y2="0"
   id="line196"
   style="fill:none;stroke:#ff0000;stroke-opacity:1;stroke-width:0.75056782;stroke-miterlimit:4;stroke-dasharray:none" />
	</g>
	<g
   id="LINE_3182_"
   style="fill:none;stroke:#ff0000;stroke-opacity:1;stroke-width:0.75056782;stroke-miterlimit:4;stroke-dasharray:none">
		<line
   class="st0"
   x1="1303.9"
   y1="28.299999"
   x2="1303.9"
   y2="0"
   id="line199"
   style="fill:none;stroke:#ff0000;stroke-opacity:1;stroke-width:0.75056782;stroke-miterlimit:4;stroke-dasharray:none" />
	</g>
	<g
   id="LINE_3181_"
   style="fill:none;stroke:#ff0000;stroke-opacity:1;stroke-width:0.75056782;stroke-miterlimit:4;stroke-dasharray:none">
		<line
   class="st0"
   x1="1360.6"
   y1="0"
   x2="1303.9"
   y2="0"
   id="line202"
   style="fill:none;stroke:#ff0000;stroke-opacity:1;stroke-width:0.75056782;stroke-miterlimit:4;stroke-dasharray:none" />
	</g>
	<g
   id="LINE_3180_"
   style="fill:none;stroke:#ff0000;stroke-opacity:1;stroke-width:0.75056782;stroke-miterlimit:4;stroke-dasharray:none">
		<line
   class="st0"
   x1="1474"
   y1="0"
   x2="1474"
   y2="28.299999"
   id="line205"
   style="fill:none;stroke:#ff0000;stroke-opacity:1;stroke-width:0.75056782;stroke-miterlimit:4;stroke-dasharray:none" />
	</g>
	<g
   id="LINE_3179_"
   style="fill:none;stroke:#ff0000;stroke-opacity:1;stroke-width:0.75056782;stroke-miterlimit:4;stroke-dasharray:none">
		<line
   class="st0"
   x1="1247.2"
   y1="0"
   x2="1190.6"
   y2="0"
   id="line208"
   style="fill:none;stroke:#ff0000;stroke-opacity:1;stroke-width:0.75056782;stroke-miterlimit:4;stroke-dasharray:none" />
	</g>
	<g
   id="LINE_3178_"
   style="fill:none;stroke:#ff0000;stroke-opacity:1;stroke-width:0.75056782;stroke-miterlimit:4;stroke-dasharray:none">
		<line
   class="st0"
   x1="1474"
   y1="28.299999"
   x2="1530.7"
   y2="28.299999"
   id="line211"
   style="fill:none;stroke:#ff0000;stroke-opacity:1;stroke-width:0.75056782;stroke-miterlimit:4;stroke-dasharray:none" />
	</g>
	<g
   id="LINE_3177_"
   style="fill:none;stroke:#ff0000;stroke-opacity:1;stroke-width:0.75056782;stroke-miterlimit:4;stroke-dasharray:none">
		<line
   class="st0"
   x1="1360.6"
   y1="0"
   x2="1360.6"
   y2="28.299999"
   id="line214"
   style="fill:none;stroke:#ff0000;stroke-opacity:1;stroke-width:0.75056782;stroke-miterlimit:4;stroke-dasharray:none" />
	</g>
	<g
   id="LINE_3176_"
   style="fill:none;stroke:#ff0000;stroke-opacity:1;stroke-width:0.75056782;stroke-miterlimit:4;stroke-dasharray:none">
		<line
   class="st0"
   x1="1020.5"
   y1="28.299999"
   x2="1077.2"
   y2="28.299999"
   id="line217"
   style="fill:none;stroke:#ff0000;stroke-opacity:1;stroke-width:0.75056782;stroke-miterlimit:4;stroke-dasharray:none" />
	</g>
	<g
   id="LINE_3175_"
   style="fill:none;stroke:#ff0000;stroke-opacity:1;stroke-width:0.75056782;stroke-miterlimit:4;stroke-dasharray:none">
		<line
   class="st0"
   x1="907.09998"
   y1="28.299999"
   x2="963.79999"
   y2="28.299999"
   id="line220"
   style="fill:none;stroke:#ff0000;stroke-opacity:1;stroke-width:0.75056782;stroke-miterlimit:4;stroke-dasharray:none" />
	</g>
	<g
   id="LINE_3174_"
   style="fill:none;stroke:#ff0000;stroke-opacity:1;stroke-width:0.75056782;stroke-miterlimit:4;stroke-dasharray:none">
		<line
   class="st0"
   x1="1077.2"
   y1="28.299999"
   x2="1077.2"
   y2="0"
   id="line223"
   style="fill:none;stroke:#ff0000;stroke-opacity:1;stroke-width:0.75056782;stroke-miterlimit:4;stroke-dasharray:none" />
	</g>
	<g
   id="LINE_3173_"
   style="fill:none;stroke:#ff0000;stroke-opacity:1;stroke-width:0.75056782;stroke-miterlimit:4;stroke-dasharray:none">
		<line
   class="st0"
   x1="907.09998"
   y1="0"
   x2="850.40002"
   y2="0"
   id="line226"
   style="fill:none;stroke:#ff0000;stroke-opacity:1;stroke-width:0.75056782;stroke-miterlimit:4;stroke-dasharray:none" />
	</g>
	<g
   id="LINE_3172_"
   style="fill:none;stroke:#ff0000;stroke-opacity:1;stroke-width:0.75056782;stroke-miterlimit:4;stroke-dasharray:none">
		<line
   class="st0"
   x1="1700.8"
   y1="0"
   x2="1644.1"
   y2="0"
   id="line229"
   style="fill:none;stroke:#ff0000;stroke-opacity:1;stroke-width:0.75056782;stroke-miterlimit:4;stroke-dasharray:none" />
	</g>
	<g
   id="LINE_3171_"
   style="fill:none;stroke:#ff0000;stroke-opacity:1;stroke-width:0.75056782;stroke-miterlimit:4;stroke-dasharray:none">
		<line
   class="st0"
   x1="1587.4"
   y1="28.299999"
   x2="1644.1"
   y2="28.299999"
   id="line232"
   style="fill:none;stroke:#ff0000;stroke-opacity:1;stroke-width:0.75056782;stroke-miterlimit:4;stroke-dasharray:none" />
	</g>
	<g
   id="LINE_3170_"
   style="fill:none;stroke:#ff0000;stroke-opacity:1;stroke-width:0.75056782;stroke-miterlimit:4;stroke-dasharray:none">
		<line
   class="st0"
   x1="1587.4"
   y1="0"
   x2="1587.4"
   y2="28.299999"
   id="line235"
   style="fill:none;stroke:#ff0000;stroke-opacity:1;stroke-width:0.75056782;stroke-miterlimit:4;stroke-dasharray:none" />
	</g>
	<g
   id="LINE_3169_"
   style="fill:none;stroke:#ff0000;stroke-opacity:1;stroke-width:0.75056782;stroke-miterlimit:4;stroke-dasharray:none">
		<line
   class="st0"
   x1="1587.4"
   y1="0"
   x2="1530.7"
   y2="0"
   id="line238"
   style="fill:none;stroke:#ff0000;stroke-opacity:1;stroke-width:0.75056782;stroke-miterlimit:4;stroke-dasharray:none" />
	</g>
	<g
   id="LINE_3168_"
   style="fill:none;stroke:#ff0000;stroke-opacity:1;stroke-width:0.75056782;stroke-miterlimit:4;stroke-dasharray:none">
		<line
   class="st0"
   x1="1530.7"
   y1="28.299999"
   x2="1530.7"
   y2="0"
   id="line241"
   style="fill:none;stroke:#ff0000;stroke-opacity:1;stroke-width:0.75056782;stroke-miterlimit:4;stroke-dasharray:none" />
	</g>
	<g
   id="LINE_3167_"
   style="fill:none;stroke:#ff0000;stroke-opacity:1;stroke-width:0.75056782;stroke-miterlimit:4;stroke-dasharray:none">
		<line
   class="st0"
   x1="1417.3"
   y1="28.299999"
   x2="1417.3"
   y2="0"
   id="line244"
   style="fill:none;stroke:#ff0000;stroke-opacity:1;stroke-width:0.75056782;stroke-miterlimit:4;stroke-dasharray:none" />
	</g>
	<g
   id="LINE_3166_"
   style="fill:none;stroke:#ff0000;stroke-opacity:1;stroke-width:0.75056782;stroke-miterlimit:4;stroke-dasharray:none">
		<line
   class="st0"
   x1="1247.2"
   y1="28.299999"
   x2="1303.9"
   y2="28.299999"
   id="line247"
   style="fill:none;stroke:#ff0000;stroke-opacity:1;stroke-width:0.75056782;stroke-miterlimit:4;stroke-dasharray:none" />
	</g>
	<g
   id="LINE_3165_"
   style="fill:none;stroke:#ff0000;stroke-opacity:1;stroke-width:0.75056782;stroke-miterlimit:4;stroke-dasharray:none">
		<line
   class="st0"
   x1="1190.6"
   y1="28.299999"
   x2="1190.6"
   y2="0"
   id="line250"
   style="fill:none;stroke:#ff0000;stroke-opacity:1;stroke-width:0.75056782;stroke-miterlimit:4;stroke-dasharray:none" />
	</g>
	<g
   id="LINE_3164_"
   style="fill:none;stroke:#ff0000;stroke-opacity:1;stroke-width:0.75056782;stroke-miterlimit:4;stroke-dasharray:none">
		<line
   class="st0"
   x1="1133.9"
   y1="28.299999"
   x2="1190.6"
   y2="28.299999"
   id="line253"
   style="fill:none;stroke:#ff0000;stroke-opacity:1;stroke-width:0.75056782;stroke-miterlimit:4;stroke-dasharray:none" />
	</g>
	<g
   id="LINE_3163_"
   style="fill:none;stroke:#ff0000;stroke-opacity:1;stroke-width:0.75056782;stroke-miterlimit:4;stroke-dasharray:none">
		<line
   class="st0"
   x1="1133.9"
   y1="0"
   x2="1077.2"
   y2="0"
   id="line256"
   style="fill:none;stroke:#ff0000;stroke-opacity:1;stroke-width:0.75056782;stroke-miterlimit:4;stroke-dasharray:none" />
	</g>
	<g
   id="LINE_3162_"
   style="fill:none;stroke:#ff0000;stroke-opacity:1;stroke-width:0.75056782;stroke-miterlimit:4;stroke-dasharray:none">
		<line
   class="st0"
   x1="1020.5"
   y1="0"
   x2="1020.5"
   y2="28.299999"
   id="line259"
   style="fill:none;stroke:#ff0000;stroke-opacity:1;stroke-width:0.75056782;stroke-miterlimit:4;stroke-dasharray:none" />
	</g>
	<g
   id="LINE_3161_"
   style="fill:none;stroke:#ff0000;stroke-opacity:1;stroke-width:0.75056782;stroke-miterlimit:4;stroke-dasharray:none">
		<line
   class="st0"
   x1="1020.5"
   y1="0"
   x2="963.79999"
   y2="0"
   id="line262"
   style="fill:none;stroke:#ff0000;stroke-opacity:1;stroke-width:0.75056782;stroke-miterlimit:4;stroke-dasharray:none" />
	</g>
	<g
   id="LINE_3160_"
   style="fill:none;stroke:#ff0000;stroke-opacity:1;stroke-width:0.75056782;stroke-miterlimit:4;stroke-dasharray:none">
		<line
   class="st0"
   x1="963.79999"
   y1="28.299999"
   x2="963.79999"
   y2="0"
   id="line265"
   style="fill:none;stroke:#ff0000;stroke-opacity:1;stroke-width:0.75056782;stroke-miterlimit:4;stroke-dasharray:none" />
	</g>
	<g
   id="LINE_3159_"
   style="fill:none;stroke:#ff0000;stroke-opacity:1;stroke-width:0.75056782;stroke-miterlimit:4;stroke-dasharray:none">
		<line
   class="st0"
   x1="907.09998"
   y1="0"
   x2="907.09998"
   y2="28.299999"
   id="line268"
   style="fill:none;stroke:#ff0000;stroke-opacity:1;stroke-width:0.75056782;stroke-miterlimit:4;stroke-dasharray:none" />
	</g>
	<g
   id="LINE_3158_"
   style="fill:none;stroke:#ff0000;stroke-opacity:1;stroke-width:0.75056782;stroke-miterlimit:4;stroke-dasharray:none">
		<line
   class="st0"
   x1="850.40002"
   y1="1133.9"
   x2="907.09998"
   y2="1133.9"
   id="line271"
   style="fill:none;stroke:#ff0000;stroke-opacity:1;stroke-width:0.75056782;stroke-miterlimit:4;stroke-dasharray:none" />
	</g>
	<g
   id="LINE_3157_"
   style="fill:none;stroke:#ff0000;stroke-opacity:1;stroke-width:0.75056782;stroke-miterlimit:4;stroke-dasharray:none">
		<line
   class="st0"
   x1="907.09998"
   y1="1105.5"
   x2="907.09998"
   y2="1133.9"
   id="line274"
   style="fill:none;stroke:#ff0000;stroke-opacity:1;stroke-width:0.75056782;stroke-miterlimit:4;stroke-dasharray:none" />
	</g>
	<g
   id="LINE_3156_"
   style="fill:none;stroke:#ff0000;stroke-opacity:1;stroke-width:0.75056782;stroke-miterlimit:4;stroke-dasharray:none">
		<line
   class="st0"
   x1="963.79999"
   y1="1105.5"
   x2="907.09998"
   y2="1105.5"
   id="line277"
   style="fill:none;stroke:#ff0000;stroke-opacity:1;stroke-width:0.75056782;stroke-miterlimit:4;stroke-dasharray:none" />
	</g>
	<g
   id="LINE_3155_"
   style="fill:none;stroke:#ff0000;stroke-opacity:1;stroke-width:0.75056782;stroke-miterlimit:4;stroke-dasharray:none">
		<line
   class="st0"
   x1="963.79999"
   y1="1133.9"
   x2="963.79999"
   y2="1105.5"
   id="line280"
   style="fill:none;stroke:#ff0000;stroke-opacity:1;stroke-width:0.75056782;stroke-miterlimit:4;stroke-dasharray:none" />
	</g>
	<g
   id="LINE_3154_"
   style="fill:none;stroke:#ff0000;stroke-opacity:1;stroke-width:0.75056782;stroke-miterlimit:4;stroke-dasharray:none">
		<line
   class="st0"
   x1="963.79999"
   y1="1133.9"
   x2="1020.5"
   y2="1133.9"
   id="line283"
   style="fill:none;stroke:#ff0000;stroke-opacity:1;stroke-width:0.75056782;stroke-miterlimit:4;stroke-dasharray:none" />
	</g>
	<g
   id="LINE_3153_"
   style="fill:none;stroke:#ff0000;stroke-opacity:1;stroke-width:0.75056782;stroke-miterlimit:4;stroke-dasharray:none">
		<line
   class="st0"
   x1="1020.5"
   y1="1105.5"
   x2="1020.5"
   y2="1133.9"
   id="line286"
   style="fill:none;stroke:#ff0000;stroke-opacity:1;stroke-width:0.75056782;stroke-miterlimit:4;stroke-dasharray:none" />
	</g>
	<g
   id="LINE_3152_"
   style="fill:none;stroke:#ff0000;stroke-opacity:1;stroke-width:0.75056782;stroke-miterlimit:4;stroke-dasharray:none">
		<line
   class="st0"
   x1="1077.2"
   y1="1105.5"
   x2="1020.5"
   y2="1105.5"
   id="line289"
   style="fill:none;stroke:#ff0000;stroke-opacity:1;stroke-width:0.75056782;stroke-miterlimit:4;stroke-dasharray:none" />
	</g>
	<g
   id="LINE_3151_"
   style="fill:none;stroke:#ff0000;stroke-opacity:1;stroke-width:0.75056782;stroke-miterlimit:4;stroke-dasharray:none">
		<line
   class="st0"
   x1="1077.2"
   y1="1133.9"
   x2="1077.2"
   y2="1105.5"
   id="line292"
   style="fill:none;stroke:#ff0000;stroke-opacity:1;stroke-width:0.75056782;stroke-miterlimit:4;stroke-dasharray:none" />
	</g>
	<g
   id="LINE_3150_"
   style="fill:none;stroke:#ff0000;stroke-opacity:1;stroke-width:0.75056782;stroke-miterlimit:4;stroke-dasharray:none">
		<line
   class="st0"
   x1="1077.2"
   y1="1133.9"
   x2="1133.9"
   y2="1133.9"
   id="line295"
   style="fill:none;stroke:#ff0000;stroke-opacity:1;stroke-width:0.75056782;stroke-miterlimit:4;stroke-dasharray:none" />
	</g>
	<g
   id="LINE_3149_"
   style="fill:none;stroke:#ff0000;stroke-opacity:1;stroke-width:0.75056782;stroke-miterlimit:4;stroke-dasharray:none">
		<line
   class="st0"
   x1="1133.9"
   y1="1133.9"
   x2="1133.9"
   y2="1105.5"
   id="line298"
   style="fill:none;stroke:#ff0000;stroke-opacity:1;stroke-width:0.75056782;stroke-miterlimit:4;stroke-dasharray:none" />
	</g>
	<g
   id="LINE_3148_"
   style="fill:none;stroke:#ff0000;stroke-opacity:1;stroke-width:0.75056782;stroke-miterlimit:4;stroke-dasharray:none">
		<line
   class="st0"
   x1="1133.9"
   y1="1105.5"
   x2="1190.6"
   y2="1105.5"
   id="line301"
   style="fill:none;stroke:#ff0000;stroke-opacity:1;stroke-width:0.75056782;stroke-miterlimit:4;stroke-dasharray:none" />
	</g>
	<g
   id="LINE_3147_"
   style="fill:none;stroke:#ff0000;stroke-opacity:1;stroke-width:0.75056782;stroke-miterlimit:4;stroke-dasharray:none">
		<line
   class="st0"
   x1="1190.6"
   y1="1105.5"
   x2="1190.6"
   y2="1133.9"
   id="line304"
   style="fill:none;stroke:#ff0000;stroke-opacity:1;stroke-width:0.75056782;stroke-miterlimit:4;stroke-dasharray:none" />
	</g>
	<g
   id="LINE_3146_"
   style="fill:none;stroke:#ff0000;stroke-opacity:1;stroke-width:0.75056782;stroke-miterlimit:4;stroke-dasharray:none">
		<line
   class="st0"
   x1="1190.6"
   y1="1133.9"
   x2="1247.2"
   y2="1133.9"
   id="line307"
   style="fill:none;stroke:#ff0000;stroke-opacity:1;stroke-width:0.75056782;stroke-miterlimit:4;stroke-dasharray:none" />
	</g>
	<g
   id="LINE_3145_"
   style="fill:none;stroke:#ff0000;stroke-opacity:1;stroke-width:0.75056782;stroke-miterlimit:4;stroke-dasharray:none">
		<line
   class="st0"
   x1="1247.2"
   y1="1105.5"
   x2="1247.2"
   y2="1133.9"
   id="line310"
   style="fill:none;stroke:#ff0000;stroke-opacity:1;stroke-width:0.75056782;stroke-miterlimit:4;stroke-dasharray:none" />
	</g>
	<g
   id="LINE_3144_"
   style="fill:none;stroke:#ff0000;stroke-opacity:1;stroke-width:0.75056782;stroke-miterlimit:4;stroke-dasharray:none">
		<line
   class="st0"
   x1="1303.9"
   y1="1105.5"
   x2="1247.2"
   y2="1105.5"
   id="line313"
   style="fill:none;stroke:#ff0000;stroke-opacity:1;stroke-width:0.75056782;stroke-miterlimit:4;stroke-dasharray:none" />
	</g>
	<g
   id="LINE_3143_"
   style="fill:none;stroke:#ff0000;stroke-opacity:1;stroke-width:0.75056782;stroke-miterlimit:4;stroke-dasharray:none">
		<line
   class="st0"
   x1="1303.9"
   y1="1133.9"
   x2="1303.9"
   y2="1105.5"
   id="line316"
   style="fill:none;stroke:#ff0000;stroke-opacity:1;stroke-width:0.75056782;stroke-miterlimit:4;stroke-dasharray:none" />
	</g>
	<g
   id="LINE_3142_"
   style="fill:none;stroke:#ff0000;stroke-opacity:1;stroke-width:0.75056782;stroke-miterlimit:4;stroke-dasharray:none">
		<line
   class="st0"
   x1="1303.9"
   y1="1133.9"
   x2="1360.6"
   y2="1133.9"
   id="line319"
   style="fill:none;stroke:#ff0000;stroke-opacity:1;stroke-width:0.75056782;stroke-miterlimit:4;stroke-dasharray:none" />
	</g>
	<g
   id="LINE_3141_"
   style="fill:none;stroke:#ff0000;stroke-opacity:1;stroke-width:0.75056782;stroke-miterlimit:4;stroke-dasharray:none">
		<line
   class="st0"
   x1="1360.6"
   y1="1105.5"
   x2="1360.6"
   y2="1133.9"
   id="line322"
   style="fill:none;stroke:#ff0000;stroke-opacity:1;stroke-width:0.75056782;stroke-miterlimit:4;stroke-dasharray:none" />
	</g>
	<g
   id="LINE_3140_"
   style="fill:none;stroke:#ff0000;stroke-opacity:1;stroke-width:0.75056782;stroke-miterlimit:4;stroke-dasharray:none">
		<line
   class="st0"
   x1="1417.3"
   y1="1105.5"
   x2="1360.6"
   y2="1105.5"
   id="line325"
   style="fill:none;stroke:#ff0000;stroke-opacity:1;stroke-width:0.75056782;stroke-miterlimit:4;stroke-dasharray:none" />
	</g>
	<g
   id="LINE_3139_"
   style="fill:none;stroke:#ff0000;stroke-opacity:1;stroke-width:0.75056782;stroke-miterlimit:4;stroke-dasharray:none">
		<line
   class="st0"
   x1="1417.3"
   y1="1133.9"
   x2="1417.3"
   y2="1105.5"
   id="line328"
   style="fill:none;stroke:#ff0000;stroke-opacity:1;stroke-width:0.75056782;stroke-miterlimit:4;stroke-dasharray:none" />
	</g>
	<g
   id="LINE_3138_"
   style="fill:none;stroke:#ff0000;stroke-opacity:1;stroke-width:0.75056782;stroke-miterlimit:4;stroke-dasharray:none">
		<line
   class="st0"
   x1="1417.3"
   y1="1133.9"
   x2="1474"
   y2="1133.9"
   id="line331"
   style="fill:none;stroke:#ff0000;stroke-opacity:1;stroke-width:0.75056782;stroke-miterlimit:4;stroke-dasharray:none" />
	</g>
	<g
   id="LINE_3137_"
   style="fill:none;stroke:#ff0000;stroke-opacity:1;stroke-width:0.75056782;stroke-miterlimit:4;stroke-dasharray:none">
		<line
   class="st0"
   x1="1474"
   y1="1105.5"
   x2="1474"
   y2="1133.9"
   id="line334"
   style="fill:none;stroke:#ff0000;stroke-opacity:1;stroke-width:0.75056782;stroke-miterlimit:4;stroke-dasharray:none" />
	</g>
	<g
   id="LINE_3136_"
   style="fill:none;stroke:#ff0000;stroke-opacity:1;stroke-width:0.75056782;stroke-miterlimit:4;stroke-dasharray:none">
		<line
   class="st0"
   x1="1530.7"
   y1="1105.5"
   x2="1474"
   y2="1105.5"
   id="line337"
   style="fill:none;stroke:#ff0000;stroke-opacity:1;stroke-width:0.75056782;stroke-miterlimit:4;stroke-dasharray:none" />
	</g>
	<g
   id="LINE_3135_"
   style="fill:none;stroke:#ff0000;stroke-opacity:1;stroke-width:0.75056782;stroke-miterlimit:4;stroke-dasharray:none">
		<line
   class="st0"
   x1="1530.7"
   y1="1133.9"
   x2="1530.7"
   y2="1105.5"
   id="line340"
   style="fill:none;stroke:#ff0000;stroke-opacity:1;stroke-width:0.75056782;stroke-miterlimit:4;stroke-dasharray:none" />
	</g>
	<g
   id="LINE_3134_"
   style="fill:none;stroke:#ff0000;stroke-opacity:1;stroke-width:0.75056782;stroke-miterlimit:4;stroke-dasharray:none">
		<line
   class="st0"
   x1="1530.7"
   y1="1133.9"
   x2="1587.4"
   y2="1133.9"
   id="line343"
   style="fill:none;stroke:#ff0000;stroke-opacity:1;stroke-width:0.75056782;stroke-miterlimit:4;stroke-dasharray:none" />
	</g>
	<g
   id="LINE_3133_"
   style="fill:none;stroke:#ff0000;stroke-opacity:1;stroke-width:0.75056782;stroke-miterlimit:4;stroke-dasharray:none">
		<line
   class="st0"
   x1="1587.4"
   y1="1105.5"
   x2="1587.4"
   y2="1133.9"
   id="line346"
   style="fill:none;stroke:#ff0000;stroke-opacity:1;stroke-width:0.75056782;stroke-miterlimit:4;stroke-dasharray:none" />
	</g>
	<g
   id="LINE_3132_"
   style="fill:none;stroke:#ff0000;stroke-opacity:1;stroke-width:0.75056782;stroke-miterlimit:4;stroke-dasharray:none">
		<line
   class="st0"
   x1="1644.1"
   y1="1105.5"
   x2="1587.4"
   y2="1105.5"
   id="line349"
   style="fill:none;stroke:#ff0000;stroke-opacity:1;stroke-width:0.75056782;stroke-miterlimit:4;stroke-dasharray:none" />
	</g>
	<g
   id="LINE_3131_"
   style="fill:none;stroke:#ff0000;stroke-opacity:1;stroke-width:0.75056782;stroke-miterlimit:4;stroke-dasharray:none">
		<line
   class="st0"
   x1="1644.1"
   y1="1133.9"
   x2="1644.1"
   y2="1105.5"
   id="line352"
   style="fill:none;stroke:#ff0000;stroke-opacity:1;stroke-width:0.75056782;stroke-miterlimit:4;stroke-dasharray:none" />
	</g>
	<g
   id="LINE_3130_"
   style="fill:none;stroke:#ff0000;stroke-opacity:1;stroke-width:0.75056782;stroke-miterlimit:4;stroke-dasharray:none">
		<line
   class="st0"
   x1="1644.1"
   y1="1133.9"
   x2="1700.8"
   y2="1133.9"
   id="line355"
   style="fill:none;stroke:#ff0000;stroke-opacity:1;stroke-width:0.75056782;stroke-miterlimit:4;stroke-dasharray:none" />
	</g>
	<g
   id="LINE_3129_"
   style="fill:none;stroke:#ff0000;stroke-opacity:1;stroke-width:0.75056782;stroke-miterlimit:4;stroke-dasharray:none">
		<line
   class="st0"
   x1="1700.8"
   y1="1133.9"
   x2="1700.8"
   y2="0"
   id="line358"
   style="fill:none;stroke:#ff0000;stroke-opacity:1;stroke-width:0.75056782;stroke-miterlimit:4;stroke-dasharray:none" />
	</g>
	<g
   id="LINE_3128_"
   style="fill:none;stroke:#ff0000;stroke-opacity:1;stroke-width:0.75056782;stroke-miterlimit:4;stroke-dasharray:none">
		<line
   class="st0"
   x1="1241.6"
   y1="748.29999"
   x2="1241.6"
   y2="737"
   id="line361"
   style="fill:none;stroke:#ff0000;stroke-opacity:1;stroke-width:0.75056782;stroke-miterlimit:4;stroke-dasharray:none" />
	</g>
	<g
   id="LINE_3127_"
   style="fill:none;stroke:#ff0000;stroke-opacity:1;stroke-width:0.75056782;stroke-miterlimit:4;stroke-dasharray:none">
		<line
   class="st0"
   x1="1241.6"
   y1="737"
   x2="1309.6"
   y2="737"
   id="line364"
   style="fill:none;stroke:#ff0000;stroke-opacity:1;stroke-width:0.75056782;stroke-miterlimit:4;stroke-dasharray:none" />
	</g>
	<g
   id="LINE_3126_"
   style="fill:none;stroke:#ff0000;stroke-opacity:1;stroke-width:0.75056782;stroke-miterlimit:4;stroke-dasharray:none">
		<line
   class="st0"
   x1="1309.6"
   y1="737"
   x2="1309.6"
   y2="748.29999"
   id="line367"
   style="fill:none;stroke:#ff0000;stroke-opacity:1;stroke-width:0.75056782;stroke-miterlimit:4;stroke-dasharray:none" />
	</g>
	<g
   id="LINE_3125_"
   style="fill:none;stroke:#ff0000;stroke-opacity:1;stroke-width:0.75056782;stroke-miterlimit:4;stroke-dasharray:none">
		<line
   class="st0"
   x1="1309.6"
   y1="748.29999"
   x2="1241.6"
   y2="748.29999"
   id="line370"
   style="fill:none;stroke:#ff0000;stroke-opacity:1;stroke-width:0.75056782;stroke-miterlimit:4;stroke-dasharray:none" />
	</g>
	<circle
   class="st0"
   cx="1367.7"
   cy="389.79999"
   r="8.5"
   id="circle373"
   style="fill:none;stroke:#ff0000;stroke-opacity:1;stroke-width:0.75056782;stroke-miterlimit:4;stroke-dasharray:none" />
	<circle
   class="st0"
   cx="1275.6"
   cy="496.10001"
   r="8.5"
   id="circle375"
   style="fill:none;stroke:#ff0000;stroke-opacity:1;stroke-width:0.75056782;stroke-miterlimit:4;stroke-dasharray:none" />
	<rect
   x="1211.8"
   y="355.70001"
   class="st0"
   width="119.1"
   height="66.599998"
   id="rect377"
   style="fill:none;stroke:#ff0000;stroke-opacity:1;stroke-width:0.75056782;stroke-miterlimit:4;stroke-dasharray:none" />
	<rect
   x="326"
   y="538.59998"
   class="st0"
   width="198.39999"
   height="226.8"
   id="rect379"
   style="fill:none;stroke:#ff0000;stroke-opacity:1;stroke-width:0.75056782;stroke-miterlimit:4;stroke-dasharray:none" />
	<circle
   class="st0"
   cx="425.20001"
   cy="496.10001"
   r="7.0999999"
   id="circle381"
   style="fill:none;stroke:#ff0000;stroke-opacity:1;stroke-width:0.75056782;stroke-miterlimit:4;stroke-dasharray:none" />
	<rect
   x="382.70001"
   y="368.5"
   class="st0"
   width="85"
   height="42.5"
   id="rect383"
   style="fill:none;stroke:#ff0000;stroke-opacity:1;stroke-width:0.75056782;stroke-miterlimit:4;stroke-dasharray:none" />
	<circle
   class="st0"
   cx="517.29999"
   cy="389.79999"
   r="7.0999999"
   id="circle385"
   style="fill:none;stroke:#ff0000;stroke-opacity:1;stroke-width:0.75056782;stroke-miterlimit:4;stroke-dasharray:none" />
</g>

</svg>