<?xml version="1.0" encoding="UTF-8" standalone="no"?>
<!-- Generator: Adobe Illustrator 21.1.0, SVG Export Plug-In . SVG Version: 6.00 Build 0)  -->

<svg
   xmlns:dc="http://purl.org/dc/elements/1.1/"
   xmlns:cc="http://creativecommons.org/ns#"
   xmlns:rdf="http://www.w3.org/1999/02/22-rdf-syntax-ns#"
   xmlns:svg="http://www.w3.org/2000/svg"
   xmlns="http://www.w3.org/2000/svg"
   xmlns:sodipodi="http://sodipodi.sourceforge.net/DTD/sodipodi-0.dtd"
   xmlns:inkscape="http://www.inkscape.org/namespaces/inkscape"
   version="1.1"
   x="0px"
   y="0px"
   viewBox="0 0 1700.8 1133.9"
   style="enable-background:new 0 0 1700.8 1133.9;"
   xml:space="preserve"
   id="svg968"
   sodipodi:docname="calque 10.svg"
   inkscape:version="0.92.3 (2405546, 2018-03-11)"><metadata
   id="metadata974"><rdf:RDF><cc:Work
       rdf:about=""><dc:format>image/svg+xml</dc:format><dc:type
         rdf:resource="http://purl.org/dc/dcmitype/StillImage" /></cc:Work></rdf:RDF></metadata><defs
   id="defs972">
	
	
	
	
	
	
	
	
	
	
	
	
	
	
	
	
	
	
	
	
	
	
	
	
	
	
	
	
	
	
	
	
	
	
	
	
	
	
	
	
	
	
	
	
	
	
	
	
	
	
	
	
	
	
	
	
	
	
	
	
	
	
	
	
	
	
	
	
	
	
	
	
	
	
	
	
	
	
	
	
	
	
	
	
	
	
	
	
	
	
	
	
	
	
	
	
	
	
	
	
	
	
	
	
	
	
	
	
	
	
	
	
	
	
	
	
	
	
	
	
	
	
	
	
	
	
	
	
	
	
	
	
	
	
	
	
	
	
	
	
	
	
	
	
	
	
	
	
	
	
	
	
	
	
	
	
	
	
	
	
	
	
	
	
	
	
	
	
	
	
	
	
	
	
	
	
	
	
	
	
	
	
	
	
	
	
	
	
	
	
	
	
	
	
	
	
	
	
	
	
	
	
	
	
	
	
	
	
	
	
	
	
	
	
	
	
	
	
	
	
	
	
	
	
	
	
	
	
	
	
	
	
	
	
	
	
	
	
	
	
	
	
	
	
	
	
	
	
	
	
	
	
	
	
	
	
	
	
	
	
	
	
	
	
	
	
	
	
	
	
	
	
	
	
	
	
	
	
	
	
	
	
	
	
	
	
	
	
	
	
	
	
	
	
	
	
	
	
	
	
	
	
	
	
	
	
	
	
	
	
	
	
	
	
	
	
	
	
	
	
	
	
	
	
</defs><sodipodi:namedview
   pagecolor="#ffffff"
   bordercolor="#666666"
   borderopacity="1"
   objecttolerance="10"
   gridtolerance="10"
   guidetolerance="10"
   inkscape:pageopacity="0"
   inkscape:pageshadow="2"
   inkscape:window-width="1920"
   inkscape:window-height="1017"
   id="namedview970"
   showgrid="false"
   inkscape:zoom="0.588684"
   inkscape:cx="872.10593"
   inkscape:cy="554.13744"
   inkscape:window-x="-8"
   inkscape:window-y="-8"
   inkscape:window-maximized="1"
   inkscape:current-layer="svg968" />
<style
   type="text/css"
   id="style2">
	.st0{fill:none;stroke:#FF0000;stroke-width:1.000000e-02;stroke-linecap:round;stroke-linejoin:round;stroke-miterlimit:10;}
	.st1{fill:none;stroke:#0000FF;stroke-miterlimit:10;}
</style>
<g
   style="stroke:#ff0000;stroke-opacity:1"
   id="LINE_2343_">
		<line
   style="stroke:#ff0000;stroke-opacity:1"
   id="line4"
   y2="1133.9"
   x2="113.4"
   y1="1133.9"
   x1="170.10001"
   class="st0" />
	</g><g
   style="stroke:#ff0000;stroke-opacity:1"
   id="LINE_2342_">
		<line
   style="stroke:#ff0000;stroke-opacity:1"
   id="line7"
   y2="1133.9"
   x2="226.8"
   y1="1133.9"
   x1="283.5"
   class="st0" />
	</g><g
   style="stroke:#ff0000;stroke-opacity:1"
   id="LINE_2341_">
		<line
   style="stroke:#ff0000;stroke-opacity:1"
   id="line10"
   y2="1133.9"
   x2="850.40002"
   y1="0"
   x1="850.40002"
   class="st0" />
	</g><g
   style="stroke:#ff0000;stroke-opacity:1"
   id="LINE_2340_">
		<line
   style="stroke:#ff0000;stroke-opacity:1"
   id="line13"
   y2="0"
   x2="0"
   y1="1133.9"
   x1="0"
   class="st0" />
	</g><g
   style="stroke:#ff0000;stroke-opacity:1"
   id="LINE_2339_">
		<line
   style="stroke:#ff0000;stroke-opacity:1"
   id="line16"
   y2="1105.5"
   x2="56.700001"
   y1="1133.9"
   x1="56.700001"
   class="st0" />
	</g><g
   style="stroke:#ff0000;stroke-opacity:1"
   id="LINE_2338_">
		<line
   style="stroke:#ff0000;stroke-opacity:1"
   id="line19"
   y2="1133.9"
   x2="340.20001"
   y1="1133.9"
   x1="396.89999"
   class="st0" />
	</g><g
   style="stroke:#ff0000;stroke-opacity:1"
   id="LINE_2337_">
		<line
   style="stroke:#ff0000;stroke-opacity:1"
   id="line22"
   y2="1105.5"
   x2="793.70001"
   y1="1105.5"
   x1="737"
   class="st0" />
	</g><g
   style="stroke:#ff0000;stroke-opacity:1"
   id="LINE_2336_">
		<line
   style="stroke:#ff0000;stroke-opacity:1"
   id="line25"
   y2="1133.9"
   x2="0"
   y1="1133.9"
   x1="56.700001"
   class="st0" />
	</g><g
   style="stroke:#ff0000;stroke-opacity:1"
   id="LINE_2335_">
		<line
   style="stroke:#ff0000;stroke-opacity:1"
   id="line28"
   y2="1105.5"
   x2="340.20001"
   y1="1105.5"
   x1="283.5"
   class="st0" />
	</g><g
   style="stroke:#ff0000;stroke-opacity:1"
   id="LINE_2334_">
		<line
   style="stroke:#ff0000;stroke-opacity:1"
   id="line31"
   y2="1133.9"
   x2="340.20001"
   y1="1105.5"
   x1="340.20001"
   class="st0" />
	</g><g
   style="stroke:#ff0000;stroke-opacity:1"
   id="LINE_2333_">
		<line
   style="stroke:#ff0000;stroke-opacity:1"
   id="line34"
   y2="1105.5"
   x2="623.59998"
   y1="1133.9"
   x1="623.59998"
   class="st0" />
	</g><g
   style="stroke:#ff0000;stroke-opacity:1"
   id="LINE_2332_">
		<line
   style="stroke:#ff0000;stroke-opacity:1"
   id="line37"
   y2="1133.9"
   x2="113.4"
   y1="1105.5"
   x1="113.4"
   class="st0" />
	</g><g
   style="stroke:#ff0000;stroke-opacity:1"
   id="LINE_2331_">
		<line
   style="stroke:#ff0000;stroke-opacity:1"
   id="line40"
   y2="1105.5"
   x2="283.5"
   y1="1133.9"
   x1="283.5"
   class="st0" />
	</g><g
   style="stroke:#ff0000;stroke-opacity:1"
   id="LINE_2330_">
		<line
   style="stroke:#ff0000;stroke-opacity:1"
   id="line43"
   y2="1133.9"
   x2="453.5"
   y1="1105.5"
   x1="453.5"
   class="st0" />
	</g><g
   style="stroke:#ff0000;stroke-opacity:1"
   id="LINE_2329_">
		<line
   style="stroke:#ff0000;stroke-opacity:1"
   id="line46"
   y2="1105.5"
   x2="113.4"
   y1="1105.5"
   x1="56.700001"
   class="st0" />
	</g><g
   style="stroke:#ff0000;stroke-opacity:1"
   id="LINE_2328_">
		<line
   style="stroke:#ff0000;stroke-opacity:1"
   id="line49"
   y2="1105.5"
   x2="170.10001"
   y1="1133.9"
   x1="170.10001"
   class="st0" />
	</g><g
   style="stroke:#ff0000;stroke-opacity:1"
   id="LINE_2327_">
		<line
   style="stroke:#ff0000;stroke-opacity:1"
   id="line52"
   y2="1105.5"
   x2="226.8"
   y1="1105.5"
   x1="170.10001"
   class="st0" />
	</g><g
   style="stroke:#ff0000;stroke-opacity:1"
   id="LINE_2326_">
		<line
   style="stroke:#ff0000;stroke-opacity:1"
   id="line55"
   y2="1133.9"
   x2="226.8"
   y1="1105.5"
   x1="226.8"
   class="st0" />
	</g><g
   style="stroke:#ff0000;stroke-opacity:1"
   id="LINE_2325_">
		<line
   style="stroke:#ff0000;stroke-opacity:1"
   id="line58"
   y2="1105.5"
   x2="396.89999"
   y1="1133.9"
   x1="396.89999"
   class="st0" />
	</g><g
   style="stroke:#ff0000;stroke-opacity:1"
   id="LINE_2324_">
		<line
   style="stroke:#ff0000;stroke-opacity:1"
   id="line61"
   y2="1105.5"
   x2="453.5"
   y1="1105.5"
   x1="396.89999"
   class="st0" />
	</g><g
   style="stroke:#ff0000;stroke-opacity:1"
   id="LINE_2323_">
		<line
   style="stroke:#ff0000;stroke-opacity:1"
   id="line64"
   y2="1133.9"
   x2="453.5"
   y1="1133.9"
   x1="510.20001"
   class="st0" />
	</g><g
   style="stroke:#ff0000;stroke-opacity:1"
   id="LINE_2322_">
		<line
   style="stroke:#ff0000;stroke-opacity:1"
   id="line67"
   y2="1105.5"
   x2="510.20001"
   y1="1133.9"
   x1="510.20001"
   class="st0" />
	</g><g
   style="stroke:#ff0000;stroke-opacity:1"
   id="LINE_2321_">
		<line
   style="stroke:#ff0000;stroke-opacity:1"
   id="line70"
   y2="1105.5"
   x2="566.90002"
   y1="1105.5"
   x1="510.20001"
   class="st0" />
	</g><g
   style="stroke:#ff0000;stroke-opacity:1"
   id="LINE_2320_">
		<line
   style="stroke:#ff0000;stroke-opacity:1"
   id="line73"
   y2="1133.9"
   x2="566.90002"
   y1="1105.5"
   x1="566.90002"
   class="st0" />
	</g><g
   style="stroke:#ff0000;stroke-opacity:1"
   id="LINE_2319_">
		<line
   style="stroke:#ff0000;stroke-opacity:1"
   id="line76"
   y2="1133.9"
   x2="566.90002"
   y1="1133.9"
   x1="623.59998"
   class="st0" />
	</g><g
   style="stroke:#ff0000;stroke-opacity:1"
   id="LINE_2318_">
		<line
   style="stroke:#ff0000;stroke-opacity:1"
   id="line79"
   y2="1105.5"
   x2="680.29999"
   y1="1105.5"
   x1="623.59998"
   class="st0" />
	</g><g
   style="stroke:#ff0000;stroke-opacity:1"
   id="LINE_2317_">
		<line
   style="stroke:#ff0000;stroke-opacity:1"
   id="line82"
   y2="1133.9"
   x2="680.29999"
   y1="1105.5"
   x1="680.29999"
   class="st0" />
	</g><g
   style="stroke:#ff0000;stroke-opacity:1"
   id="LINE_2316_">
		<line
   style="stroke:#ff0000;stroke-opacity:1"
   id="line85"
   y2="1133.9"
   x2="680.29999"
   y1="1133.9"
   x1="737"
   class="st0" />
	</g><g
   style="stroke:#ff0000;stroke-opacity:1"
   id="LINE_2315_">
		<line
   style="stroke:#ff0000;stroke-opacity:1"
   id="line88"
   y2="1105.5"
   x2="737"
   y1="1133.9"
   x1="737"
   class="st0" />
	</g><g
   style="stroke:#ff0000;stroke-opacity:1"
   id="LINE_2314_">
		<line
   style="stroke:#ff0000;stroke-opacity:1"
   id="line91"
   y2="1133.9"
   x2="793.70001"
   y1="1105.5"
   x1="793.70001"
   class="st0" />
	</g><g
   style="stroke:#ff0000;stroke-opacity:1"
   id="LINE_2313_">
		<line
   style="stroke:#ff0000;stroke-opacity:1"
   id="line94"
   y2="1133.9"
   x2="793.70001"
   y1="1133.9"
   x1="850.40002"
   class="st0" />
	</g><g
   style="stroke:#ff0000;stroke-opacity:1"
   id="LINE_2312_">
		<line
   style="stroke:#ff0000;stroke-opacity:1"
   id="line97"
   y2="0"
   x2="850.40002"
   y1="0"
   x1="793.70001"
   class="st0" />
	</g><g
   style="stroke:#ff0000;stroke-opacity:1"
   id="LINE_2311_">
		<line
   style="stroke:#ff0000;stroke-opacity:1"
   id="line100"
   y2="28.299999"
   x2="793.70001"
   y1="0"
   x1="793.70001"
   class="st0" />
	</g><g
   style="stroke:#ff0000;stroke-opacity:1"
   id="LINE_2310_">
		<line
   style="stroke:#ff0000;stroke-opacity:1"
   id="line103"
   y2="28.299999"
   x2="737"
   y1="28.299999"
   x1="793.70001"
   class="st0" />
	</g><g
   style="stroke:#ff0000;stroke-opacity:1"
   id="LINE_2309_">
		<line
   style="stroke:#ff0000;stroke-opacity:1"
   id="line106"
   y2="0"
   x2="737"
   y1="28.299999"
   x1="737"
   class="st0" />
	</g><g
   style="stroke:#ff0000;stroke-opacity:1"
   id="LINE_2308_">
		<line
   style="stroke:#ff0000;stroke-opacity:1"
   id="line109"
   y2="0"
   x2="737"
   y1="0"
   x1="680.29999"
   class="st0" />
	</g><g
   style="stroke:#ff0000;stroke-opacity:1"
   id="LINE_2307_">
		<line
   style="stroke:#ff0000;stroke-opacity:1"
   id="line112"
   y2="28.299999"
   x2="680.29999"
   y1="0"
   x1="680.29999"
   class="st0" />
	</g><g
   style="stroke:#ff0000;stroke-opacity:1"
   id="LINE_2306_">
		<line
   style="stroke:#ff0000;stroke-opacity:1"
   id="line115"
   y2="28.299999"
   x2="623.59998"
   y1="28.299999"
   x1="680.29999"
   class="st0" />
	</g><g
   style="stroke:#ff0000;stroke-opacity:1"
   id="LINE_2305_">
		<line
   style="stroke:#ff0000;stroke-opacity:1"
   id="line118"
   y2="0"
   x2="623.59998"
   y1="28.299999"
   x1="623.59998"
   class="st0" />
	</g><g
   style="stroke:#ff0000;stroke-opacity:1"
   id="LINE_2304_">
		<line
   style="stroke:#ff0000;stroke-opacity:1"
   id="line121"
   y2="0"
   x2="623.59998"
   y1="0"
   x1="566.90002"
   class="st0" />
	</g><g
   style="stroke:#ff0000;stroke-opacity:1"
   id="LINE_2303_">
		<line
   style="stroke:#ff0000;stroke-opacity:1"
   id="line124"
   y2="28.299999"
   x2="566.90002"
   y1="0"
   x1="566.90002"
   class="st0" />
	</g><g
   style="stroke:#ff0000;stroke-opacity:1"
   id="LINE_2302_">
		<line
   style="stroke:#ff0000;stroke-opacity:1"
   id="line127"
   y2="28.299999"
   x2="510.20001"
   y1="28.299999"
   x1="566.90002"
   class="st0" />
	</g><g
   style="stroke:#ff0000;stroke-opacity:1"
   id="LINE_2301_">
		<line
   style="stroke:#ff0000;stroke-opacity:1"
   id="line130"
   y2="0"
   x2="510.20001"
   y1="28.299999"
   x1="510.20001"
   class="st0" />
	</g><g
   style="stroke:#ff0000;stroke-opacity:1"
   id="LINE_2300_">
		<line
   style="stroke:#ff0000;stroke-opacity:1"
   id="line133"
   y2="0"
   x2="510.20001"
   y1="0"
   x1="453.5"
   class="st0" />
	</g><g
   style="stroke:#ff0000;stroke-opacity:1"
   id="LINE_2299_">
		<line
   style="stroke:#ff0000;stroke-opacity:1"
   id="line136"
   y2="28.299999"
   x2="453.5"
   y1="0"
   x1="453.5"
   class="st0" />
	</g><g
   style="stroke:#ff0000;stroke-opacity:1"
   id="LINE_2298_">
		<line
   style="stroke:#ff0000;stroke-opacity:1"
   id="line139"
   y2="28.299999"
   x2="396.89999"
   y1="28.299999"
   x1="453.5"
   class="st0" />
	</g><g
   style="stroke:#ff0000;stroke-opacity:1"
   id="LINE_2297_">
		<line
   style="stroke:#ff0000;stroke-opacity:1"
   id="line142"
   y2="0"
   x2="396.89999"
   y1="28.299999"
   x1="396.89999"
   class="st0" />
	</g><g
   style="stroke:#ff0000;stroke-opacity:1"
   id="LINE_2296_">
		<line
   style="stroke:#ff0000;stroke-opacity:1"
   id="line145"
   y2="0"
   x2="396.89999"
   y1="0"
   x1="340.20001"
   class="st0" />
	</g><g
   style="stroke:#ff0000;stroke-opacity:1"
   id="LINE_2295_">
		<line
   style="stroke:#ff0000;stroke-opacity:1"
   id="line148"
   y2="0"
   x2="340.20001"
   y1="28.299999"
   x1="340.20001"
   class="st0" />
	</g><g
   style="stroke:#ff0000;stroke-opacity:1"
   id="LINE_2294_">
		<line
   style="stroke:#ff0000;stroke-opacity:1"
   id="line151"
   y2="28.299999"
   x2="340.20001"
   y1="28.299999"
   x1="283.5"
   class="st0" />
	</g><g
   style="stroke:#ff0000;stroke-opacity:1"
   id="LINE_2293_">
		<line
   style="stroke:#ff0000;stroke-opacity:1"
   id="line154"
   y2="28.299999"
   x2="283.5"
   y1="0"
   x1="283.5"
   class="st0" />
	</g><g
   style="stroke:#ff0000;stroke-opacity:1"
   id="LINE_2292_">
		<line
   style="stroke:#ff0000;stroke-opacity:1"
   id="line157"
   y2="0"
   x2="283.5"
   y1="0"
   x1="226.8"
   class="st0" />
	</g><g
   style="stroke:#ff0000;stroke-opacity:1"
   id="LINE_2291_">
		<line
   style="stroke:#ff0000;stroke-opacity:1"
   id="line160"
   y2="28.299999"
   x2="226.8"
   y1="0"
   x1="226.8"
   class="st0" />
	</g><g
   style="stroke:#ff0000;stroke-opacity:1"
   id="LINE_2290_">
		<line
   style="stroke:#ff0000;stroke-opacity:1"
   id="line163"
   y2="28.299999"
   x2="170.10001"
   y1="28.299999"
   x1="226.8"
   class="st0" />
	</g><g
   style="stroke:#ff0000;stroke-opacity:1"
   id="LINE_2289_">
		<line
   style="stroke:#ff0000;stroke-opacity:1"
   id="line166"
   y2="0"
   x2="170.10001"
   y1="28.299999"
   x1="170.10001"
   class="st0" />
	</g><g
   style="stroke:#ff0000;stroke-opacity:1"
   id="LINE_2288_">
		<line
   style="stroke:#ff0000;stroke-opacity:1"
   id="line169"
   y2="0"
   x2="170.10001"
   y1="0"
   x1="113.4"
   class="st0" />
	</g><g
   style="stroke:#ff0000;stroke-opacity:1"
   id="LINE_2287_">
		<line
   style="stroke:#ff0000;stroke-opacity:1"
   id="line172"
   y2="28.299999"
   x2="113.4"
   y1="0"
   x1="113.4"
   class="st0" />
	</g><g
   style="stroke:#ff0000;stroke-opacity:1"
   id="LINE_2286_">
		<line
   style="stroke:#ff0000;stroke-opacity:1"
   id="line175"
   y2="28.299999"
   x2="56.700001"
   y1="28.299999"
   x1="113.4"
   class="st0" />
	</g><g
   style="stroke:#ff0000;stroke-opacity:1"
   id="LINE_2285_">
		<line
   style="stroke:#ff0000;stroke-opacity:1"
   id="line178"
   y2="0"
   x2="56.700001"
   y1="28.299999"
   x1="56.700001"
   class="st0" />
	</g><g
   style="stroke:#ff0000;stroke-opacity:1"
   id="LINE_2284_">
		<line
   style="stroke:#ff0000;stroke-opacity:1"
   id="line181"
   y2="0"
   x2="56.700001"
   y1="0"
   x1="0"
   class="st0" />
	</g><g
   style="stroke:#ff0000;stroke-opacity:1"
   id="LINE_2283_">
		<line
   style="stroke:#ff0000;stroke-opacity:1"
   id="line184"
   y2="141.7"
   x2="141.7"
   y1="141.7"
   x1="283.5"
   class="st0" />
	</g><g
   style="stroke:#ff0000;stroke-opacity:1"
   id="LINE_2282_">
		<line
   style="stroke:#ff0000;stroke-opacity:1"
   id="line187"
   y2="155.89999"
   x2="283.5"
   y1="141.7"
   x1="283.5"
   class="st0" />
	</g><g
   style="stroke:#ff0000;stroke-opacity:1"
   id="LINE_2281_">
		<line
   style="stroke:#ff0000;stroke-opacity:1"
   id="line190"
   y2="155.89999"
   x2="269.29999"
   y1="155.89999"
   x1="283.5"
   class="st0" />
	</g><g
   style="stroke:#ff0000;stroke-opacity:1"
   id="LINE_2280_">
		<line
   style="stroke:#ff0000;stroke-opacity:1"
   id="line193"
   y2="155.89999"
   x2="269.29999"
   y1="552.79999"
   x1="269.29999"
   class="st0" />
	</g><g
   style="stroke:#ff0000;stroke-opacity:1"
   id="LINE_2279_">
		<line
   style="stroke:#ff0000;stroke-opacity:1"
   id="line196"
   y2="552.79999"
   x2="269.29999"
   y1="552.79999"
   x1="283.5"
   class="st0" />
	</g><g
   style="stroke:#ff0000;stroke-opacity:1"
   id="LINE_2278_">
		<line
   style="stroke:#ff0000;stroke-opacity:1"
   id="line199"
   y2="552.79999"
   x2="283.5"
   y1="566.90002"
   x1="283.5"
   class="st0" />
	</g><g
   style="stroke:#ff0000;stroke-opacity:1"
   id="LINE_2277_">
		<line
   style="stroke:#ff0000;stroke-opacity:1"
   id="line202"
   y2="566.90002"
   x2="283.5"
   y1="566.90002"
   x1="269.29999"
   class="st0" />
	</g><g
   style="stroke:#ff0000;stroke-opacity:1"
   id="LINE_2276_">
		<line
   style="stroke:#ff0000;stroke-opacity:1"
   id="line205"
   y2="566.90002"
   x2="269.29999"
   y1="992.09998"
   x1="269.29999"
   class="st0" />
	</g><g
   style="stroke:#ff0000;stroke-opacity:1"
   id="LINE_2275_">
		<line
   style="stroke:#ff0000;stroke-opacity:1"
   id="line208"
   y2="566.90002"
   x2="155.89999"
   y1="566.90002"
   x1="141.7"
   class="st0" />
	</g><g
   style="stroke:#ff0000;stroke-opacity:1"
   id="LINE_2274_">
		<line
   style="stroke:#ff0000;stroke-opacity:1"
   id="line211"
   y2="249.10001"
   x2="289.5"
   y1="247.8"
   x1="287.70001"
   class="st0" />
	</g><g
   style="stroke:#ff0000;stroke-opacity:1"
   id="LINE_2273_">
		<line
   style="stroke:#ff0000;stroke-opacity:1"
   id="line214"
   y2="250.89999"
   x2="290.79999"
   y1="249.10001"
   x1="289.5"
   class="st0" />
	</g><g
   style="stroke:#ff0000;stroke-opacity:1"
   id="LINE_2272_">
		<line
   style="stroke:#ff0000;stroke-opacity:1"
   id="line217"
   y2="252.89999"
   x2="291.70001"
   y1="250.89999"
   x1="290.79999"
   class="st0" />
	</g><g
   style="stroke:#ff0000;stroke-opacity:1"
   id="LINE_2271_">
		<line
   style="stroke:#ff0000;stroke-opacity:1"
   id="line220"
   y2="255.10001"
   x2="292"
   y1="252.89999"
   x1="291.70001"
   class="st0" />
	</g><g
   style="stroke:#ff0000;stroke-opacity:1"
   id="LINE_2270_">
		<line
   style="stroke:#ff0000;stroke-opacity:1"
   id="line223"
   y2="257.29999"
   x2="291.70001"
   y1="255.10001"
   x1="292"
   class="st0" />
	</g><g
   style="stroke:#ff0000;stroke-opacity:1"
   id="LINE_2269_">
		<line
   style="stroke:#ff0000;stroke-opacity:1"
   id="line226"
   y2="259.39999"
   x2="290.79999"
   y1="257.29999"
   x1="291.70001"
   class="st0" />
	</g><g
   style="stroke:#ff0000;stroke-opacity:1"
   id="LINE_2268_">
		<line
   style="stroke:#ff0000;stroke-opacity:1"
   id="line229"
   y2="261.10001"
   x2="289.5"
   y1="259.39999"
   x1="290.79999"
   class="st0" />
	</g><g
   style="stroke:#ff0000;stroke-opacity:1"
   id="LINE_2267_">
		<line
   style="stroke:#ff0000;stroke-opacity:1"
   id="line232"
   y2="262.5"
   x2="287.70001"
   y1="261.10001"
   x1="289.5"
   class="st0" />
	</g><g
   style="stroke:#ff0000;stroke-opacity:1"
   id="LINE_2266_">
		<line
   style="stroke:#ff0000;stroke-opacity:1"
   id="line235"
   y2="263.29999"
   x2="285.70001"
   y1="262.5"
   x1="287.70001"
   class="st0" />
	</g><g
   style="stroke:#ff0000;stroke-opacity:1"
   id="LINE_2265_">
		<line
   style="stroke:#ff0000;stroke-opacity:1"
   id="line238"
   y2="263.60001"
   x2="283.5"
   y1="263.29999"
   x1="285.70001"
   class="st0" />
	</g><g
   style="stroke:#ff0000;stroke-opacity:1"
   id="LINE_2264_">
		<line
   style="stroke:#ff0000;stroke-opacity:1"
   id="line241"
   y2="263.29999"
   x2="281.29999"
   y1="263.60001"
   x1="283.5"
   class="st0" />
	</g><g
   style="stroke:#ff0000;stroke-opacity:1"
   id="LINE_2263_">
		<line
   style="stroke:#ff0000;stroke-opacity:1"
   id="line244"
   y2="262.5"
   x2="279.20001"
   y1="263.29999"
   x1="281.29999"
   class="st0" />
	</g><g
   style="stroke:#ff0000;stroke-opacity:1"
   id="LINE_2262_">
		<line
   style="stroke:#ff0000;stroke-opacity:1"
   id="line247"
   y2="261.10001"
   x2="277.5"
   y1="262.5"
   x1="279.20001"
   class="st0" />
	</g><g
   style="stroke:#ff0000;stroke-opacity:1"
   id="LINE_2261_">
		<line
   style="stroke:#ff0000;stroke-opacity:1"
   id="line250"
   y2="259.39999"
   x2="276.10001"
   y1="261.10001"
   x1="277.5"
   class="st0" />
	</g><g
   style="stroke:#ff0000;stroke-opacity:1"
   id="LINE_2260_">
		<line
   style="stroke:#ff0000;stroke-opacity:1"
   id="line253"
   y2="257.29999"
   x2="275.29999"
   y1="259.39999"
   x1="276.10001"
   class="st0" />
	</g><g
   style="stroke:#ff0000;stroke-opacity:1"
   id="LINE_2259_">
		<line
   style="stroke:#ff0000;stroke-opacity:1"
   id="line256"
   y2="255.10001"
   x2="275"
   y1="257.29999"
   x1="275.29999"
   class="st0" />
	</g><g
   style="stroke:#ff0000;stroke-opacity:1"
   id="LINE_2258_">
		<line
   style="stroke:#ff0000;stroke-opacity:1"
   id="line259"
   y2="252.89999"
   x2="275.29999"
   y1="255.10001"
   x1="275"
   class="st0" />
	</g><g
   style="stroke:#ff0000;stroke-opacity:1"
   id="LINE_2257_">
		<line
   style="stroke:#ff0000;stroke-opacity:1"
   id="line262"
   y2="250.89999"
   x2="276.10001"
   y1="252.89999"
   x1="275.29999"
   class="st0" />
	</g><g
   style="stroke:#ff0000;stroke-opacity:1"
   id="LINE_2256_">
		<line
   style="stroke:#ff0000;stroke-opacity:1"
   id="line265"
   y2="249.10001"
   x2="277.5"
   y1="250.89999"
   x1="276.10001"
   class="st0" />
	</g><g
   style="stroke:#ff0000;stroke-opacity:1"
   id="LINE_2255_">
		<line
   style="stroke:#ff0000;stroke-opacity:1"
   id="line268"
   y2="247.8"
   x2="279.20001"
   y1="249.10001"
   x1="277.5"
   class="st0" />
	</g><g
   style="stroke:#ff0000;stroke-opacity:1"
   id="LINE_2254_">
		<line
   style="stroke:#ff0000;stroke-opacity:1"
   id="line271"
   y2="246.89999"
   x2="281.29999"
   y1="247.8"
   x1="279.20001"
   class="st0" />
	</g><g
   style="stroke:#ff0000;stroke-opacity:1"
   id="LINE_2253_">
		<line
   style="stroke:#ff0000;stroke-opacity:1"
   id="line274"
   y2="246.60001"
   x2="283.5"
   y1="246.89999"
   x1="281.29999"
   class="st0" />
	</g><g
   style="stroke:#ff0000;stroke-opacity:1"
   id="LINE_2252_">
		<line
   style="stroke:#ff0000;stroke-opacity:1"
   id="line277"
   y2="246.89999"
   x2="285.70001"
   y1="246.60001"
   x1="283.5"
   class="st0" />
	</g><g
   style="stroke:#ff0000;stroke-opacity:1"
   id="LINE_2251_">
		<line
   style="stroke:#ff0000;stroke-opacity:1"
   id="line280"
   y2="247.8"
   x2="287.70001"
   y1="246.89999"
   x1="285.70001"
   class="st0" />
	</g><g
   style="stroke:#ff0000;stroke-opacity:1"
   id="LINE_2250_">
		<line
   style="stroke:#ff0000;stroke-opacity:1"
   id="line283"
   y2="538.59998"
   x2="708.70001"
   y1="538.59998"
   x1="694.5"
   class="st0" />
	</g><g
   style="stroke:#ff0000;stroke-opacity:1"
   id="LINE_2249_">
		<line
   style="stroke:#ff0000;stroke-opacity:1"
   id="line286"
   y2="538.59998"
   x2="694.5"
   y1="481.89999"
   x1="694.5"
   class="st0" />
	</g><g
   style="stroke:#ff0000;stroke-opacity:1"
   id="LINE_2248_">
		<line
   style="stroke:#ff0000;stroke-opacity:1"
   id="line289"
   y2="481.89999"
   x2="694.5"
   y1="481.89999"
   x1="708.70001"
   class="st0" />
	</g><g
   style="stroke:#ff0000;stroke-opacity:1"
   id="LINE_2247_">
		<line
   style="stroke:#ff0000;stroke-opacity:1"
   id="line292"
   y2="481.89999"
   x2="708.70001"
   y1="538.59998"
   x1="708.70001"
   class="st0" />
	</g><g
   style="stroke:#ff0000;stroke-opacity:1"
   id="LINE_2246_">
		<line
   style="stroke:#ff0000;stroke-opacity:1"
   id="line295"
   y2="425.20001"
   x2="694.5"
   y1="425.20001"
   x1="708.70001"
   class="st0" />
	</g><g
   style="stroke:#ff0000;stroke-opacity:1"
   id="LINE_2245_">
		<line
   style="stroke:#ff0000;stroke-opacity:1"
   id="line298"
   y2="368.5"
   x2="694.5"
   y1="425.20001"
   x1="694.5"
   class="st0" />
	</g><g
   style="stroke:#ff0000;stroke-opacity:1"
   id="LINE_2244_">
		<line
   style="stroke:#ff0000;stroke-opacity:1"
   id="line301"
   y2="368.5"
   x2="708.70001"
   y1="368.5"
   x1="694.5"
   class="st0" />
	</g><g
   style="stroke:#ff0000;stroke-opacity:1"
   id="LINE_2243_">
		<line
   style="stroke:#ff0000;stroke-opacity:1"
   id="line304"
   y2="425.20001"
   x2="708.70001"
   y1="368.5"
   x1="708.70001"
   class="st0" />
	</g><g
   style="stroke:#ff0000;stroke-opacity:1"
   id="LINE_2242_">
		<line
   style="stroke:#ff0000;stroke-opacity:1"
   id="line307"
   y2="552.79999"
   x2="354.29999"
   y1="566.90002"
   x1="354.29999"
   class="st0" />
	</g><g
   style="stroke:#ff0000;stroke-opacity:1"
   id="LINE_2241_">
		<line
   style="stroke:#ff0000;stroke-opacity:1"
   id="line310"
   y2="566.90002"
   x2="354.29999"
   y1="566.90002"
   x1="297.60001"
   class="st0" />
	</g><g
   style="stroke:#ff0000;stroke-opacity:1"
   id="LINE_2240_">
		<line
   style="stroke:#ff0000;stroke-opacity:1"
   id="line313"
   y2="566.90002"
   x2="297.60001"
   y1="552.79999"
   x1="297.60001"
   class="st0" />
	</g><g
   style="stroke:#ff0000;stroke-opacity:1"
   id="LINE_2239_">
		<line
   style="stroke:#ff0000;stroke-opacity:1"
   id="line316"
   y2="552.79999"
   x2="297.60001"
   y1="552.79999"
   x1="354.29999"
   class="st0" />
	</g><g
   style="stroke:#ff0000;stroke-opacity:1"
   id="LINE_2238_">
		<line
   style="stroke:#ff0000;stroke-opacity:1"
   id="line319"
   y2="566.90002"
   x2="411"
   y1="552.79999"
   x1="411"
   class="st0" />
	</g><g
   style="stroke:#ff0000;stroke-opacity:1"
   id="LINE_2237_">
		<line
   style="stroke:#ff0000;stroke-opacity:1"
   id="line322"
   y2="552.79999"
   x2="411"
   y1="552.79999"
   x1="467.70001"
   class="st0" />
	</g><g
   style="stroke:#ff0000;stroke-opacity:1"
   id="LINE_2236_">
		<line
   style="stroke:#ff0000;stroke-opacity:1"
   id="line325"
   y2="552.79999"
   x2="467.70001"
   y1="566.90002"
   x1="467.70001"
   class="st0" />
	</g><g
   style="stroke:#ff0000;stroke-opacity:1"
   id="LINE_2235_">
		<line
   style="stroke:#ff0000;stroke-opacity:1"
   id="line328"
   y2="566.90002"
   x2="467.70001"
   y1="566.90002"
   x1="411"
   class="st0" />
	</g><g
   style="stroke:#ff0000;stroke-opacity:1"
   id="LINE_2234_">
		<line
   style="stroke:#ff0000;stroke-opacity:1"
   id="line331"
   y2="552.79999"
   x2="524.40002"
   y1="552.79999"
   x1="581.09998"
   class="st0" />
	</g><g
   style="stroke:#ff0000;stroke-opacity:1"
   id="LINE_2233_">
		<line
   style="stroke:#ff0000;stroke-opacity:1"
   id="line334"
   y2="552.79999"
   x2="581.09998"
   y1="566.90002"
   x1="581.09998"
   class="st0" />
	</g><g
   style="stroke:#ff0000;stroke-opacity:1"
   id="LINE_2232_">
		<line
   style="stroke:#ff0000;stroke-opacity:1"
   id="line337"
   y2="566.90002"
   x2="581.09998"
   y1="566.90002"
   x1="524.40002"
   class="st0" />
	</g><g
   style="stroke:#ff0000;stroke-opacity:1"
   id="LINE_2231_">
		<line
   style="stroke:#ff0000;stroke-opacity:1"
   id="line340"
   y2="566.90002"
   x2="524.40002"
   y1="552.79999"
   x1="524.40002"
   class="st0" />
	</g><g
   style="stroke:#ff0000;stroke-opacity:1"
   id="LINE_2230_">
		<line
   style="stroke:#ff0000;stroke-opacity:1"
   id="line343"
   y2="566.90002"
   x2="637.79999"
   y1="552.79999"
   x1="637.79999"
   class="st0" />
	</g><g
   style="stroke:#ff0000;stroke-opacity:1"
   id="LINE_2229_">
		<line
   style="stroke:#ff0000;stroke-opacity:1"
   id="line346"
   y2="552.79999"
   x2="637.79999"
   y1="552.79999"
   x1="694.5"
   class="st0" />
	</g><g
   style="stroke:#ff0000;stroke-opacity:1"
   id="LINE_2228_">
		<line
   style="stroke:#ff0000;stroke-opacity:1"
   id="line349"
   y2="552.79999"
   x2="694.5"
   y1="566.90002"
   x1="694.5"
   class="st0" />
	</g><g
   style="stroke:#ff0000;stroke-opacity:1"
   id="LINE_2227_">
		<line
   style="stroke:#ff0000;stroke-opacity:1"
   id="line352"
   y2="566.90002"
   x2="694.5"
   y1="566.90002"
   x1="637.79999"
   class="st0" />
	</g><g
   style="stroke:#ff0000;stroke-opacity:1"
   id="LINE_2226_">
		<line
   style="stroke:#ff0000;stroke-opacity:1"
   id="line355"
   y2="155.89999"
   x2="694.5"
   y1="155.89999"
   x1="637.79999"
   class="st0" />
	</g><g
   style="stroke:#ff0000;stroke-opacity:1"
   id="LINE_2225_">
		<line
   style="stroke:#ff0000;stroke-opacity:1"
   id="line358"
   y2="155.89999"
   x2="637.79999"
   y1="141.7"
   x1="637.79999"
   class="st0" />
	</g><g
   style="stroke:#ff0000;stroke-opacity:1"
   id="LINE_2224_">
		<line
   style="stroke:#ff0000;stroke-opacity:1"
   id="line361"
   y2="141.7"
   x2="637.79999"
   y1="141.7"
   x1="694.5"
   class="st0" />
	</g><g
   style="stroke:#ff0000;stroke-opacity:1"
   id="LINE_2223_">
		<line
   style="stroke:#ff0000;stroke-opacity:1"
   id="line364"
   y2="141.7"
   x2="694.5"
   y1="155.89999"
   x1="694.5"
   class="st0" />
	</g><g
   style="stroke:#ff0000;stroke-opacity:1"
   id="LINE_2222_">
		<line
   style="stroke:#ff0000;stroke-opacity:1"
   id="line367"
   y2="141.7"
   x2="581.09998"
   y1="155.89999"
   x1="581.09998"
   class="st0" />
	</g><g
   style="stroke:#ff0000;stroke-opacity:1"
   id="LINE_2221_">
		<line
   style="stroke:#ff0000;stroke-opacity:1"
   id="line370"
   y2="155.89999"
   x2="581.09998"
   y1="155.89999"
   x1="524.40002"
   class="st0" />
	</g><g
   style="stroke:#ff0000;stroke-opacity:1"
   id="LINE_2220_">
		<line
   style="stroke:#ff0000;stroke-opacity:1"
   id="line373"
   y2="155.89999"
   x2="524.40002"
   y1="141.7"
   x1="524.40002"
   class="st0" />
	</g><g
   style="stroke:#ff0000;stroke-opacity:1"
   id="LINE_2219_">
		<line
   style="stroke:#ff0000;stroke-opacity:1"
   id="line376"
   y2="141.7"
   x2="524.40002"
   y1="141.7"
   x1="581.09998"
   class="st0" />
	</g><g
   style="stroke:#ff0000;stroke-opacity:1"
   id="LINE_2218_">
		<line
   style="stroke:#ff0000;stroke-opacity:1"
   id="line379"
   y2="141.7"
   x2="467.70001"
   y1="155.89999"
   x1="467.70001"
   class="st0" />
	</g><g
   style="stroke:#ff0000;stroke-opacity:1"
   id="LINE_2217_">
		<line
   style="stroke:#ff0000;stroke-opacity:1"
   id="line382"
   y2="155.89999"
   x2="467.70001"
   y1="155.89999"
   x1="411"
   class="st0" />
	</g><g
   style="stroke:#ff0000;stroke-opacity:1"
   id="LINE_2216_">
		<line
   style="stroke:#ff0000;stroke-opacity:1"
   id="line385"
   y2="155.89999"
   x2="411"
   y1="141.7"
   x1="411"
   class="st0" />
	</g><g
   style="stroke:#ff0000;stroke-opacity:1"
   id="LINE_2215_">
		<line
   style="stroke:#ff0000;stroke-opacity:1"
   id="line388"
   y2="141.7"
   x2="411"
   y1="141.7"
   x1="467.70001"
   class="st0" />
	</g><g
   style="stroke:#ff0000;stroke-opacity:1"
   id="LINE_2214_">
		<line
   style="stroke:#ff0000;stroke-opacity:1"
   id="line391"
   y2="155.89999"
   x2="354.29999"
   y1="155.89999"
   x1="297.60001"
   class="st0" />
	</g><g
   style="stroke:#ff0000;stroke-opacity:1"
   id="LINE_2213_">
		<line
   style="stroke:#ff0000;stroke-opacity:1"
   id="line394"
   y2="155.89999"
   x2="297.60001"
   y1="141.7"
   x1="297.60001"
   class="st0" />
	</g><g
   style="stroke:#ff0000;stroke-opacity:1"
   id="LINE_2212_">
		<line
   style="stroke:#ff0000;stroke-opacity:1"
   id="line397"
   y2="141.7"
   x2="297.60001"
   y1="141.7"
   x1="354.29999"
   class="st0" />
	</g><g
   style="stroke:#ff0000;stroke-opacity:1"
   id="LINE_2211_">
		<line
   style="stroke:#ff0000;stroke-opacity:1"
   id="line400"
   y2="141.7"
   x2="354.29999"
   y1="155.89999"
   x1="354.29999"
   class="st0" />
	</g><g
   style="stroke:#ff0000;stroke-opacity:1"
   id="LINE_2210_">
		<line
   style="stroke:#ff0000;stroke-opacity:1"
   id="line403"
   y2="0"
   x2="1587.4"
   y1="0"
   x1="1530.7"
   class="st0" />
	</g><g
   style="stroke:#ff0000;stroke-opacity:1"
   id="LINE_2209_">
		<line
   style="stroke:#ff0000;stroke-opacity:1"
   id="line406"
   y2="0"
   x2="1020.5"
   y1="0"
   x1="963.79999"
   class="st0" />
	</g><g
   style="stroke:#ff0000;stroke-opacity:1"
   id="LINE_2208_">
		<line
   style="stroke:#ff0000;stroke-opacity:1"
   id="line409"
   y2="28.299999"
   x2="1077.2"
   y1="0"
   x1="1077.2"
   class="st0" />
	</g><g
   style="stroke:#ff0000;stroke-opacity:1"
   id="LINE_2207_">
		<line
   style="stroke:#ff0000;stroke-opacity:1"
   id="line412"
   y2="0"
   x2="1247.2"
   y1="28.299999"
   x1="1247.2"
   class="st0" />
	</g><g
   style="stroke:#ff0000;stroke-opacity:1"
   id="LINE_2206_">
		<line
   style="stroke:#ff0000;stroke-opacity:1"
   id="line415"
   y2="0"
   x2="1360.6"
   y1="0"
   x1="1303.9"
   class="st0" />
	</g><g
   style="stroke:#ff0000;stroke-opacity:1"
   id="LINE_2205_">
		<line
   style="stroke:#ff0000;stroke-opacity:1"
   id="line418"
   y2="28.299999"
   x2="1474"
   y1="28.299999"
   x1="1530.7"
   class="st0" />
	</g><g
   style="stroke:#ff0000;stroke-opacity:1"
   id="LINE_2204_">
		<line
   style="stroke:#ff0000;stroke-opacity:1"
   id="line421"
   y2="1133.9"
   x2="1644.1"
   y1="1133.9"
   x1="1700.8"
   class="st0" />
	</g><g
   style="stroke:#ff0000;stroke-opacity:1"
   id="LINE_2203_">
		<line
   style="stroke:#ff0000;stroke-opacity:1"
   id="line424"
   y2="28.299999"
   x2="907.09998"
   y1="28.299999"
   x1="963.79999"
   class="st0" />
	</g><g
   style="stroke:#ff0000;stroke-opacity:1"
   id="LINE_2202_">
		<line
   style="stroke:#ff0000;stroke-opacity:1"
   id="line427"
   y2="1133.9"
   x2="1644.1"
   y1="1105.5"
   x1="1644.1"
   class="st0" />
	</g><g
   style="stroke:#ff0000;stroke-opacity:1"
   id="LINE_2201_">
		<line
   style="stroke:#ff0000;stroke-opacity:1"
   id="line430"
   y2="28.299999"
   x2="1530.7"
   y1="0"
   x1="1530.7"
   class="st0" />
	</g><g
   style="stroke:#ff0000;stroke-opacity:1"
   id="LINE_2200_">
		<line
   style="stroke:#ff0000;stroke-opacity:1"
   id="line433"
   y2="0"
   x2="1190.6"
   y1="28.299999"
   x1="1190.6"
   class="st0" />
	</g><g
   style="stroke:#ff0000;stroke-opacity:1"
   id="LINE_2199_">
		<line
   style="stroke:#ff0000;stroke-opacity:1"
   id="line436"
   y2="0"
   x2="907.09998"
   y1="0"
   x1="850.40002"
   class="st0" />
	</g><g
   style="stroke:#ff0000;stroke-opacity:1"
   id="LINE_2198_">
		<line
   style="stroke:#ff0000;stroke-opacity:1"
   id="line439"
   y2="0"
   x2="1020.5"
   y1="28.299999"
   x1="1020.5"
   class="st0" />
	</g><g
   style="stroke:#ff0000;stroke-opacity:1"
   id="LINE_2197_">
		<line
   style="stroke:#ff0000;stroke-opacity:1"
   id="line442"
   y2="1105.5"
   x2="1360.6"
   y1="1133.9"
   x1="1360.6"
   class="st0" />
	</g><g
   style="stroke:#ff0000;stroke-opacity:1"
   id="LINE_2196_">
		<line
   style="stroke:#ff0000;stroke-opacity:1"
   id="line445"
   y2="28.299999"
   x2="1644.1"
   y1="0"
   x1="1644.1"
   class="st0" />
	</g><g
   style="stroke:#ff0000;stroke-opacity:1"
   id="LINE_2195_">
		<line
   style="stroke:#ff0000;stroke-opacity:1"
   id="line448"
   y2="28.299999"
   x2="1360.6"
   y1="28.299999"
   x1="1417.3"
   class="st0" />
	</g><g
   style="stroke:#ff0000;stroke-opacity:1"
   id="LINE_2194_">
		<line
   style="stroke:#ff0000;stroke-opacity:1"
   id="line451"
   y2="28.299999"
   x2="1303.9"
   y1="0"
   x1="1303.9"
   class="st0" />
	</g><g
   style="stroke:#ff0000;stroke-opacity:1"
   id="LINE_2193_">
		<line
   style="stroke:#ff0000;stroke-opacity:1"
   id="line454"
   y2="0"
   x2="1360.6"
   y1="28.299999"
   x1="1360.6"
   class="st0" />
	</g><g
   style="stroke:#ff0000;stroke-opacity:1"
   id="LINE_2192_">
		<line
   style="stroke:#ff0000;stroke-opacity:1"
   id="line457"
   y2="1105.5"
   x2="1587.4"
   y1="1133.9"
   x1="1587.4"
   class="st0" />
	</g><g
   style="stroke:#ff0000;stroke-opacity:1"
   id="LINE_2191_">
		<line
   style="stroke:#ff0000;stroke-opacity:1"
   id="line460"
   y2="28.299999"
   x2="1020.5"
   y1="28.299999"
   x1="1077.2"
   class="st0" />
	</g><g
   style="stroke:#ff0000;stroke-opacity:1"
   id="LINE_2190_">
		<line
   style="stroke:#ff0000;stroke-opacity:1"
   id="line463"
   y2="28.299999"
   x2="1417.3"
   y1="0"
   x1="1417.3"
   class="st0" />
	</g><g
   style="stroke:#ff0000;stroke-opacity:1"
   id="LINE_2189_">
		<line
   style="stroke:#ff0000;stroke-opacity:1"
   id="line466"
   y2="0"
   x2="1700.8"
   y1="0"
   x1="1644.1"
   class="st0" />
	</g><g
   style="stroke:#ff0000;stroke-opacity:1"
   id="LINE_2188_">
		<line
   style="stroke:#ff0000;stroke-opacity:1"
   id="line469"
   y2="28.299999"
   x2="1133.9"
   y1="0"
   x1="1133.9"
   class="st0" />
	</g><g
   style="stroke:#ff0000;stroke-opacity:1"
   id="LINE_2187_">
		<line
   style="stroke:#ff0000;stroke-opacity:1"
   id="line472"
   y2="0"
   x2="1247.2"
   y1="0"
   x1="1190.6"
   class="st0" />
	</g><g
   style="stroke:#ff0000;stroke-opacity:1"
   id="LINE_2186_">
		<line
   style="stroke:#ff0000;stroke-opacity:1"
   id="line475"
   y2="28.299999"
   x2="1247.2"
   y1="28.299999"
   x1="1303.9"
   class="st0" />
	</g><g
   style="stroke:#ff0000;stroke-opacity:1"
   id="LINE_2185_">
		<line
   style="stroke:#ff0000;stroke-opacity:1"
   id="line478"
   y2="0"
   x2="1587.4"
   y1="28.299999"
   x1="1587.4"
   class="st0" />
	</g><g
   style="stroke:#ff0000;stroke-opacity:1"
   id="LINE_2184_">
		<line
   style="stroke:#ff0000;stroke-opacity:1"
   id="line481"
   y2="0"
   x2="1474"
   y1="28.299999"
   x1="1474"
   class="st0" />
	</g><g
   style="stroke:#ff0000;stroke-opacity:1"
   id="LINE_2183_">
		<line
   style="stroke:#ff0000;stroke-opacity:1"
   id="line484"
   y2="28.299999"
   x2="1190.6"
   y1="28.299999"
   x1="1133.9"
   class="st0" />
	</g><g
   style="stroke:#ff0000;stroke-opacity:1"
   id="LINE_2182_">
		<line
   style="stroke:#ff0000;stroke-opacity:1"
   id="line487"
   y2="28.299999"
   x2="1587.4"
   y1="28.299999"
   x1="1644.1"
   class="st0" />
	</g><g
   style="stroke:#ff0000;stroke-opacity:1"
   id="LINE_2181_">
		<line
   style="stroke:#ff0000;stroke-opacity:1"
   id="line490"
   y2="1105.5"
   x2="1644.1"
   y1="1105.5"
   x1="1587.4"
   class="st0" />
	</g><g
   style="stroke:#ff0000;stroke-opacity:1"
   id="LINE_2180_">
		<line
   style="stroke:#ff0000;stroke-opacity:1"
   id="line493"
   y2="28.299999"
   x2="963.79999"
   y1="0"
   x1="963.79999"
   class="st0" />
	</g><g
   style="stroke:#ff0000;stroke-opacity:1"
   id="LINE_2179_">
		<line
   style="stroke:#ff0000;stroke-opacity:1"
   id="line496"
   y2="0"
   x2="1133.9"
   y1="0"
   x1="1077.2"
   class="st0" />
	</g><g
   style="stroke:#ff0000;stroke-opacity:1"
   id="LINE_2178_">
		<line
   style="stroke:#ff0000;stroke-opacity:1"
   id="line499"
   y2="0"
   x2="1474"
   y1="0"
   x1="1417.3"
   class="st0" />
	</g><g
   style="stroke:#ff0000;stroke-opacity:1"
   id="LINE_2177_">
		<line
   style="stroke:#ff0000;stroke-opacity:1"
   id="line502"
   y2="1105.5"
   x2="1190.6"
   y1="1105.5"
   x1="1133.9"
   class="st0" />
	</g><g
   style="stroke:#ff0000;stroke-opacity:1"
   id="LINE_2176_">
		<line
   style="stroke:#ff0000;stroke-opacity:1"
   id="line505"
   y2="1105.5"
   x2="1417.3"
   y1="1105.5"
   x1="1360.6"
   class="st0" />
	</g><g
   style="stroke:#ff0000;stroke-opacity:1"
   id="LINE_2175_">
		<line
   style="stroke:#ff0000;stroke-opacity:1"
   id="line508"
   y2="1133.9"
   x2="1417.3"
   y1="1105.5"
   x1="1417.3"
   class="st0" />
	</g><g
   style="stroke:#ff0000;stroke-opacity:1"
   id="LINE_2174_">
		<line
   style="stroke:#ff0000;stroke-opacity:1"
   id="line511"
   y2="822"
   x2="1006.3"
   y1="878.70001"
   x1="1006.3"
   class="st0" />
	</g><g
   style="stroke:#ff0000;stroke-opacity:1"
   id="LINE_2173_">
		<line
   style="stroke:#ff0000;stroke-opacity:1"
   id="line514"
   y2="765.40002"
   x2="1006.3"
   y1="765.40002"
   x1="992.09998"
   class="st0" />
	</g><g
   style="stroke:#ff0000;stroke-opacity:1"
   id="LINE_2172_">
		<line
   style="stroke:#ff0000;stroke-opacity:1"
   id="line517"
   y2="878.70001"
   x2="992.09998"
   y1="935.40002"
   x1="992.09998"
   class="st0" />
	</g><g
   style="stroke:#ff0000;stroke-opacity:1"
   id="LINE_2171_">
		<line
   style="stroke:#ff0000;stroke-opacity:1"
   id="line520"
   y2="935.40002"
   x2="992.09998"
   y1="935.40002"
   x1="1006.3"
   class="st0" />
	</g><g
   style="stroke:#ff0000;stroke-opacity:1"
   id="LINE_2170_">
		<line
   style="stroke:#ff0000;stroke-opacity:1"
   id="line523"
   y2="1133.9"
   x2="1530.7"
   y1="1133.9"
   x1="1587.4"
   class="st0" />
	</g><g
   style="stroke:#ff0000;stroke-opacity:1"
   id="LINE_2169_">
		<line
   style="stroke:#ff0000;stroke-opacity:1"
   id="line526"
   y2="1133.9"
   x2="1303.9"
   y1="1133.9"
   x1="1360.6"
   class="st0" />
	</g><g
   style="stroke:#ff0000;stroke-opacity:1"
   id="LINE_2168_">
		<line
   style="stroke:#ff0000;stroke-opacity:1"
   id="line529"
   y2="1105.5"
   x2="963.79999"
   y1="1105.5"
   x1="907.09998"
   class="st0" />
	</g><g
   style="stroke:#ff0000;stroke-opacity:1"
   id="LINE_2167_">
		<line
   style="stroke:#ff0000;stroke-opacity:1"
   id="line532"
   y2="198.39999"
   x2="1133.9"
   y1="198.39999"
   x1="1119.7"
   class="st0" />
	</g><g
   style="stroke:#ff0000;stroke-opacity:1"
   id="LINE_2166_">
		<line
   style="stroke:#ff0000;stroke-opacity:1"
   id="line535"
   y2="1105.5"
   x2="1303.9"
   y1="1105.5"
   x1="1247.2"
   class="st0" />
	</g><g
   style="stroke:#ff0000;stroke-opacity:1"
   id="LINE_2165_">
		<line
   style="stroke:#ff0000;stroke-opacity:1"
   id="line538"
   y2="1133.9"
   x2="963.79999"
   y1="1133.9"
   x1="1020.5"
   class="st0" />
	</g><g
   style="stroke:#ff0000;stroke-opacity:1"
   id="LINE_2164_">
		<line
   style="stroke:#ff0000;stroke-opacity:1"
   id="line541"
   y2="1105.5"
   x2="1530.7"
   y1="1105.5"
   x1="1474"
   class="st0" />
	</g><g
   style="stroke:#ff0000;stroke-opacity:1"
   id="LINE_2163_">
		<line
   style="stroke:#ff0000;stroke-opacity:1"
   id="line544"
   y2="992.09998"
   x2="1091.3"
   y1="1006.3"
   x1="1091.3"
   class="st0" />
	</g><g
   style="stroke:#ff0000;stroke-opacity:1"
   id="LINE_2162_">
		<line
   style="stroke:#ff0000;stroke-opacity:1"
   id="line547"
   y2="212.60001"
   x2="1006.3"
   y1="269.29999"
   x1="1006.3"
   class="st0" />
	</g><g
   style="stroke:#ff0000;stroke-opacity:1"
   id="LINE_2161_">
		<line
   style="stroke:#ff0000;stroke-opacity:1"
   id="line550"
   y2="1133.9"
   x2="1190.6"
   y1="1133.9"
   x1="1247.2"
   class="st0" />
	</g><g
   style="stroke:#ff0000;stroke-opacity:1"
   id="LINE_2160_">
		<line
   style="stroke:#ff0000;stroke-opacity:1"
   id="line553"
   y2="1133.9"
   x2="1077.2"
   y1="1133.9"
   x1="1133.9"
   class="st0" />
	</g><g
   style="stroke:#ff0000;stroke-opacity:1"
   id="LINE_2159_">
		<line
   style="stroke:#ff0000;stroke-opacity:1"
   id="line556"
   y2="1133.9"
   x2="1190.6"
   y1="1105.5"
   x1="1190.6"
   class="st0" />
	</g><g
   style="stroke:#ff0000;stroke-opacity:1"
   id="LINE_2158_">
		<line
   style="stroke:#ff0000;stroke-opacity:1"
   id="line559"
   y2="1006.3"
   x2="1091.3"
   y1="1006.3"
   x1="1034.6"
   class="st0" />
	</g><g
   style="stroke:#ff0000;stroke-opacity:1"
   id="LINE_2157_">
		<line
   style="stroke:#ff0000;stroke-opacity:1"
   id="line562"
   y2="1006.3"
   x2="1034.6"
   y1="992.09998"
   x1="1034.6"
   class="st0" />
	</g><g
   style="stroke:#ff0000;stroke-opacity:1"
   id="LINE_2156_">
		<line
   style="stroke:#ff0000;stroke-opacity:1"
   id="line565"
   y2="1105.5"
   x2="1247.2"
   y1="1133.9"
   x1="1247.2"
   class="st0" />
	</g><g
   style="stroke:#ff0000;stroke-opacity:1"
   id="LINE_2155_">
		<line
   style="stroke:#ff0000;stroke-opacity:1"
   id="line568"
   y2="1133.9"
   x2="850.40002"
   y1="1133.9"
   x1="907.09998"
   class="st0" />
	</g><g
   style="stroke:#ff0000;stroke-opacity:1"
   id="LINE_2154_">
		<line
   style="stroke:#ff0000;stroke-opacity:1"
   id="line571"
   y2="935.40002"
   x2="1119.7"
   y1="935.40002"
   x1="1133.9"
   class="st0" />
	</g><g
   style="stroke:#ff0000;stroke-opacity:1"
   id="LINE_2153_">
		<line
   style="stroke:#ff0000;stroke-opacity:1"
   id="line574"
   y2="269.29999"
   x2="1006.3"
   y1="269.29999"
   x1="992.09998"
   class="st0" />
	</g><g
   style="stroke:#ff0000;stroke-opacity:1"
   id="LINE_2152_">
		<line
   style="stroke:#ff0000;stroke-opacity:1"
   id="line577"
   y2="878.70001"
   x2="1133.9"
   y1="878.70001"
   x1="1119.7"
   class="st0" />
	</g><g
   style="stroke:#ff0000;stroke-opacity:1"
   id="LINE_2151_">
		<line
   style="stroke:#ff0000;stroke-opacity:1"
   id="line580"
   y2="1105.5"
   x2="907.09998"
   y1="1133.9"
   x1="907.09998"
   class="st0" />
	</g><g
   style="stroke:#ff0000;stroke-opacity:1"
   id="LINE_2150_">
		<line
   style="stroke:#ff0000;stroke-opacity:1"
   id="line583"
   y2="382.70001"
   x2="992.09998"
   y1="439.39999"
   x1="992.09998"
   class="st0" />
	</g><g
   style="stroke:#ff0000;stroke-opacity:1"
   id="LINE_2149_">
		<line
   style="stroke:#ff0000;stroke-opacity:1"
   id="line586"
   y2="935.40002"
   x2="1133.9"
   y1="878.70001"
   x1="1133.9"
   class="st0" />
	</g><g
   style="stroke:#ff0000;stroke-opacity:1"
   id="LINE_2148_">
		<line
   style="stroke:#ff0000;stroke-opacity:1"
   id="line589"
   y2="1105.5"
   x2="1133.9"
   y1="1133.9"
   x1="1133.9"
   class="st0" />
	</g><g
   style="stroke:#ff0000;stroke-opacity:1"
   id="LINE_2147_">
		<line
   style="stroke:#ff0000;stroke-opacity:1"
   id="line592"
   y2="566.90002"
   x2="1006.3"
   y1="566.90002"
   x1="992.09998"
   class="st0" />
	</g><g
   style="stroke:#ff0000;stroke-opacity:1"
   id="LINE_2146_">
		<line
   style="stroke:#ff0000;stroke-opacity:1"
   id="line595"
   y2="1133.9"
   x2="1303.9"
   y1="1105.5"
   x1="1303.9"
   class="st0" />
	</g><g
   style="stroke:#ff0000;stroke-opacity:1"
   id="LINE_2145_">
		<line
   style="stroke:#ff0000;stroke-opacity:1"
   id="line598"
   y2="1105.5"
   x2="1020.5"
   y1="1133.9"
   x1="1020.5"
   class="st0" />
	</g><g
   style="stroke:#ff0000;stroke-opacity:1"
   id="LINE_2144_">
		<line
   style="stroke:#ff0000;stroke-opacity:1"
   id="line601"
   y2="212.60001"
   x2="1006.3"
   y1="212.60001"
   x1="992.09998"
   class="st0" />
	</g><g
   style="stroke:#ff0000;stroke-opacity:1"
   id="LINE_2143_">
		<line
   style="stroke:#ff0000;stroke-opacity:1"
   id="line604"
   y2="1133.9"
   x2="1417.3"
   y1="1133.9"
   x1="1474"
   class="st0" />
	</g><g
   style="stroke:#ff0000;stroke-opacity:1"
   id="LINE_2142_">
		<line
   style="stroke:#ff0000;stroke-opacity:1"
   id="line607"
   y2="1105.5"
   x2="1077.2"
   y1="1105.5"
   x1="1020.5"
   class="st0" />
	</g><g
   style="stroke:#ff0000;stroke-opacity:1"
   id="LINE_2141_">
		<line
   style="stroke:#ff0000;stroke-opacity:1"
   id="line610"
   y2="1105.5"
   x2="1474"
   y1="1133.9"
   x1="1474"
   class="st0" />
	</g><g
   style="stroke:#ff0000;stroke-opacity:1"
   id="LINE_2140_">
		<line
   style="stroke:#ff0000;stroke-opacity:1"
   id="line613"
   y2="255.10001"
   x2="1133.9"
   y1="198.39999"
   x1="1133.9"
   class="st0" />
	</g><g
   style="stroke:#ff0000;stroke-opacity:1"
   id="LINE_2139_">
		<line
   style="stroke:#ff0000;stroke-opacity:1"
   id="line616"
   y2="822"
   x2="992.09998"
   y1="822"
   x1="1006.3"
   class="st0" />
	</g><g
   style="stroke:#ff0000;stroke-opacity:1"
   id="LINE_2138_">
		<line
   style="stroke:#ff0000;stroke-opacity:1"
   id="line619"
   y2="878.70001"
   x2="1006.3"
   y1="878.70001"
   x1="992.09998"
   class="st0" />
	</g><g
   style="stroke:#ff0000;stroke-opacity:1"
   id="LINE_2137_">
		<line
   style="stroke:#ff0000;stroke-opacity:1"
   id="line622"
   y2="1133.9"
   x2="963.79999"
   y1="1105.5"
   x1="963.79999"
   class="st0" />
	</g><g
   style="stroke:#ff0000;stroke-opacity:1"
   id="LINE_2136_">
		<line
   style="stroke:#ff0000;stroke-opacity:1"
   id="line625"
   y2="255.10001"
   x2="1119.7"
   y1="255.10001"
   x1="1133.9"
   class="st0" />
	</g><g
   style="stroke:#ff0000;stroke-opacity:1"
   id="LINE_2135_">
		<line
   style="stroke:#ff0000;stroke-opacity:1"
   id="line628"
   y2="1133.9"
   x2="1077.2"
   y1="1105.5"
   x1="1077.2"
   class="st0" />
	</g><g
   style="stroke:#ff0000;stroke-opacity:1"
   id="LINE_2134_">
		<line
   style="stroke:#ff0000;stroke-opacity:1"
   id="line631"
   y2="1133.9"
   x2="1530.7"
   y1="1105.5"
   x1="1530.7"
   class="st0" />
	</g><g
   style="stroke:#ff0000;stroke-opacity:1"
   id="LINE_2133_">
		<line
   style="stroke:#ff0000;stroke-opacity:1"
   id="line634"
   y2="1133.9"
   x2="1700.8"
   y1="0"
   x1="1700.8"
   class="st0" />
	</g><g
   style="stroke:#ff0000;stroke-opacity:1"
   id="LINE_2132_">
		<line
   style="stroke:#ff0000;stroke-opacity:1"
   id="line637"
   y2="992.09998"
   x2="1119.7"
   y1="935.40002"
   x1="1119.7"
   class="st0" />
	</g><g
   style="stroke:#ff0000;stroke-opacity:1"
   id="LINE_2131_">
		<line
   style="stroke:#ff0000;stroke-opacity:1"
   id="line640"
   y2="0"
   x2="907.09998"
   y1="28.299999"
   x1="907.09998"
   class="st0" />
	</g><g
   style="stroke:#ff0000;stroke-opacity:1"
   id="LINE_2130_">
		<line
   style="stroke:#ff0000;stroke-opacity:1"
   id="line643"
   y2="311.79999"
   x2="1133.9"
   y1="311.79999"
   x1="1119.7"
   class="st0" />
	</g><g
   style="stroke:#ff0000;stroke-opacity:1"
   id="LINE_2129_">
		<line
   style="stroke:#ff0000;stroke-opacity:1"
   id="line646"
   y2="368.5"
   x2="1133.9"
   y1="311.79999"
   x1="1133.9"
   class="st0" />
	</g><g
   style="stroke:#ff0000;stroke-opacity:1"
   id="LINE_2128_">
		<line
   style="stroke:#ff0000;stroke-opacity:1"
   id="line649"
   y2="765.40002"
   x2="1119.7"
   y1="708.70001"
   x1="1119.7"
   class="st0" />
	</g><g
   style="stroke:#ff0000;stroke-opacity:1"
   id="LINE_2127_">
		<line
   style="stroke:#ff0000;stroke-opacity:1"
   id="line652"
   y2="992.09998"
   x2="1006.3"
   y1="992.09998"
   x1="1034.6"
   class="st0" />
	</g><g
   style="stroke:#ff0000;stroke-opacity:1"
   id="LINE_2126_">
		<line
   style="stroke:#ff0000;stroke-opacity:1"
   id="line655"
   y2="439.39999"
   x2="1006.3"
   y1="439.39999"
   x1="992.09998"
   class="st0" />
	</g><g
   style="stroke:#ff0000;stroke-opacity:1"
   id="LINE_2125_">
		<line
   style="stroke:#ff0000;stroke-opacity:1"
   id="line658"
   y2="326"
   x2="1006.3"
   y1="326"
   x1="992.09998"
   class="st0" />
	</g><g
   style="stroke:#ff0000;stroke-opacity:1"
   id="LINE_2124_">
		<line
   style="stroke:#ff0000;stroke-opacity:1"
   id="line661"
   y2="382.70001"
   x2="1006.3"
   y1="382.70001"
   x1="992.09998"
   class="st0" />
	</g><g
   style="stroke:#ff0000;stroke-opacity:1"
   id="LINE_2123_">
		<line
   style="stroke:#ff0000;stroke-opacity:1"
   id="line664"
   y2="652"
   x2="1119.7"
   y1="652"
   x1="1133.9"
   class="st0" />
	</g><g
   style="stroke:#ff0000;stroke-opacity:1"
   id="LINE_2122_">
		<line
   style="stroke:#ff0000;stroke-opacity:1"
   id="line667"
   y2="552.79999"
   x2="1119.7"
   y1="552.79999"
   x1="1133.9"
   class="st0" />
	</g><g
   style="stroke:#ff0000;stroke-opacity:1"
   id="LINE_2121_">
		<line
   style="stroke:#ff0000;stroke-opacity:1"
   id="line670"
   y2="439.39999"
   x2="1006.3"
   y1="496.10001"
   x1="1006.3"
   class="st0" />
	</g><g
   style="stroke:#ff0000;stroke-opacity:1"
   id="LINE_2120_">
		<line
   style="stroke:#ff0000;stroke-opacity:1"
   id="line673"
   y2="155.89999"
   x2="1119.7"
   y1="155.89999"
   x1="1133.9"
   class="st0" />
	</g><g
   style="stroke:#ff0000;stroke-opacity:1"
   id="LINE_2119_">
		<line
   style="stroke:#ff0000;stroke-opacity:1"
   id="line676"
   y2="878.70001"
   x2="1119.7"
   y1="822"
   x1="1119.7"
   class="st0" />
	</g><g
   style="stroke:#ff0000;stroke-opacity:1"
   id="LINE_2118_">
		<line
   style="stroke:#ff0000;stroke-opacity:1"
   id="line679"
   y2="269.29999"
   x2="992.09998"
   y1="326"
   x1="992.09998"
   class="st0" />
	</g><g
   style="stroke:#ff0000;stroke-opacity:1"
   id="LINE_2117_">
		<line
   style="stroke:#ff0000;stroke-opacity:1"
   id="line682"
   y2="765.40002"
   x2="1133.9"
   y1="765.40002"
   x1="1119.7"
   class="st0" />
	</g><g
   style="stroke:#ff0000;stroke-opacity:1"
   id="LINE_2116_">
		<line
   style="stroke:#ff0000;stroke-opacity:1"
   id="line685"
   y2="708.70001"
   x2="992.09998"
   y1="708.70001"
   x1="1006.3"
   class="st0" />
	</g><g
   style="stroke:#ff0000;stroke-opacity:1"
   id="LINE_2115_">
		<line
   style="stroke:#ff0000;stroke-opacity:1"
   id="line688"
   y2="708.70001"
   x2="1133.9"
   y1="708.70001"
   x1="1119.7"
   class="st0" />
	</g><g
   style="stroke:#ff0000;stroke-opacity:1"
   id="LINE_2114_">
		<line
   style="stroke:#ff0000;stroke-opacity:1"
   id="line691"
   y2="765.40002"
   x2="992.09998"
   y1="822"
   x1="992.09998"
   class="st0" />
	</g><g
   style="stroke:#ff0000;stroke-opacity:1"
   id="LINE_2113_">
		<line
   style="stroke:#ff0000;stroke-opacity:1"
   id="line694"
   y2="198.39999"
   x2="1119.7"
   y1="155.89999"
   x1="1119.7"
   class="st0" />
	</g><g
   style="stroke:#ff0000;stroke-opacity:1"
   id="LINE_2112_">
		<line
   style="stroke:#ff0000;stroke-opacity:1"
   id="line697"
   y2="652"
   x2="992.09998"
   y1="708.70001"
   x1="992.09998"
   class="st0" />
	</g><g
   style="stroke:#ff0000;stroke-opacity:1"
   id="LINE_2111_">
		<line
   style="stroke:#ff0000;stroke-opacity:1"
   id="line700"
   y2="368.5"
   x2="1119.7"
   y1="368.5"
   x1="1133.9"
   class="st0" />
	</g><g
   style="stroke:#ff0000;stroke-opacity:1"
   id="LINE_2110_">
		<line
   style="stroke:#ff0000;stroke-opacity:1"
   id="line703"
   y2="822"
   x2="1133.9"
   y1="765.40002"
   x1="1133.9"
   class="st0" />
	</g><g
   style="stroke:#ff0000;stroke-opacity:1"
   id="LINE_2109_">
		<line
   style="stroke:#ff0000;stroke-opacity:1"
   id="line706"
   y2="652"
   x2="1133.9"
   y1="708.70001"
   x1="1133.9"
   class="st0" />
	</g><g
   style="stroke:#ff0000;stroke-opacity:1"
   id="LINE_2108_">
		<line
   style="stroke:#ff0000;stroke-opacity:1"
   id="line709"
   y2="992.09998"
   x2="1091.3"
   y1="992.09998"
   x1="1119.7"
   class="st0" />
	</g><g
   style="stroke:#ff0000;stroke-opacity:1"
   id="LINE_2107_">
		<line
   style="stroke:#ff0000;stroke-opacity:1"
   id="line712"
   y2="552.79999"
   x2="1119.7"
   y1="481.89999"
   x1="1119.7"
   class="st0" />
	</g><g
   style="stroke:#ff0000;stroke-opacity:1"
   id="LINE_2106_">
		<line
   style="stroke:#ff0000;stroke-opacity:1"
   id="line715"
   y2="425.20001"
   x2="1133.9"
   y1="425.20001"
   x1="1119.7"
   class="st0" />
	</g><g
   style="stroke:#ff0000;stroke-opacity:1"
   id="LINE_2105_">
		<line
   style="stroke:#ff0000;stroke-opacity:1"
   id="line718"
   y2="326"
   x2="1006.3"
   y1="382.70001"
   x1="1006.3"
   class="st0" />
	</g><g
   style="stroke:#ff0000;stroke-opacity:1"
   id="LINE_2104_">
		<line
   style="stroke:#ff0000;stroke-opacity:1"
   id="line721"
   y2="552.79999"
   x2="1133.9"
   y1="566.90002"
   x1="1133.9"
   class="st0" />
	</g><g
   style="stroke:#ff0000;stroke-opacity:1"
   id="LINE_2103_">
		<line
   style="stroke:#ff0000;stroke-opacity:1"
   id="line724"
   y2="311.79999"
   x2="1119.7"
   y1="255.10001"
   x1="1119.7"
   class="st0" />
	</g><g
   style="stroke:#ff0000;stroke-opacity:1"
   id="LINE_2102_">
		<line
   style="stroke:#ff0000;stroke-opacity:1"
   id="line727"
   y2="425.20001"
   x2="1119.7"
   y1="368.5"
   x1="1119.7"
   class="st0" />
	</g><g
   style="stroke:#ff0000;stroke-opacity:1"
   id="LINE_2101_">
		<line
   style="stroke:#ff0000;stroke-opacity:1"
   id="line730"
   y2="481.89999"
   x2="1133.9"
   y1="425.20001"
   x1="1133.9"
   class="st0" />
	</g><g
   style="stroke:#ff0000;stroke-opacity:1"
   id="LINE_2100_">
		<line
   style="stroke:#ff0000;stroke-opacity:1"
   id="line733"
   y2="481.89999"
   x2="1119.7"
   y1="481.89999"
   x1="1133.9"
   class="st0" />
	</g><g
   style="stroke:#ff0000;stroke-opacity:1"
   id="LINE_2099_">
		<line
   style="stroke:#ff0000;stroke-opacity:1"
   id="line736"
   y2="566.90002"
   x2="1133.9"
   y1="566.90002"
   x1="1119.7"
   class="st0" />
	</g><g
   style="stroke:#ff0000;stroke-opacity:1"
   id="LINE_2098_">
		<line
   style="stroke:#ff0000;stroke-opacity:1"
   id="line739"
   y2="652"
   x2="1119.7"
   y1="566.90002"
   x1="1119.7"
   class="st0" />
	</g><g
   style="stroke:#ff0000;stroke-opacity:1"
   id="LINE_2097_">
		<line
   style="stroke:#ff0000;stroke-opacity:1"
   id="line742"
   y2="822"
   x2="1119.7"
   y1="822"
   x1="1133.9"
   class="st0" />
	</g><g
   style="stroke:#ff0000;stroke-opacity:1"
   id="LINE_2096_">
		<line
   style="stroke:#ff0000;stroke-opacity:1"
   id="line745"
   y2="652"
   x2="1006.3"
   y1="652"
   x1="992.09998"
   class="st0" />
	</g><g
   style="stroke:#ff0000;stroke-opacity:1"
   id="LINE_2095_">
		<line
   style="stroke:#ff0000;stroke-opacity:1"
   id="line748"
   y2="496.10001"
   x2="1006.3"
   y1="496.10001"
   x1="992.09998"
   class="st0" />
	</g><g
   style="stroke:#ff0000;stroke-opacity:1"
   id="LINE_2094_">
		<line
   style="stroke:#ff0000;stroke-opacity:1"
   id="line751"
   y2="155.89999"
   x2="1133.9"
   y1="141.7"
   x1="1133.9"
   class="st0" />
	</g><g
   style="stroke:#ff0000;stroke-opacity:1"
   id="LINE_2080_">
		<line
   style="stroke:#ff0000;stroke-opacity:1"
   id="line784"
   y2="618"
   x2="1006.3"
   y1="632.09998"
   x1="1006.3"
   class="st0" />
	</g><g
   style="stroke:#ff0000;stroke-opacity:1"
   id="LINE_2077_">
		<line
   style="stroke:#ff0000;stroke-opacity:1"
   id="line790"
   y2="632.09998"
   x2="155.89999"
   y1="725.70001"
   x1="155.89999"
   class="st0" />
	</g><g
   style="stroke:#ff0000;stroke-opacity:1"
   id="LINE_2075_">
		<line
   style="stroke:#ff0000;stroke-opacity:1"
   id="line793"
   y2="632.09998"
   x2="226.8"
   y1="725.70001"
   x1="226.8"
   class="st0" />
	</g><g
   style="stroke:#ff0000;stroke-opacity:1"
   id="LINE_2073_">
		<line
   style="stroke:#ff0000;stroke-opacity:1"
   id="line796"
   y2="912.79999"
   x2="226.8"
   y1="963.79999"
   x1="226.8"
   class="st0" />
	</g><g
   style="stroke:#ff0000;stroke-opacity:1"
   id="LINE_2071_">
		<line
   style="stroke:#ff0000;stroke-opacity:1"
   id="line799"
   y2="912.79999"
   x2="155.89999"
   y1="963.79999"
   x1="155.89999"
   class="st0" />
	</g><g
   style="stroke:#ff0000;stroke-opacity:1"
   id="LINE_2070_">
		<line
   style="stroke:#ff0000;stroke-opacity:1"
   id="line802"
   y2="992.09998"
   x2="184.3"
   y1="963.79999"
   x1="155.89999"
   class="st0" />
	</g><g
   style="stroke:#ff0000;stroke-opacity:1"
   id="LINE_2069_">
		<line
   style="stroke:#ff0000;stroke-opacity:1"
   id="line805"
   y2="992.09998"
   x2="184.3"
   y1="992.09998"
   x1="198.39999"
   class="st0" />
	</g><g
   style="stroke:#ff0000;stroke-opacity:1"
   id="LINE_2068_">
		<line
   style="stroke:#ff0000;stroke-opacity:1"
   id="line808"
   y2="963.79999"
   x2="226.8"
   y1="992.09998"
   x1="198.39999"
   class="st0" />
	</g><g
   style="stroke:#ff0000;stroke-opacity:1"
   id="LINE_2067_">
		<line
   style="stroke:#ff0000;stroke-opacity:1"
   id="line811"
   y2="725.70001"
   x2="155.89999"
   y1="819.20001"
   x1="155.89999"
   class="st0" />
	</g><g
   style="stroke:#ff0000;stroke-opacity:1"
   id="LINE_2066_">
		<line
   style="stroke:#ff0000;stroke-opacity:1"
   id="line814"
   y2="725.70001"
   x2="226.8"
   y1="819.20001"
   x1="226.8"
   class="st0" />
	</g><g
   style="stroke:#ff0000;stroke-opacity:1"
   id="LINE_2065_">
		<line
   style="stroke:#ff0000;stroke-opacity:1"
   id="line817"
   y2="819.20001"
   x2="155.89999"
   y1="912.79999"
   x1="155.89999"
   class="st0" />
	</g><g
   style="stroke:#ff0000;stroke-opacity:1"
   id="LINE_2064_">
		<line
   style="stroke:#ff0000;stroke-opacity:1"
   id="line820"
   y2="618"
   x2="226.8"
   y1="589.59998"
   x1="198.39999"
   class="st0" />
	</g><g
   style="stroke:#ff0000;stroke-opacity:1"
   id="LINE_2063_">
		<line
   style="stroke:#ff0000;stroke-opacity:1"
   id="line823"
   y2="819.20001"
   x2="226.8"
   y1="912.79999"
   x1="226.8"
   class="st0" />
	</g><g
   style="stroke:#ff0000;stroke-opacity:1"
   id="LINE_2062_">
		<line
   style="stroke:#ff0000;stroke-opacity:1"
   id="line826"
   y2="589.59998"
   x2="184.3"
   y1="589.59998"
   x1="198.39999"
   class="st0" />
	</g><g
   style="stroke:#ff0000;stroke-opacity:1"
   id="LINE_2061_">
		<line
   style="stroke:#ff0000;stroke-opacity:1"
   id="line829"
   y2="589.59998"
   x2="184.3"
   y1="618"
   x1="155.89999"
   class="st0" />
	</g><g
   style="stroke:#ff0000;stroke-opacity:1"
   id="LINE_2060_">
		<line
   style="stroke:#ff0000;stroke-opacity:1"
   id="line832"
   y2="618"
   x2="155.89999"
   y1="632.09998"
   x1="155.89999"
   class="st0" />
	</g><g
   style="stroke:#ff0000;stroke-opacity:1"
   id="LINE_2059_">
		<line
   style="stroke:#ff0000;stroke-opacity:1"
   id="line835"
   y2="618"
   x2="226.8"
   y1="632.09998"
   x1="226.8"
   class="st0" />
	</g><g
   style="stroke:#ff0000;stroke-opacity:1"
   id="LINE_2057_">
		<line
   style="stroke:#ff0000;stroke-opacity:1"
   id="line838"
   y2="229.60001"
   x2="155.89999"
   y1="323.10001"
   x1="155.89999"
   class="st0" />
	</g><g
   style="stroke:#ff0000;stroke-opacity:1"
   id="LINE_2055_">
		<line
   style="stroke:#ff0000;stroke-opacity:1"
   id="line841"
   y2="229.60001"
   x2="226.8"
   y1="323.10001"
   x1="226.8"
   class="st0" />
	</g><g
   style="stroke:#ff0000;stroke-opacity:1"
   id="LINE_2053_">
		<line
   style="stroke:#ff0000;stroke-opacity:1"
   id="line844"
   y2="510.20001"
   x2="226.8"
   y1="561.29999"
   x1="226.8"
   class="st0" />
	</g><g
   style="stroke:#ff0000;stroke-opacity:1"
   id="LINE_2051_">
		<line
   style="stroke:#ff0000;stroke-opacity:1"
   id="line847"
   y2="510.20001"
   x2="155.89999"
   y1="561.29999"
   x1="155.89999"
   class="st0" />
	</g><g
   style="stroke:#ff0000;stroke-opacity:1"
   id="LINE_2050_">
		<line
   style="stroke:#ff0000;stroke-opacity:1"
   id="line850"
   y2="589.59998"
   x2="184.3"
   y1="561.29999"
   x1="155.89999"
   class="st0" />
	</g><g
   style="stroke:#ff0000;stroke-opacity:1"
   id="LINE_2049_">
		<line
   style="stroke:#ff0000;stroke-opacity:1"
   id="line853"
   y2="561.29999"
   x2="226.8"
   y1="589.59998"
   x1="198.39999"
   class="st0" />
	</g><g
   style="stroke:#ff0000;stroke-opacity:1"
   id="LINE_2048_">
		<line
   style="stroke:#ff0000;stroke-opacity:1"
   id="line856"
   y2="323.10001"
   x2="155.89999"
   y1="416.70001"
   x1="155.89999"
   class="st0" />
	</g><g
   style="stroke:#ff0000;stroke-opacity:1"
   id="LINE_2047_">
		<line
   style="stroke:#ff0000;stroke-opacity:1"
   id="line859"
   y2="323.10001"
   x2="226.8"
   y1="416.70001"
   x1="226.8"
   class="st0" />
	</g><g
   style="stroke:#ff0000;stroke-opacity:1"
   id="LINE_2046_">
		<line
   style="stroke:#ff0000;stroke-opacity:1"
   id="line862"
   y2="416.70001"
   x2="155.89999"
   y1="510.20001"
   x1="155.89999"
   class="st0" />
	</g><g
   style="stroke:#ff0000;stroke-opacity:1"
   id="LINE_2045_">
		<line
   style="stroke:#ff0000;stroke-opacity:1"
   id="line865"
   y2="215.39999"
   x2="226.8"
   y1="187.10001"
   x1="198.39999"
   class="st0" />
	</g><g
   style="stroke:#ff0000;stroke-opacity:1"
   id="LINE_2044_">
		<line
   style="stroke:#ff0000;stroke-opacity:1"
   id="line868"
   y2="416.70001"
   x2="226.8"
   y1="510.20001"
   x1="226.8"
   class="st0" />
	</g><g
   style="stroke:#ff0000;stroke-opacity:1"
   id="LINE_2043_">
		<line
   style="stroke:#ff0000;stroke-opacity:1"
   id="line871"
   y2="187.10001"
   x2="184.3"
   y1="187.10001"
   x1="198.39999"
   class="st0" />
	</g><g
   style="stroke:#ff0000;stroke-opacity:1"
   id="LINE_2042_">
		<line
   style="stroke:#ff0000;stroke-opacity:1"
   id="line874"
   y2="187.10001"
   x2="184.3"
   y1="215.39999"
   x1="155.89999"
   class="st0" />
	</g><g
   style="stroke:#ff0000;stroke-opacity:1"
   id="LINE_2041_">
		<line
   style="stroke:#ff0000;stroke-opacity:1"
   id="line877"
   y2="215.39999"
   x2="155.89999"
   y1="229.60001"
   x1="155.89999"
   class="st0" />
	</g><g
   style="stroke:#ff0000;stroke-opacity:1"
   id="LINE_2040_">
		<line
   style="stroke:#ff0000;stroke-opacity:1"
   id="line880"
   y2="215.39999"
   x2="226.8"
   y1="229.60001"
   x1="226.8"
   class="st0" />
	</g><g
   style="stroke:#ff0000;stroke-opacity:1"
   id="LINE_2038_">
		<line
   style="stroke:#ff0000;stroke-opacity:1"
   id="line883"
   y2="992.09998"
   x2="184.3"
   y1="992.09998"
   x1="155.89999"
   class="st0" />
	</g><g
   style="stroke:#ff0000;stroke-opacity:1"
   id="LINE_2037_">
		<line
   style="stroke:#ff0000;stroke-opacity:1"
   id="line886"
   y2="725.70001"
   x2="1006.3"
   y1="765.40002"
   x1="1006.3"
   class="st0" />
	</g><g
   style="stroke:#ff0000;stroke-opacity:1"
   id="LINE_2036_">
		<line
   style="stroke:#ff0000;stroke-opacity:1"
   id="line889"
   y2="708.70001"
   x2="1006.3"
   y1="725.70001"
   x1="1006.3"
   class="st0" />
	</g><g
   style="stroke:#ff0000;stroke-opacity:1"
   id="LINE_2035_">
		<line
   style="stroke:#ff0000;stroke-opacity:1"
   id="line892"
   y2="963.79999"
   x2="1006.3"
   y1="992.09998"
   x1="1006.3"
   class="st0" />
	</g><g
   style="stroke:#ff0000;stroke-opacity:1"
   id="LINE_2034_">
		<line
   style="stroke:#ff0000;stroke-opacity:1"
   id="line895"
   y2="935.40002"
   x2="1006.3"
   y1="963.79999"
   x1="1006.3"
   class="st0" />
	</g><g
   style="stroke:#ff0000;stroke-opacity:1"
   id="LINE_2033_">
		<line
   style="stroke:#ff0000;stroke-opacity:1"
   id="line898"
   y2="632.09998"
   x2="1006.3"
   y1="652"
   x1="1006.3"
   class="st0" />
	</g><g
   style="stroke:#ff0000;stroke-opacity:1"
   id="LINE_2032_">
		<line
   style="stroke:#ff0000;stroke-opacity:1"
   id="line901"
   y2="912.79999"
   x2="1006.3"
   y1="935.40002"
   x1="1006.3"
   class="st0" />
	</g><g
   style="stroke:#ff0000;stroke-opacity:1"
   id="LINE_2031_">
		<line
   style="stroke:#ff0000;stroke-opacity:1"
   id="line904"
   y2="765.40002"
   x2="1006.3"
   y1="819.20001"
   x1="1006.3"
   class="st0" />
	</g><g
   style="stroke:#ff0000;stroke-opacity:1"
   id="LINE_2030_">
		<line
   style="stroke:#ff0000;stroke-opacity:1"
   id="line907"
   y2="878.70001"
   x2="1006.3"
   y1="912.79999"
   x1="1006.3"
   class="st0" />
	</g><g
   style="stroke:#ff0000;stroke-opacity:1"
   id="LINE_2029_">
		<line
   style="stroke:#ff0000;stroke-opacity:1"
   id="line910"
   y2="992.09998"
   x2="269.29999"
   y1="992.09998"
   x1="198.39999"
   class="st0" />
	</g><g
   style="stroke:#ff0000;stroke-opacity:1"
   id="LINE_2028_">
		<line
   style="stroke:#ff0000;stroke-opacity:1"
   id="line913"
   y2="566.90002"
   x2="1006.3"
   y1="618"
   x1="1006.3"
   class="st0" />
	</g><g
   style="stroke:#ff0000;stroke-opacity:1"
   id="LINE_2027_">
		<line
   style="stroke:#ff0000;stroke-opacity:1"
   id="line916"
   y2="652"
   x2="1006.3"
   y1="708.70001"
   x1="1006.3"
   class="st0" />
	</g><g
   style="stroke:#ff0000;stroke-opacity:1"
   id="LINE_2026_">
		<line
   style="stroke:#ff0000;stroke-opacity:1"
   id="line919"
   y2="819.20001"
   x2="1006.3"
   y1="822"
   x1="1006.3"
   class="st0" />
	</g><g
   style="stroke:#ff0000;stroke-opacity:1"
   id="LINE_2025_">
		<line
   style="stroke:#ff0000;stroke-opacity:1"
   id="line922"
   y2="618"
   x2="155.89999"
   y1="566.90002"
   x1="155.89999"
   class="st0" />
	</g><g
   style="stroke:#ff0000;stroke-opacity:1"
   id="LINE_2024_">
		<line
   style="stroke:#ff0000;stroke-opacity:1"
   id="line925"
   y2="992.09998"
   x2="155.89999"
   y1="963.79999"
   x1="155.89999"
   class="st0" />
	</g><g
   style="stroke:#ff0000;stroke-opacity:1"
   id="LINE_2023_">
		<line
   style="stroke:#ff0000;stroke-opacity:1"
   id="line928"
   y2="141.7"
   x2="141.7"
   y1="566.90002"
   x1="141.7"
   class="st0" />
	</g><g
   style="stroke:#ff0000;stroke-opacity:1"
   id="LINE_2022_">
		<line
   style="stroke:#ff0000;stroke-opacity:1"
   id="line931"
   y2="212.60001"
   x2="992.09998"
   y1="141.7"
   x1="992.09998"
   class="st0" />
	</g><g
   style="stroke:#ff0000;stroke-opacity:1"
   id="LINE_2021_">
		<line
   style="stroke:#ff0000;stroke-opacity:1"
   id="line934"
   y2="141.7"
   x2="992.09998"
   y1="141.7"
   x1="1133.9"
   class="st0" />
	</g><g
   style="stroke:#ff0000;stroke-opacity:1"
   id="LINE_2020_">
		<line
   style="stroke:#ff0000;stroke-opacity:1"
   id="line937"
   y2="496.10001"
   x2="992.09998"
   y1="566.90002"
   x1="992.09998"
   class="st0" />
	</g><rect
   style="stroke:none;stroke-opacity:1"
   id="rect940"
   height="1.9"
   width="70.900002"
   y="228.60001"
   x="155.89999" /><rect
   style="stroke:none;stroke-opacity:1"
   id="rect942"
   height="1.9"
   width="70.900002"
   y="322.20001"
   x="155.89999" /><rect
   style="stroke:none;stroke-opacity:1"
   id="rect944"
   height="1.9"
   width="70.900002"
   y="415.70001"
   x="155.89999" /><rect
   style="stroke:none;stroke-opacity:1"
   id="rect946"
   height="1.9"
   width="70.900002"
   y="509.29999"
   x="155.89999" /><rect
   style="stroke:none;stroke-opacity:1"
   id="rect948"
   height="1.9"
   width="70.900002"
   y="631.20001"
   x="155.89999" /><rect
   style="stroke:none;stroke-opacity:1"
   id="rect950"
   height="1.9"
   width="70.900002"
   y="724.70001"
   x="155.89999" /><rect
   style="stroke:none;stroke-opacity:1"
   id="rect952"
   height="1.9"
   width="70.900002"
   y="818.20001"
   x="155.89999" /><rect
   style="stroke:none;stroke-opacity:1"
   id="rect954"
   height="1.9"
   width="70.900002"
   y="911.79999"
   x="155.89999" />
<g
   id="contour"
   style="stroke:#ff0000;stroke-opacity:1">
	<rect
   class="st1"
   width="1700.8"
   height="1133.9"
   id="rect965"
   x="0"
   y="0"
   style="fill:none;stroke:#ff0000;stroke-miterlimit:10;stroke-opacity:1" />
</g>
<text
   style="font-size:36px;font-family:MyriadPro-Regular;stroke:none;stroke-opacity:1;"
   id="text1234"
   class="st2 st3"
   x="171.00404"
   y="298.62109"><tspan
     style="font-size:64px;stroke:none;stroke-opacity:1;"
     id="tspan2423">9</tspan></text>
<text
   style="font-size:36px;font-family:MyriadPro-Regular;stroke:none;stroke-opacity:1;"
   id="text1234-3"
   class="st2 st3"
   x="169.72279"
   y="394.44131"><tspan
     style="font-size:64px;stroke:none;stroke-opacity:1;"
     id="tspan2423-3">1</tspan></text>
<text
   style="font-size:36px;font-family:MyriadPro-Regular;stroke:none;stroke-opacity:1;"
   id="text1234-3-5"
   class="st2 st3"
   x="170.66029"
   y="483.39005"><tspan
     style="font-size:64px;stroke:none;stroke-opacity:1;"
     id="tspan2423-3-4">8</tspan></text>
<text
   style="font-size:36px;font-family:MyriadPro-Regular;stroke:none;stroke-opacity:1;"
   id="text1234-3-5-5"
   class="st2 st3"
   x="170.22279"
   y="700.72284"><tspan
     style="font-size:64px;stroke:none;stroke-opacity:1;"
     id="tspan2423-3-4-6">2</tspan></text>
<text
   style="font-size:36px;font-family:MyriadPro-Regular;stroke:none;stroke-opacity:1;"
   id="text1234-3-5-5-6"
   class="st2 st3"
   x="170.26967"
   y="794.89813"><tspan
     style="font-size:64px;stroke:none;stroke-opacity:1;"
     id="tspan2423-3-4-6-7">7</tspan></text>
<text
   style="font-size:36px;font-family:MyriadPro-Regular;stroke:none;stroke-opacity:1;"
   id="text1234-3-5-5-6-7"
   class="st2 st3"
   x="170.25404"
   y="891.50421"><tspan
     style="font-size:64px;stroke:none;stroke-opacity:1;"
     id="tspan2423-3-4-6-7-6">6</tspan></text>
</svg>