<?xml version="1.0" encoding="UTF-8" standalone="no"?>
<!-- Generator: Adobe Illustrator 21.1.0, SVG Export Plug-In . SVG Version: 6.00 Build 0)  -->

<svg
   xmlns:dc="http://purl.org/dc/elements/1.1/"
   xmlns:cc="http://creativecommons.org/ns#"
   xmlns:rdf="http://www.w3.org/1999/02/22-rdf-syntax-ns#"
   xmlns:svg="http://www.w3.org/2000/svg"
   xmlns="http://www.w3.org/2000/svg"
   xmlns:sodipodi="http://sodipodi.sourceforge.net/DTD/sodipodi-0.dtd"
   xmlns:inkscape="http://www.inkscape.org/namespaces/inkscape"
   version="1.1"
   x="0px"
   y="0px"
   viewBox="0 0 1700.8 1133.9"
   style="enable-background:new 0 0 1700.8 1133.9;"
   xml:space="preserve"
   id="svg596"
   sodipodi:docname="calque 2 .svg"
   inkscape:version="0.92.3 (2405546, 2018-03-11)"><metadata
   id="metadata602"><rdf:RDF><cc:Work
       rdf:about=""><dc:format>image/svg+xml</dc:format><dc:type
         rdf:resource="http://purl.org/dc/dcmitype/StillImage" /></cc:Work></rdf:RDF></metadata><defs
   id="defs600" /><sodipodi:namedview
   pagecolor="#ffffff"
   bordercolor="#666666"
   borderopacity="1"
   objecttolerance="10"
   gridtolerance="10"
   guidetolerance="10"
   inkscape:pageopacity="0"
   inkscape:pageshadow="2"
   inkscape:window-width="1920"
   inkscape:window-height="1017"
   id="namedview598"
   showgrid="false"
   inkscape:zoom="0.20813122"
   inkscape:cx="850.40002"
   inkscape:cy="566.95001"
   inkscape:window-x="-8"
   inkscape:window-y="-8"
   inkscape:window-maximized="1"
   inkscape:current-layer="svg596" />
<style
   type="text/css"
   id="style2">
	.st0{fill:none;stroke:#FF0000;stroke-width:1.000000e-02;stroke-miterlimit:10;}
	.st1{fill:none;stroke:#231FFF;stroke-miterlimit:10;}
</style>
<g
   id="Calque_2"
   style="stroke:#000000;stroke-opacity:1">
	<g
   id="LINE_380_"
   style="stroke:#000000;stroke-opacity:1">
		<line
   class="st0"
   x1="1271.4"
   y1="701.29999"
   x2="1222.3"
   y2="672.90002"
   id="line4"
   style="stroke:#000000;stroke-opacity:1" />
	</g>
	<g
   id="LINE_379_"
   style="stroke:#000000;stroke-opacity:1">
		<line
   class="st0"
   x1="1079.3"
   y1="197.60001"
   x2="1091.6"
   y2="204.7"
   id="line7"
   style="stroke:#000000;stroke-opacity:1" />
	</g>
	<g
   id="LINE_378_"
   style="stroke:#000000;stroke-opacity:1">
		<line
   class="st0"
   x1="1105.5"
   y1="736.5"
   x2="1162.2"
   y2="736.5"
   id="line10"
   style="stroke:#000000;stroke-opacity:1" />
	</g>
	<g
   id="LINE_377_"
   style="stroke:#000000;stroke-opacity:1">
		<line
   class="st0"
   x1="1218.9"
   y1="736.5"
   x2="1275.6"
   y2="736.5"
   id="line13"
   style="stroke:#000000;stroke-opacity:1" />
	</g>
	<g
   id="LINE_376_"
   style="stroke:#000000;stroke-opacity:1">
		<line
   class="st0"
   x1="976.79999"
   y1="531.20001"
   x2="983.90002"
   y2="518.90002"
   id="line16"
   style="stroke:#000000;stroke-opacity:1" />
	</g>
	<g
   id="LINE_375_"
   style="stroke:#000000;stroke-opacity:1">
		<line
   class="st0"
   x1="1672.4"
   y1="49.099998"
   x2="1700.8"
   y2="0"
   id="line19"
   style="stroke:#000000;stroke-opacity:1" />
	</g>
	<g
   id="LINE_374_"
   style="stroke:#000000;stroke-opacity:1">
		<line
   class="st0"
   x1="1417.3"
   y1="491"
   x2="1441.9"
   y2="505.10001"
   id="line22"
   style="stroke:#000000;stroke-opacity:1" />
	</g>
	<g
   id="LINE_373_"
   style="stroke:#000000;stroke-opacity:1">
		<line
   class="st0"
   x1="1555.3"
   y1="308.79999"
   x2="1583.6"
   y2="259.70001"
   id="line25"
   style="stroke:#000000;stroke-opacity:1" />
	</g>
	<g
   id="LINE_372_"
   style="stroke:#000000;stroke-opacity:1">
		<line
   class="st0"
   x1="1360.6"
   y1="589.20001"
   x2="1385.2"
   y2="603.29999"
   id="line28"
   style="stroke:#000000;stroke-opacity:1" />
	</g>
	<g
   id="LINE_371_"
   style="stroke:#000000;stroke-opacity:1">
		<line
   class="st0"
   x1="1559.1"
   y1="245.5"
   x2="1587.4"
   y2="196.39999"
   id="line31"
   style="stroke:#000000;stroke-opacity:1" />
	</g>
	<g
   id="LINE_370_"
   style="stroke:#000000;stroke-opacity:1">
		<line
   class="st0"
   x1="1091.6"
   y1="204.7"
   x2="1063.3"
   y2="253.8"
   id="line34"
   style="stroke:#000000;stroke-opacity:1" />
	</g>
	<g
   id="LINE_369_"
   style="stroke:#000000;stroke-opacity:1">
		<line
   class="st0"
   x1="1048.8"
   y1="764.79999"
   x2="1105.5"
   y2="764.79999"
   id="line37"
   style="stroke:#000000;stroke-opacity:1" />
	</g>
	<g
   id="LINE_368_"
   style="stroke:#000000;stroke-opacity:1">
		<line
   class="st0"
   x1="1445.7"
   y1="441.89999"
   x2="1474"
   y2="392.79999"
   id="line40"
   style="stroke:#000000;stroke-opacity:1" />
	</g>
	<g
   id="LINE_367_"
   style="stroke:#000000;stroke-opacity:1">
		<line
   class="st0"
   x1="1644.1"
   y1="98.199997"
   x2="1668.6"
   y2="112.4"
   id="line43"
   style="stroke:#000000;stroke-opacity:1" />
	</g>
	<g
   id="LINE_366_"
   style="stroke:#000000;stroke-opacity:1">
		<line
   class="st0"
   x1="1498.6"
   y1="407"
   x2="1526.9"
   y2="357.89999"
   id="line46"
   style="stroke:#000000;stroke-opacity:1" />
	</g>
	<g
   id="LINE_365_"
   style="stroke:#000000;stroke-opacity:1">
		<line
   class="st0"
   x1="1022.6"
   y1="295.79999"
   x2="1034.9"
   y2="302.89999"
   id="line49"
   style="stroke:#000000;stroke-opacity:1" />
	</g>
	<g
   id="LINE_364_"
   style="stroke:#000000;stroke-opacity:1">
		<line
   class="st0"
   x1="1328.5"
   y1="701.5"
   x2="1356.8"
   y2="652.40002"
   id="line52"
   style="stroke:#000000;stroke-opacity:1" />
	</g>
	<g
   id="LINE_363_"
   style="stroke:#000000;stroke-opacity:1">
		<line
   class="st0"
   x1="1389"
   y1="540.09998"
   x2="1413.5"
   y2="554.20001"
   id="line55"
   style="stroke:#000000;stroke-opacity:1" />
	</g>
	<g
   id="LINE_362_"
   style="stroke:#000000;stroke-opacity:1">
		<line
   class="st0"
   x1="1587.4"
   y1="196.39999"
   x2="1612"
   y2="210.60001"
   id="line58"
   style="stroke:#000000;stroke-opacity:1" />
	</g>
	<g
   id="LINE_361_"
   style="stroke:#000000;stroke-opacity:1">
		<line
   class="st0"
   x1="1033"
   y1="547.29999"
   x2="1025.9"
   y2="559.59998"
   id="line61"
   style="stroke:#000000;stroke-opacity:1" />
	</g>
	<g
   id="LINE_360_"
   style="stroke:#000000;stroke-opacity:1">
		<line
   class="st0"
   x1="1063.3"
   y1="253.8"
   x2="1051"
   y2="246.7"
   id="line64"
   style="stroke:#000000;stroke-opacity:1" />
	</g>
	<g
   id="LINE_359_"
   style="stroke:#000000;stroke-opacity:1">
		<line
   class="st0"
   x1="1229.3"
   y1="660.70001"
   x2="1278.4"
   y2="689"
   id="line67"
   style="stroke:#000000;stroke-opacity:1" />
	</g>
	<g
   id="LINE_358_"
   style="stroke:#000000;stroke-opacity:1">
		<line
   class="st0"
   x1="1051"
   y1="246.7"
   x2="1079.3"
   y2="197.60001"
   id="line70"
   style="stroke:#000000;stroke-opacity:1" />
	</g>
	<g
   id="LINE_357_"
   style="stroke:#000000;stroke-opacity:1">
		<line
   class="st0"
   x1="1192.7"
   y1="1.3"
   x2="1193.4"
   y2="0"
   id="line73"
   style="stroke:#000000;stroke-opacity:1" />
	</g>
	<g
   id="LINE_356_"
   style="stroke:#000000;stroke-opacity:1">
		<line
   class="st0"
   x1="1672.4"
   y1="49.099998"
   x2="1697"
   y2="63.299999"
   id="line76"
   style="stroke:#000000;stroke-opacity:1" />
	</g>
	<g
   id="LINE_355_"
   style="stroke:#000000;stroke-opacity:1">
		<line
   class="st0"
   x1="1502.4"
   y1="343.70001"
   x2="1530.7"
   y2="294.60001"
   id="line79"
   style="stroke:#000000;stroke-opacity:1" />
	</g>
	<g
   id="LINE_354_"
   style="stroke:#000000;stroke-opacity:1">
		<line
   class="st0"
   x1="1474"
   y1="392.79999"
   x2="1498.6"
   y2="407"
   id="line82"
   style="stroke:#000000;stroke-opacity:1" />
	</g>
	<g
   id="LINE_353_"
   style="stroke:#000000;stroke-opacity:1">
		<line
   class="st0"
   x1="978.20001"
   y1="401.10001"
   x2="949.90002"
   y2="450.20001"
   id="line85"
   style="stroke:#000000;stroke-opacity:1" />
	</g>
	<g
   id="LINE_352_"
   style="stroke:#000000;stroke-opacity:1">
		<line
   class="st0"
   x1="937.59998"
   y1="443.10001"
   x2="966"
   y2="394"
   id="line88"
   style="stroke:#000000;stroke-opacity:1" />
	</g>
	<g
   id="LINE_351_"
   style="stroke:#000000;stroke-opacity:1">
		<line
   class="st0"
   x1="1530.7"
   y1="294.60001"
   x2="1555.3"
   y2="308.79999"
   id="line91"
   style="stroke:#000000;stroke-opacity:1" />
	</g>
	<g
   id="LINE_350_"
   style="stroke:#000000;stroke-opacity:1">
		<line
   class="st0"
   x1="1559.1"
   y1="245.5"
   x2="1583.6"
   y2="259.70001"
   id="line94"
   style="stroke:#000000;stroke-opacity:1" />
	</g>
	<g
   id="LINE_349_"
   style="stroke:#000000;stroke-opacity:1">
		<line
   class="st0"
   x1="1075"
   y1="587.90002"
   x2="1082"
   y2="575.59998"
   id="line97"
   style="stroke:#000000;stroke-opacity:1" />
	</g>
	<g
   id="LINE_348_"
   style="stroke:#000000;stroke-opacity:1">
		<line
   class="st0"
   x1="1612"
   y1="210.60001"
   x2="1640.3"
   y2="161.5"
   id="line100"
   style="stroke:#000000;stroke-opacity:1" />
	</g>
	<g
   id="LINE_347_"
   style="stroke:#000000;stroke-opacity:1">
		<line
   class="st0"
   x1="1303.9"
   y1="687.40002"
   x2="1328.5"
   y2="701.5"
   id="line103"
   style="stroke:#000000;stroke-opacity:1" />
	</g>
	<g
   id="LINE_346_"
   style="stroke:#000000;stroke-opacity:1">
		<line
   class="st0"
   x1="1502.4"
   y1="343.70001"
   x2="1526.9"
   y2="357.89999"
   id="line106"
   style="stroke:#000000;stroke-opacity:1" />
	</g>
	<g
   id="LINE_345_"
   style="stroke:#000000;stroke-opacity:1">
		<line
   class="st0"
   x1="1278.4"
   y1="689"
   x2="1271.4"
   y2="701.29999"
   id="line109"
   style="stroke:#000000;stroke-opacity:1" />
	</g>
	<g
   id="LINE_344_"
   style="stroke:#000000;stroke-opacity:1">
		<line
   class="st0"
   x1="1615.7"
   y1="147.3"
   x2="1644.1"
   y2="98.199997"
   id="line112"
   style="stroke:#000000;stroke-opacity:1" />
	</g>
	<g
   id="LINE_343_"
   style="stroke:#000000;stroke-opacity:1">
		<line
   class="st0"
   x1="1025.9"
   y1="559.59998"
   x2="976.79999"
   y2="531.20001"
   id="line115"
   style="stroke:#000000;stroke-opacity:1" />
	</g>
	<g
   id="LINE_342_"
   style="stroke:#000000;stroke-opacity:1">
		<line
   class="st0"
   x1="1162.2"
   y1="764.79999"
   x2="1218.9"
   y2="764.79999"
   id="line118"
   style="stroke:#000000;stroke-opacity:1" />
	</g>
	<g
   id="LINE_341_"
   style="stroke:#000000;stroke-opacity:1">
		<line
   class="st0"
   x1="1176.6"
   y1="57.400002"
   x2="1148.3"
   y2="106.5"
   id="line121"
   style="stroke:#000000;stroke-opacity:1" />
	</g>
	<g
   id="LINE_340_"
   style="stroke:#000000;stroke-opacity:1">
		<line
   class="st0"
   x1="1445.7"
   y1="441.89999"
   x2="1470.2"
   y2="456.10001"
   id="line124"
   style="stroke:#000000;stroke-opacity:1" />
	</g>
	<g
   id="LINE_339_"
   style="stroke:#000000;stroke-opacity:1">
		<line
   class="st0"
   x1="1209.8"
   y1="0"
   x2="1205"
   y2="8.3000002"
   id="line127"
   style="stroke:#000000;stroke-opacity:1" />
	</g>
	<g
   id="LINE_338_"
   style="stroke:#000000;stroke-opacity:1">
		<line
   class="st0"
   x1="1385.2"
   y1="603.29999"
   x2="1413.5"
   y2="554.20001"
   id="line130"
   style="stroke:#000000;stroke-opacity:1" />
	</g>
	<g
   id="LINE_337_"
   style="stroke:#000000;stroke-opacity:1">
		<line
   class="st0"
   x1="1441.9"
   y1="505.10001"
   x2="1470.2"
   y2="456.10001"
   id="line133"
   style="stroke:#000000;stroke-opacity:1" />
	</g>
	<g
   id="LINE_336_"
   style="stroke:#000000;stroke-opacity:1">
		<line
   class="st0"
   x1="994.29999"
   y1="344.89999"
   x2="1022.6"
   y2="295.79999"
   id="line136"
   style="stroke:#000000;stroke-opacity:1" />
	</g>
	<g
   id="LINE_335_"
   style="stroke:#000000;stroke-opacity:1">
		<line
   class="st0"
   x1="1136"
   y1="99.5"
   x2="1164.4"
   y2="50.400002"
   id="line139"
   style="stroke:#000000;stroke-opacity:1" />
	</g>
	<g
   id="LINE_334_"
   style="stroke:#000000;stroke-opacity:1">
		<line
   class="st0"
   x1="1034.9"
   y1="302.89999"
   x2="1006.6"
   y2="352"
   id="line142"
   style="stroke:#000000;stroke-opacity:1" />
	</g>
	<g
   id="LINE_333_"
   style="stroke:#000000;stroke-opacity:1">
		<line
   class="st0"
   x1="1222.3"
   y1="672.90002"
   x2="1229.3"
   y2="660.70001"
   id="line145"
   style="stroke:#000000;stroke-opacity:1" />
	</g>
	<g
   id="LINE_332_"
   style="stroke:#000000;stroke-opacity:1">
		<line
   class="st0"
   x1="983.90002"
   y1="518.90002"
   x2="1033"
   y2="547.29999"
   id="line148"
   style="stroke:#000000;stroke-opacity:1" />
	</g>
	<g
   id="LINE_331_"
   style="stroke:#000000;stroke-opacity:1">
		<line
   class="st0"
   x1="1082"
   y1="575.59998"
   x2="1180.2"
   y2="632.29999"
   id="line151"
   style="stroke:#000000;stroke-opacity:1" />
	</g>
	<g
   id="LINE_330_"
   style="stroke:#000000;stroke-opacity:1">
		<line
   class="st0"
   x1="1668.6"
   y1="112.4"
   x2="1697"
   y2="63.299999"
   id="line154"
   style="stroke:#000000;stroke-opacity:1" />
	</g>
	<g
   id="LINE_329_"
   style="stroke:#000000;stroke-opacity:1">
		<line
   class="st0"
   x1="1275.6"
   y1="736.5"
   x2="1303.9"
   y2="687.40002"
   id="line157"
   style="stroke:#000000;stroke-opacity:1" />
	</g>
	<g
   id="LINE_328_"
   style="stroke:#000000;stroke-opacity:1">
		<line
   class="st0"
   x1="949.90002"
   y1="450.20001"
   x2="937.59998"
   y2="443.10001"
   id="line160"
   style="stroke:#000000;stroke-opacity:1" />
	</g>
	<g
   id="LINE_327_"
   style="stroke:#000000;stroke-opacity:1">
		<line
   class="st0"
   x1="1148.3"
   y1="106.5"
   x2="1136"
   y2="99.5"
   id="line163"
   style="stroke:#000000;stroke-opacity:1" />
	</g>
	<g
   id="LINE_326_"
   style="stroke:#000000;stroke-opacity:1">
		<line
   class="st0"
   x1="1389"
   y1="540.09998"
   x2="1417.3"
   y2="491"
   id="line166"
   style="stroke:#000000;stroke-opacity:1" />
	</g>
	<g
   id="LINE_325_"
   style="stroke:#000000;stroke-opacity:1">
		<line
   class="st0"
   x1="966"
   y1="394"
   x2="978.20001"
   y2="401.10001"
   id="line169"
   style="stroke:#000000;stroke-opacity:1" />
	</g>
	<g
   id="LINE_324_"
   style="stroke:#000000;stroke-opacity:1">
		<line
   class="st0"
   x1="1205"
   y1="8.3000002"
   x2="1192.7"
   y2="1.3"
   id="line172"
   style="stroke:#000000;stroke-opacity:1" />
	</g>
	<g
   id="LINE_323_"
   style="stroke:#000000;stroke-opacity:1">
		<line
   class="st0"
   x1="173.89999"
   y1="357.89999"
   x2="202.2"
   y2="407"
   id="line175"
   style="stroke:#000000;stroke-opacity:1" />
	</g>
	<g
   id="LINE_322_"
   style="stroke:#000000;stroke-opacity:1">
		<line
   class="st0"
   x1="324.10001"
   y1="533"
   x2="287.29999"
   y2="554.20001"
   id="line178"
   style="stroke:#000000;stroke-opacity:1" />
	</g>
	<g
   id="LINE_321_"
   style="stroke:#000000;stroke-opacity:1">
		<line
   class="st0"
   x1="69"
   y1="91.099998"
   x2="97.300003"
   y2="140.2"
   id="line181"
   style="stroke:#000000;stroke-opacity:1" />
	</g>
	<g
   id="LINE_320_"
   style="stroke:#000000;stroke-opacity:1">
		<line
   class="st0"
   x1="125.7"
   y1="189.3"
   x2="88.800003"
   y2="210.60001"
   id="line184"
   style="stroke:#000000;stroke-opacity:1" />
	</g>
	<g
   id="LINE_319_"
   style="stroke:#000000;stroke-opacity:1">
		<line
   class="st0"
   x1="652"
   y1="736.5"
   x2="708.70001"
   y2="736.5"
   id="line187"
   style="stroke:#000000;stroke-opacity:1" />
	</g>
	<g
   id="LINE_318_"
   style="stroke:#000000;stroke-opacity:1">
		<line
   class="st0"
   x1="1180.2"
   y1="632.29999"
   x2="1173.2"
   y2="644.59998"
   id="line190"
   style="stroke:#000000;stroke-opacity:1" />
	</g>
	<g
   id="LINE_317_"
   style="stroke:#000000;stroke-opacity:1">
		<line
   class="st0"
   x1="396.89999"
   y1="687.40002"
   x2="372.29999"
   y2="701.5"
   id="line193"
   style="stroke:#000000;stroke-opacity:1" />
	</g>
	<g
   id="LINE_316_"
   style="stroke:#000000;stroke-opacity:1">
		<line
   class="st0"
   x1="878.70001"
   y1="736.5"
   x2="935.40002"
   y2="736.5"
   id="line196"
   style="stroke:#000000;stroke-opacity:1" />
	</g>
	<g
   id="LINE_315_"
   style="stroke:#000000;stroke-opacity:1">
		<line
   class="st0"
   x1="182.39999"
   y1="287.5"
   x2="210.7"
   y2="336.60001"
   id="line199"
   style="stroke:#000000;stroke-opacity:1" />
	</g>
	<g
   id="LINE_314_"
   style="stroke:#000000;stroke-opacity:1">
		<line
   class="st0"
   x1="822"
   y1="764.79999"
   x2="878.70001"
   y2="764.79999"
   id="line202"
   style="stroke:#000000;stroke-opacity:1" />
	</g>
	<g
   id="LINE_313_"
   style="stroke:#000000;stroke-opacity:1">
		<line
   class="st0"
   x1="595.29999"
   y1="764.79999"
   x2="652"
   y2="764.79999"
   id="line205"
   style="stroke:#000000;stroke-opacity:1" />
	</g>
	<g
   id="LINE_312_"
   style="stroke:#000000;stroke-opacity:1">
		<line
   class="st0"
   x1="295.70001"
   y1="483.89999"
   x2="258.89999"
   y2="505.10001"
   id="line208"
   style="stroke:#000000;stroke-opacity:1" />
	</g>
	<g
   id="LINE_311_"
   style="stroke:#000000;stroke-opacity:1">
		<line
   class="st0"
   x1="0"
   y1="0"
   x2="1193.4"
   y2="0"
   id="line211"
   style="stroke:#000000;stroke-opacity:1" />
	</g>
	<g
   id="LINE_310_"
   style="stroke:#000000;stroke-opacity:1">
		<line
   class="st0"
   x1="239"
   y1="385.70001"
   x2="267.39999"
   y2="434.79999"
   id="line214"
   style="stroke:#000000;stroke-opacity:1" />
	</g>
	<g
   id="LINE_309_"
   style="stroke:#000000;stroke-opacity:1">
		<line
   class="st0"
   x1="1164.4"
   y1="50.400002"
   x2="1176.6"
   y2="57.400002"
   id="line217"
   style="stroke:#000000;stroke-opacity:1" />
	</g>
	<g
   id="LINE_308_"
   style="stroke:#000000;stroke-opacity:1">
		<line
   class="st0"
   x1="0"
   y1="0"
   x2="28.299999"
   y2="49.099998"
   id="line220"
   style="stroke:#000000;stroke-opacity:1" />
	</g>
	<g
   id="LINE_307_"
   style="stroke:#000000;stroke-opacity:1">
		<line
   class="st0"
   x1="28.299999"
   y1="49.099998"
   x2="3.8"
   y2="63.299999"
   id="line223"
   style="stroke:#000000;stroke-opacity:1" />
	</g>
	<g
   id="LINE_306_"
   style="stroke:#000000;stroke-opacity:1">
		<line
   class="st0"
   x1="3.8"
   y1="63.299999"
   x2="32.099998"
   y2="112.4"
   id="line226"
   style="stroke:#000000;stroke-opacity:1" />
	</g>
	<g
   id="LINE_305_"
   style="stroke:#000000;stroke-opacity:1">
		<line
   class="st0"
   x1="69"
   y1="91.099998"
   x2="32.099998"
   y2="112.4"
   id="line229"
   style="stroke:#000000;stroke-opacity:1" />
	</g>
	<g
   id="LINE_304_"
   style="stroke:#000000;stroke-opacity:1">
		<line
   class="st0"
   x1="97.300003"
   y1="140.2"
   x2="60.5"
   y2="161.5"
   id="line232"
   style="stroke:#000000;stroke-opacity:1" />
	</g>
	<g
   id="LINE_303_"
   style="stroke:#000000;stroke-opacity:1">
		<line
   class="st0"
   x1="60.5"
   y1="161.5"
   x2="88.800003"
   y2="210.60001"
   id="line235"
   style="stroke:#000000;stroke-opacity:1" />
	</g>
	<g
   id="LINE_302_"
   style="stroke:#000000;stroke-opacity:1">
		<line
   class="st0"
   x1="125.7"
   y1="189.3"
   x2="154"
   y2="238.39999"
   id="line238"
   style="stroke:#000000;stroke-opacity:1" />
	</g>
	<g
   id="LINE_301_"
   style="stroke:#000000;stroke-opacity:1">
		<line
   class="st0"
   x1="154"
   y1="238.39999"
   x2="117.2"
   y2="259.70001"
   id="line241"
   style="stroke:#000000;stroke-opacity:1" />
	</g>
	<g
   id="LINE_300_"
   style="stroke:#000000;stroke-opacity:1">
		<line
   class="st0"
   x1="117.2"
   y1="259.70001"
   x2="145.5"
   y2="308.79999"
   id="line244"
   style="stroke:#000000;stroke-opacity:1" />
	</g>
	<g
   id="LINE_299_"
   style="stroke:#000000;stroke-opacity:1">
		<line
   class="st0"
   x1="182.39999"
   y1="287.5"
   x2="145.5"
   y2="308.79999"
   id="line247"
   style="stroke:#000000;stroke-opacity:1" />
	</g>
	<g
   id="LINE_298_"
   style="stroke:#000000;stroke-opacity:1">
		<line
   class="st0"
   x1="210.7"
   y1="336.60001"
   x2="173.89999"
   y2="357.89999"
   id="line250"
   style="stroke:#000000;stroke-opacity:1" />
	</g>
	<g
   id="LINE_297_"
   style="stroke:#000000;stroke-opacity:1">
		<line
   class="st0"
   x1="239"
   y1="385.70001"
   x2="202.2"
   y2="407"
   id="line253"
   style="stroke:#000000;stroke-opacity:1" />
	</g>
	<g
   id="LINE_296_"
   style="stroke:#000000;stroke-opacity:1">
		<line
   class="st0"
   x1="267.39999"
   y1="434.79999"
   x2="230.60001"
   y2="456.10001"
   id="line256"
   style="stroke:#000000;stroke-opacity:1" />
	</g>
	<g
   id="LINE_295_"
   style="stroke:#000000;stroke-opacity:1">
		<line
   class="st0"
   x1="230.60001"
   y1="456.10001"
   x2="258.89999"
   y2="505.10001"
   id="line259"
   style="stroke:#000000;stroke-opacity:1" />
	</g>
	<g
   id="LINE_294_"
   style="stroke:#000000;stroke-opacity:1">
		<line
   class="st0"
   x1="295.70001"
   y1="483.89999"
   x2="324.10001"
   y2="533"
   id="line262"
   style="stroke:#000000;stroke-opacity:1" />
	</g>
	<g
   id="LINE_293_"
   style="stroke:#000000;stroke-opacity:1">
		<line
   class="st0"
   x1="287.29999"
   y1="554.20001"
   x2="315.60001"
   y2="603.29999"
   id="line265"
   style="stroke:#000000;stroke-opacity:1" />
	</g>
	<g
   id="LINE_292_"
   style="stroke:#000000;stroke-opacity:1">
		<line
   class="st0"
   x1="352.39999"
   y1="582.09998"
   x2="315.60001"
   y2="603.29999"
   id="line268"
   style="stroke:#000000;stroke-opacity:1" />
	</g>
	<g
   id="LINE_291_"
   style="stroke:#000000;stroke-opacity:1">
		<line
   class="st0"
   x1="352.39999"
   y1="582.09998"
   x2="380.79999"
   y2="631.20001"
   id="line271"
   style="stroke:#000000;stroke-opacity:1" />
	</g>
	<g
   id="LINE_290_"
   style="stroke:#000000;stroke-opacity:1">
		<line
   class="st0"
   x1="380.79999"
   y1="631.20001"
   x2="344"
   y2="652.40002"
   id="line274"
   style="stroke:#000000;stroke-opacity:1" />
	</g>
	<g
   id="LINE_289_"
   style="stroke:#000000;stroke-opacity:1">
		<line
   class="st0"
   x1="344"
   y1="652.40002"
   x2="372.29999"
   y2="701.5"
   id="line277"
   style="stroke:#000000;stroke-opacity:1" />
	</g>
	<g
   id="LINE_288_"
   style="stroke:#000000;stroke-opacity:1">
		<line
   class="st0"
   x1="396.89999"
   y1="687.40002"
   x2="425.20001"
   y2="736.5"
   id="line280"
   style="stroke:#000000;stroke-opacity:1" />
	</g>
	<g
   id="LINE_287_"
   style="stroke:#000000;stroke-opacity:1">
		<line
   class="st0"
   x1="425.20001"
   y1="736.5"
   x2="481.89999"
   y2="736.5"
   id="line283"
   style="stroke:#000000;stroke-opacity:1" />
	</g>
	<g
   id="LINE_286_"
   style="stroke:#000000;stroke-opacity:1">
		<line
   class="st0"
   x1="481.89999"
   y1="764.79999"
   x2="538.59998"
   y2="764.79999"
   id="line286"
   style="stroke:#000000;stroke-opacity:1" />
	</g>
	<g
   id="LINE_285_"
   style="stroke:#000000;stroke-opacity:1">
		<line
   class="st0"
   x1="538.59998"
   y1="736.5"
   x2="595.29999"
   y2="736.5"
   id="line289"
   style="stroke:#000000;stroke-opacity:1" />
	</g>
	<g
   id="LINE_284_"
   style="stroke:#000000;stroke-opacity:1">
		<line
   class="st0"
   x1="708.70001"
   y1="764.79999"
   x2="765.40002"
   y2="764.79999"
   id="line292"
   style="stroke:#000000;stroke-opacity:1" />
	</g>
	<g
   id="LINE_283_"
   style="stroke:#000000;stroke-opacity:1">
		<line
   class="st0"
   x1="765.40002"
   y1="736.5"
   x2="822"
   y2="736.5"
   id="line295"
   style="stroke:#000000;stroke-opacity:1" />
	</g>
	<g
   id="LINE_282_"
   style="stroke:#000000;stroke-opacity:1">
		<line
   class="st0"
   x1="935.40002"
   y1="764.79999"
   x2="992.09998"
   y2="764.79999"
   id="line298"
   style="stroke:#000000;stroke-opacity:1" />
	</g>
	<g
   id="LINE_281_"
   style="stroke:#000000;stroke-opacity:1">
		<line
   class="st0"
   x1="992.09998"
   y1="736.5"
   x2="1048.8"
   y2="736.5"
   id="line301"
   style="stroke:#000000;stroke-opacity:1" />
	</g>
	<g
   id="LINE_280_"
   style="stroke:#000000;stroke-opacity:1">
		<line
   class="st0"
   x1="1332.3"
   y1="638.29999"
   x2="1356.8"
   y2="652.40002"
   id="line304"
   style="stroke:#000000;stroke-opacity:1" />
	</g>
	<g
   id="LINE_279_"
   style="stroke:#000000;stroke-opacity:1">
		<line
   class="st0"
   x1="1332.3"
   y1="638.29999"
   x2="1360.6"
   y2="589.20001"
   id="line307"
   style="stroke:#000000;stroke-opacity:1" />
	</g>
	<g
   id="LINE_278_"
   style="stroke:#000000;stroke-opacity:1">
		<line
   class="st0"
   x1="1615.7"
   y1="147.3"
   x2="1640.3"
   y2="161.5"
   id="line310"
   style="stroke:#000000;stroke-opacity:1" />
	</g>
	<g
   id="LINE_277_"
   style="stroke:#000000;stroke-opacity:1">
		<line
   class="st0"
   x1="1173.2"
   y1="644.59998"
   x2="1075"
   y2="587.90002"
   id="line313"
   style="stroke:#000000;stroke-opacity:1" />
	</g>
	<g
   id="LINE_276_"
   style="stroke:#000000;stroke-opacity:1">
		<line
   class="st0"
   x1="1006.6"
   y1="352"
   x2="994.29999"
   y2="344.89999"
   id="line316"
   style="stroke:#000000;stroke-opacity:1" />
	</g>
	<g
   id="LINE_275_"
   style="stroke:#000000;stroke-opacity:1">
		<line
   class="st0"
   x1="1218.9"
   y1="764.79999"
   x2="1218.9"
   y2="750.59998"
   id="line319"
   style="stroke:#000000;stroke-opacity:1" />
	</g>
	<g
   id="LINE_274_"
   style="stroke:#000000;stroke-opacity:1">
		<line
   class="st0"
   x1="538.59998"
   y1="750.59998"
   x2="595.29999"
   y2="750.59998"
   id="line322"
   style="stroke:#000000;stroke-opacity:1" />
	</g>
	<g
   id="LINE_273_"
   style="stroke:#000000;stroke-opacity:1">
		<line
   class="st0"
   x1="538.59998"
   y1="764.79999"
   x2="538.59998"
   y2="750.59998"
   id="line325"
   style="stroke:#000000;stroke-opacity:1" />
	</g>
	<g
   id="LINE_272_"
   style="stroke:#000000;stroke-opacity:1">
		<line
   class="st0"
   x1="481.89999"
   y1="750.59998"
   x2="481.89999"
   y2="764.79999"
   id="line328"
   style="stroke:#000000;stroke-opacity:1" />
	</g>
	<g
   id="LINE_271_"
   style="stroke:#000000;stroke-opacity:1">
		<line
   class="st0"
   x1="1162.2"
   y1="750.59998"
   x2="1162.2"
   y2="764.79999"
   id="line331"
   style="stroke:#000000;stroke-opacity:1" />
	</g>
	<g
   id="LINE_270_"
   style="stroke:#000000;stroke-opacity:1">
		<line
   class="st0"
   x1="489"
   y1="878.20001"
   x2="432.29999"
   y2="878.20001"
   id="line334"
   style="stroke:#000000;stroke-opacity:1" />
	</g>
	<g
   id="LINE_269_"
   style="stroke:#000000;stroke-opacity:1">
		<line
   class="st0"
   x1="545.70001"
   y1="878.20001"
   x2="545.70001"
   y2="892.40002"
   id="line337"
   style="stroke:#000000;stroke-opacity:1" />
	</g>
	<g
   id="LINE_268_"
   style="stroke:#000000;stroke-opacity:1">
		<line
   class="st0"
   x1="602.40002"
   y1="878.20001"
   x2="545.70001"
   y2="878.20001"
   id="line340"
   style="stroke:#000000;stroke-opacity:1" />
	</g>
	<g
   id="LINE_267_"
   style="stroke:#000000;stroke-opacity:1">
		<line
   class="st0"
   x1="652"
   y1="764.79999"
   x2="652"
   y2="750.59998"
   id="line343"
   style="stroke:#000000;stroke-opacity:1" />
	</g>
	<g
   id="LINE_266_"
   style="stroke:#000000;stroke-opacity:1">
		<line
   class="st0"
   x1="992.09998"
   y1="750.59998"
   x2="1048.8"
   y2="750.59998"
   id="line346"
   style="stroke:#000000;stroke-opacity:1" />
	</g>
	<g
   id="LINE_265_"
   style="stroke:#000000;stroke-opacity:1">
		<line
   class="st0"
   x1="935.40002"
   y1="750.59998"
   x2="935.40002"
   y2="764.79999"
   id="line349"
   style="stroke:#000000;stroke-opacity:1" />
	</g>
	<g
   id="LINE_264_"
   style="stroke:#000000;stroke-opacity:1">
		<line
   class="st0"
   x1="432.29999"
   y1="842.79999"
   x2="418.10001"
   y2="842.79999"
   id="line352"
   style="stroke:#000000;stroke-opacity:1" />
	</g>
	<g
   id="LINE_263_"
   style="stroke:#000000;stroke-opacity:1">
		<line
   class="st0"
   x1="822"
   y1="750.59998"
   x2="822"
   y2="764.79999"
   id="line355"
   style="stroke:#000000;stroke-opacity:1" />
	</g>
	<g
   id="LINE_262_"
   style="stroke:#000000;stroke-opacity:1">
		<line
   class="st0"
   x1="715.70001"
   y1="878.20001"
   x2="659.09998"
   y2="878.20001"
   id="line358"
   style="stroke:#000000;stroke-opacity:1" />
	</g>
	<g
   id="LINE_261_"
   style="stroke:#000000;stroke-opacity:1">
		<line
   class="st0"
   x1="1218.9"
   y1="750.59998"
   x2="1268.5"
   y2="750.59998"
   id="line361"
   style="stroke:#000000;stroke-opacity:1" />
	</g>
	<g
   id="LINE_260_"
   style="stroke:#000000;stroke-opacity:1">
		<line
   class="st0"
   x1="715.70001"
   y1="878.20001"
   x2="715.70001"
   y2="892.40002"
   id="line364"
   style="stroke:#000000;stroke-opacity:1" />
	</g>
	<g
   id="LINE_259_"
   style="stroke:#000000;stroke-opacity:1">
		<line
   class="st0"
   x1="878.70001"
   y1="750.59998"
   x2="935.40002"
   y2="750.59998"
   id="line367"
   style="stroke:#000000;stroke-opacity:1" />
	</g>
	<g
   id="LINE_258_"
   style="stroke:#000000;stroke-opacity:1">
		<line
   class="st0"
   x1="659.09998"
   y1="878.20001"
   x2="659.09998"
   y2="892.40002"
   id="line370"
   style="stroke:#000000;stroke-opacity:1" />
	</g>
	<g
   id="LINE_257_"
   style="stroke:#000000;stroke-opacity:1">
		<line
   class="st0"
   x1="602.40002"
   y1="878.20001"
   x2="602.40002"
   y2="892.40002"
   id="line373"
   style="stroke:#000000;stroke-opacity:1" />
	</g>
	<g
   id="LINE_256_"
   style="stroke:#000000;stroke-opacity:1">
		<line
   class="st0"
   x1="772.40002"
   y1="878.20001"
   x2="772.40002"
   y2="892.40002"
   id="line376"
   style="stroke:#000000;stroke-opacity:1" />
	</g>
	<g
   id="LINE_255_"
   style="stroke:#000000;stroke-opacity:1">
		<line
   class="st0"
   x1="871.70001"
   y1="878.20001"
   x2="772.40002"
   y2="878.20001"
   id="line379"
   style="stroke:#000000;stroke-opacity:1" />
	</g>
	<g
   id="LINE_254_"
   style="stroke:#000000;stroke-opacity:1">
		<line
   class="st0"
   x1="871.70001"
   y1="920.70001"
   x2="871.70001"
   y2="878.20001"
   id="line382"
   style="stroke:#000000;stroke-opacity:1" />
	</g>
	<g
   id="LINE_253_"
   style="stroke:#000000;stroke-opacity:1">
		<line
   class="st0"
   x1="765.40002"
   y1="750.59998"
   x2="822"
   y2="750.59998"
   id="line385"
   style="stroke:#000000;stroke-opacity:1" />
	</g>
	<g
   id="LINE_252_"
   style="stroke:#000000;stroke-opacity:1">
		<line
   class="st0"
   x1="871.70001"
   y1="920.70001"
   x2="857.5"
   y2="920.70001"
   id="line388"
   style="stroke:#000000;stroke-opacity:1" />
	</g>
	<g
   id="LINE_251_"
   style="stroke:#000000;stroke-opacity:1">
		<line
   class="st0"
   x1="857.5"
   y1="949.09998"
   x2="857.5"
   y2="920.70001"
   id="line391"
   style="stroke:#000000;stroke-opacity:1" />
	</g>
	<g
   id="LINE_250_"
   style="stroke:#000000;stroke-opacity:1">
		<line
   class="st0"
   x1="659.09998"
   y1="892.40002"
   x2="602.40002"
   y2="892.40002"
   id="line394"
   style="stroke:#000000;stroke-opacity:1" />
	</g>
	<g
   id="LINE_249_"
   style="stroke:#000000;stroke-opacity:1">
		<line
   class="st0"
   x1="545.70001"
   y1="892.40002"
   x2="489"
   y2="892.40002"
   id="line397"
   style="stroke:#000000;stroke-opacity:1" />
	</g>
	<g
   id="LINE_248_"
   style="stroke:#000000;stroke-opacity:1">
		<line
   class="st0"
   x1="1048.8"
   y1="750.59998"
   x2="1048.8"
   y2="764.79999"
   id="line400"
   style="stroke:#000000;stroke-opacity:1" />
	</g>
	<g
   id="LINE_247_"
   style="stroke:#000000;stroke-opacity:1">
		<line
   class="st0"
   x1="432.29999"
   y1="786.09998"
   x2="418.10001"
   y2="786.09998"
   id="line403"
   style="stroke:#000000;stroke-opacity:1" />
	</g>
	<g
   id="LINE_246_"
   style="stroke:#000000;stroke-opacity:1">
		<line
   class="st0"
   x1="871.70001"
   y1="949.09998"
   x2="857.5"
   y2="949.09998"
   id="line406"
   style="stroke:#000000;stroke-opacity:1" />
	</g>
	<g
   id="LINE_245_"
   style="stroke:#000000;stroke-opacity:1">
		<line
   class="st0"
   x1="871.70001"
   y1="963.20001"
   x2="871.70001"
   y2="949.09998"
   id="line409"
   style="stroke:#000000;stroke-opacity:1" />
	</g>
	<g
   id="LINE_244_"
   style="stroke:#000000;stroke-opacity:1">
		<line
   class="st0"
   x1="708.70001"
   y1="750.59998"
   x2="708.70001"
   y2="764.79999"
   id="line412"
   style="stroke:#000000;stroke-opacity:1" />
	</g>
	<g
   id="LINE_243_"
   style="stroke:#000000;stroke-opacity:1">
		<line
   class="st0"
   x1="878.70001"
   y1="764.79999"
   x2="878.70001"
   y2="750.59998"
   id="line415"
   style="stroke:#000000;stroke-opacity:1" />
	</g>
	<g
   id="LINE_242_"
   style="stroke:#000000;stroke-opacity:1">
		<line
   class="st0"
   x1="1105.5"
   y1="764.79999"
   x2="1105.5"
   y2="750.59998"
   id="line418"
   style="stroke:#000000;stroke-opacity:1" />
	</g>
	<g
   id="LINE_241_"
   style="stroke:#000000;stroke-opacity:1">
		<line
   class="st0"
   x1="992.09998"
   y1="764.79999"
   x2="992.09998"
   y2="750.59998"
   id="line421"
   style="stroke:#000000;stroke-opacity:1" />
	</g>
	<g
   id="LINE_240_"
   style="stroke:#000000;stroke-opacity:1">
		<line
   class="st0"
   x1="432.29999"
   y1="786.09998"
   x2="432.29999"
   y2="750.59998"
   id="line424"
   style="stroke:#000000;stroke-opacity:1" />
	</g>
	<g
   id="LINE_239_"
   style="stroke:#000000;stroke-opacity:1">
		<line
   class="st0"
   x1="418.10001"
   y1="842.79999"
   x2="418.10001"
   y2="786.09998"
   id="line427"
   style="stroke:#000000;stroke-opacity:1" />
	</g>
	<g
   id="LINE_238_"
   style="stroke:#000000;stroke-opacity:1">
		<line
   class="st0"
   x1="772.40002"
   y1="892.40002"
   x2="715.70001"
   y2="892.40002"
   id="line430"
   style="stroke:#000000;stroke-opacity:1" />
	</g>
	<g
   id="LINE_237_"
   style="stroke:#000000;stroke-opacity:1">
		<line
   class="st0"
   x1="652"
   y1="750.59998"
   x2="708.70001"
   y2="750.59998"
   id="line433"
   style="stroke:#000000;stroke-opacity:1" />
	</g>
	<g
   id="LINE_236_"
   style="stroke:#000000;stroke-opacity:1">
		<line
   class="st0"
   x1="1268.5"
   y1="963.20001"
   x2="871.70001"
   y2="963.20001"
   id="line436"
   style="stroke:#000000;stroke-opacity:1" />
	</g>
	<g
   id="LINE_235_"
   style="stroke:#000000;stroke-opacity:1">
		<line
   class="st0"
   x1="1268.5"
   y1="949.09998"
   x2="1268.5"
   y2="963.20001"
   id="line439"
   style="stroke:#000000;stroke-opacity:1" />
	</g>
	<g
   id="LINE_234_"
   style="stroke:#000000;stroke-opacity:1">
		<line
   class="st0"
   x1="1105.5"
   y1="750.59998"
   x2="1162.2"
   y2="750.59998"
   id="line442"
   style="stroke:#000000;stroke-opacity:1" />
	</g>
	<g
   id="LINE_233_"
   style="stroke:#000000;stroke-opacity:1">
		<line
   class="st0"
   x1="765.40002"
   y1="764.79999"
   x2="765.40002"
   y2="750.59998"
   id="line445"
   style="stroke:#000000;stroke-opacity:1" />
	</g>
	<g
   id="LINE_232_"
   style="stroke:#000000;stroke-opacity:1">
		<line
   class="st0"
   x1="595.29999"
   y1="750.59998"
   x2="595.29999"
   y2="764.79999"
   id="line448"
   style="stroke:#000000;stroke-opacity:1" />
	</g>
	<g
   id="LINE_231_"
   style="stroke:#000000;stroke-opacity:1">
		<line
   class="st0"
   x1="432.29999"
   y1="750.59998"
   x2="481.89999"
   y2="750.59998"
   id="line451"
   style="stroke:#000000;stroke-opacity:1" />
	</g>
	<g
   id="LINE_230_"
   style="stroke:#000000;stroke-opacity:1">
		<line
   class="st0"
   x1="432.29999"
   y1="878.20001"
   x2="432.29999"
   y2="842.79999"
   id="line454"
   style="stroke:#000000;stroke-opacity:1" />
	</g>
	<g
   id="LINE_229_"
   style="stroke:#000000;stroke-opacity:1">
		<line
   class="st0"
   x1="489"
   y1="878.20001"
   x2="489"
   y2="892.40002"
   id="line457"
   style="stroke:#000000;stroke-opacity:1" />
	</g>
	<g
   id="LINE_228_"
   style="stroke:#000000;stroke-opacity:1">
		<line
   class="st0"
   x1="1268.5"
   y1="949.09998"
   x2="1282.7"
   y2="949.09998"
   id="line460"
   style="stroke:#000000;stroke-opacity:1" />
	</g>
	<g
   id="LINE_227_"
   style="stroke:#000000;stroke-opacity:1">
		<line
   class="st0"
   x1="1282.7"
   y1="920.70001"
   x2="1282.7"
   y2="949.09998"
   id="line463"
   style="stroke:#000000;stroke-opacity:1" />
	</g>
	<g
   id="LINE_226_"
   style="stroke:#000000;stroke-opacity:1">
		<line
   class="st0"
   x1="1268.5"
   y1="920.70001"
   x2="1282.7"
   y2="920.70001"
   id="line466"
   style="stroke:#000000;stroke-opacity:1" />
	</g>
	<g
   id="LINE_225_"
   style="stroke:#000000;stroke-opacity:1">
		<line
   class="st0"
   x1="1268.5"
   y1="750.59998"
   x2="1268.5"
   y2="920.70001"
   id="line469"
   style="stroke:#000000;stroke-opacity:1" />
	</g>
	<g
   id="LINE_224_"
   style="stroke:#000000;stroke-opacity:1">
		<line
   class="st0"
   x1="1155.1"
   y1="949.09998"
   x2="1211.8"
   y2="949.09998"
   id="line472"
   style="stroke:#000000;stroke-opacity:1" />
	</g>
	<g
   id="LINE_223_"
   style="stroke:#000000;stroke-opacity:1">
		<line
   class="st0"
   x1="1155.1"
   y1="934.90002"
   x2="1155.1"
   y2="949.09998"
   id="line475"
   style="stroke:#000000;stroke-opacity:1" />
	</g>
	<g
   id="LINE_222_"
   style="stroke:#000000;stroke-opacity:1">
		<line
   class="st0"
   x1="1211.8"
   y1="934.90002"
   x2="1155.1"
   y2="934.90002"
   id="line478"
   style="stroke:#000000;stroke-opacity:1" />
	</g>
	<g
   id="LINE_221_"
   style="stroke:#000000;stroke-opacity:1">
		<line
   class="st0"
   x1="1211.8"
   y1="949.09998"
   x2="1211.8"
   y2="934.90002"
   id="line481"
   style="stroke:#000000;stroke-opacity:1" />
	</g>
	<g
   id="LINE_220_"
   style="stroke:#000000;stroke-opacity:1">
		<line
   class="st0"
   x1="1098.4"
   y1="934.90002"
   x2="1041.7"
   y2="934.90002"
   id="line484"
   style="stroke:#000000;stroke-opacity:1" />
	</g>
	<g
   id="LINE_219_"
   style="stroke:#000000;stroke-opacity:1">
		<line
   class="st0"
   x1="1098.4"
   y1="949.09998"
   x2="1098.4"
   y2="934.90002"
   id="line487"
   style="stroke:#000000;stroke-opacity:1" />
	</g>
	<g
   id="LINE_218_"
   style="stroke:#000000;stroke-opacity:1">
		<line
   class="st0"
   x1="1041.7"
   y1="949.09998"
   x2="1098.4"
   y2="949.09998"
   id="line490"
   style="stroke:#000000;stroke-opacity:1" />
	</g>
	<g
   id="LINE_217_"
   style="stroke:#000000;stroke-opacity:1">
		<line
   class="st0"
   x1="1041.7"
   y1="934.90002"
   x2="1041.7"
   y2="949.09998"
   id="line493"
   style="stroke:#000000;stroke-opacity:1" />
	</g>
	<g
   id="LINE_216_"
   style="stroke:#000000;stroke-opacity:1">
		<line
   class="st0"
   x1="985"
   y1="949.09998"
   x2="985"
   y2="934.90002"
   id="line496"
   style="stroke:#000000;stroke-opacity:1" />
	</g>
	<g
   id="LINE_215_"
   style="stroke:#000000;stroke-opacity:1">
		<line
   class="st0"
   x1="928.29999"
   y1="949.09998"
   x2="985"
   y2="949.09998"
   id="line499"
   style="stroke:#000000;stroke-opacity:1" />
	</g>
	<g
   id="LINE_214_"
   style="stroke:#000000;stroke-opacity:1">
		<line
   class="st0"
   x1="928.29999"
   y1="934.90002"
   x2="928.29999"
   y2="949.09998"
   id="line502"
   style="stroke:#000000;stroke-opacity:1" />
	</g>
	<g
   id="LINE_213_"
   style="stroke:#000000;stroke-opacity:1">
		<line
   class="st0"
   x1="985"
   y1="934.90002"
   x2="928.29999"
   y2="934.90002"
   id="line505"
   style="stroke:#000000;stroke-opacity:1" />
	</g>
	<g
   id="LINE_212_"
   style="stroke:#000000;stroke-opacity:1">
		<line
   class="st0"
   x1="1211.8"
   y1="892.40002"
   x2="1155.1"
   y2="892.40002"
   id="line508"
   style="stroke:#000000;stroke-opacity:1" />
	</g>
	<g
   id="LINE_211_"
   style="stroke:#000000;stroke-opacity:1">
		<line
   class="st0"
   x1="1155.1"
   y1="892.40002"
   x2="1155.1"
   y2="878.20001"
   id="line511"
   style="stroke:#000000;stroke-opacity:1" />
	</g>
	<g
   id="LINE_210_"
   style="stroke:#000000;stroke-opacity:1">
		<line
   class="st0"
   x1="1155.1"
   y1="878.20001"
   x2="1211.8"
   y2="878.20001"
   id="line514"
   style="stroke:#000000;stroke-opacity:1" />
	</g>
	<g
   id="LINE_209_"
   style="stroke:#000000;stroke-opacity:1">
		<line
   class="st0"
   x1="1211.8"
   y1="878.20001"
   x2="1211.8"
   y2="892.40002"
   id="line517"
   style="stroke:#000000;stroke-opacity:1" />
	</g>
	<g
   id="LINE_208_"
   style="stroke:#000000;stroke-opacity:1">
		<line
   class="st0"
   x1="1098.4"
   y1="892.40002"
   x2="1041.7"
   y2="892.40002"
   id="line520"
   style="stroke:#000000;stroke-opacity:1" />
	</g>
	<g
   id="LINE_207_"
   style="stroke:#000000;stroke-opacity:1">
		<line
   class="st0"
   x1="1041.7"
   y1="892.40002"
   x2="1041.7"
   y2="878.20001"
   id="line523"
   style="stroke:#000000;stroke-opacity:1" />
	</g>
	<g
   id="LINE_206_"
   style="stroke:#000000;stroke-opacity:1">
		<line
   class="st0"
   x1="1041.7"
   y1="878.20001"
   x2="1098.4"
   y2="878.20001"
   id="line526"
   style="stroke:#000000;stroke-opacity:1" />
	</g>
	<g
   id="LINE_205_"
   style="stroke:#000000;stroke-opacity:1">
		<line
   class="st0"
   x1="1098.4"
   y1="878.20001"
   x2="1098.4"
   y2="892.40002"
   id="line529"
   style="stroke:#000000;stroke-opacity:1" />
	</g>
	<g
   id="LINE_204_"
   style="stroke:#000000;stroke-opacity:1">
		<line
   class="st0"
   x1="928.29999"
   y1="878.20001"
   x2="985"
   y2="878.20001"
   id="line532"
   style="stroke:#000000;stroke-opacity:1" />
	</g>
	<g
   id="LINE_203_"
   style="stroke:#000000;stroke-opacity:1">
		<line
   class="st0"
   x1="985"
   y1="878.20001"
   x2="985"
   y2="892.40002"
   id="line535"
   style="stroke:#000000;stroke-opacity:1" />
	</g>
	<g
   id="LINE_202_"
   style="stroke:#000000;stroke-opacity:1">
		<line
   class="st0"
   x1="985"
   y1="892.40002"
   x2="928.29999"
   y2="892.40002"
   id="line538"
   style="stroke:#000000;stroke-opacity:1" />
	</g>
	<g
   id="LINE_201_"
   style="stroke:#000000;stroke-opacity:1">
		<line
   class="st0"
   x1="928.29999"
   y1="892.40002"
   x2="928.29999"
   y2="878.20001"
   id="line541"
   style="stroke:#000000;stroke-opacity:1" />
	</g>
	<g
   id="LINE_200_"
   style="stroke:#000000;stroke-opacity:1">
		<line
   class="st0"
   x1="1162.2"
   y1="736.5"
   x2="1162.2"
   y2="750.59998"
   id="line544"
   style="stroke:#000000;stroke-opacity:1" />
	</g>
	<g
   id="LINE_181_"
   style="stroke:#000000;stroke-opacity:1">
		<line
   class="st0"
   x1="1105.5"
   y1="736.5"
   x2="1105.5"
   y2="750.59998"
   id="line547"
   style="stroke:#000000;stroke-opacity:1" />
	</g>
	<g
   id="LINE_182_"
   style="stroke:#000000;stroke-opacity:1">
		<line
   class="st0"
   x1="1218.9"
   y1="736.5"
   x2="1218.9"
   y2="750.59998"
   id="line550"
   style="stroke:#000000;stroke-opacity:1" />
	</g>
	<g
   id="LINE_183_"
   style="stroke:#000000;stroke-opacity:1">
		<line
   class="st0"
   x1="481.89999"
   y1="736.5"
   x2="481.89999"
   y2="750.59998"
   id="line553"
   style="stroke:#000000;stroke-opacity:1" />
	</g>
	<g
   id="LINE_184_"
   style="stroke:#000000;stroke-opacity:1">
		<line
   class="st0"
   x1="708.70001"
   y1="736.5"
   x2="708.70001"
   y2="750.59998"
   id="line556"
   style="stroke:#000000;stroke-opacity:1" />
	</g>
	<g
   id="LINE_185_"
   style="stroke:#000000;stroke-opacity:1">
		<line
   class="st0"
   x1="765.40002"
   y1="736.5"
   x2="765.40002"
   y2="750.59998"
   id="line559"
   style="stroke:#000000;stroke-opacity:1" />
	</g>
	<g
   id="LINE_186_"
   style="stroke:#000000;stroke-opacity:1">
		<line
   class="st0"
   x1="538.59998"
   y1="736.5"
   x2="538.59998"
   y2="750.59998"
   id="line562"
   style="stroke:#000000;stroke-opacity:1" />
	</g>
	<g
   id="LINE_187_"
   style="stroke:#000000;stroke-opacity:1">
		<line
   class="st0"
   x1="595.29999"
   y1="736.5"
   x2="595.29999"
   y2="750.59998"
   id="line565"
   style="stroke:#000000;stroke-opacity:1" />
	</g>
	<g
   id="LINE_188_"
   style="stroke:#000000;stroke-opacity:1">
		<line
   class="st0"
   x1="652"
   y1="736.5"
   x2="652"
   y2="750.59998"
   id="line568"
   style="stroke:#000000;stroke-opacity:1" />
	</g>
	<g
   id="LINE_189_"
   style="stroke:#000000;stroke-opacity:1">
		<line
   class="st0"
   x1="822"
   y1="736.5"
   x2="822"
   y2="750.59998"
   id="line571"
   style="stroke:#000000;stroke-opacity:1" />
	</g>
	<g
   id="LINE_190_"
   style="stroke:#000000;stroke-opacity:1">
		<line
   class="st0"
   x1="878.70001"
   y1="736.5"
   x2="878.70001"
   y2="750.59998"
   id="line574"
   style="stroke:#000000;stroke-opacity:1" />
	</g>
	<g
   id="LINE_191_"
   style="stroke:#000000;stroke-opacity:1">
		<line
   class="st0"
   x1="935.40002"
   y1="736.5"
   x2="935.40002"
   y2="750.59998"
   id="line577"
   style="stroke:#000000;stroke-opacity:1" />
	</g>
	<g
   id="LINE_192_"
   style="stroke:#000000;stroke-opacity:1">
		<line
   class="st0"
   x1="992.09998"
   y1="736.5"
   x2="992.09998"
   y2="750.59998"
   id="line580"
   style="stroke:#000000;stroke-opacity:1" />
	</g>
	<g
   id="LINE_193_"
   style="stroke:#000000;stroke-opacity:1">
		<line
   class="st0"
   x1="1048.8"
   y1="736.5"
   x2="1048.8"
   y2="750.59998"
   id="line583"
   style="stroke:#000000;stroke-opacity:1" />
	</g>
	<g
   id="LINE_194_"
   style="stroke:#000000;stroke-opacity:1">
		<line
   class="st0"
   x1="1209.8"
   y1="0"
   x2="1700.8"
   y2="0"
   id="line586"
   style="stroke:#000000;stroke-opacity:1" />
	</g>
	<g
   id="LINE_195_"
   style="stroke:#000000;stroke-opacity:1">
		<line
   class="st0"
   x1="1700.8"
   y1="0"
   x2="1644.1"
   y2="0"
   id="line589"
   style="stroke:#000000;stroke-opacity:1" />
	</g>
</g>
<g
   id="Calque_3"
   style="stroke:#000000;stroke-opacity:1">
	<rect
   class="st1"
   width="1700.8"
   height="1133.9"
   id="rect593"
   x="0"
   y="0"
   style="fill:none;stroke:#000000;stroke-miterlimit:10;stroke-opacity:1" />
</g>
</svg>