<?xml version="1.0" encoding="UTF-8" standalone="no"?>
<!-- Generator: Adobe Illustrator 21.1.0, SVG Export Plug-In . SVG Version: 6.00 Build 0)  -->

<svg
   xmlns:dc="http://purl.org/dc/elements/1.1/"
   xmlns:cc="http://creativecommons.org/ns#"
   xmlns:rdf="http://www.w3.org/1999/02/22-rdf-syntax-ns#"
   xmlns:svg="http://www.w3.org/2000/svg"
   xmlns="http://www.w3.org/2000/svg"
   xmlns:sodipodi="http://sodipodi.sourceforge.net/DTD/sodipodi-0.dtd"
   xmlns:inkscape="http://www.inkscape.org/namespaces/inkscape"
   version="1.1"
   x="0px"
   y="0px"
   viewBox="0 0 1700.8 1133.9"
   style="enable-background:new 0 0 1700.8 1133.9;"
   xml:space="preserve"
   id="svg676"
   sodipodi:docname="calque 9 .svg"
   inkscape:version="0.92.3 (2405546, 2018-03-11)"><metadata
   id="metadata682"><rdf:RDF><cc:Work
       rdf:about=""><dc:format>image/svg+xml</dc:format><dc:type
         rdf:resource="http://purl.org/dc/dcmitype/StillImage" /></cc:Work></rdf:RDF></metadata><defs
   id="defs680" /><sodipodi:namedview
   pagecolor="#ffffff"
   bordercolor="#666666"
   borderopacity="1"
   objecttolerance="10"
   gridtolerance="10"
   guidetolerance="10"
   inkscape:pageopacity="0"
   inkscape:pageshadow="2"
   inkscape:window-width="1600"
   inkscape:window-height="837"
   id="namedview678"
   showgrid="false"
   inkscape:zoom="0.41626245"
   inkscape:cx="788.70684"
   inkscape:cy="600.92225"
   inkscape:window-x="-8"
   inkscape:window-y="-8"
   inkscape:window-maximized="1"
   inkscape:current-layer="Calque_9" />
<style
   type="text/css"
   id="style2">
	.st0{fill:none;stroke:#FF0000;stroke-width:1.000000e-02;stroke-linecap:round;stroke-linejoin:round;stroke-miterlimit:10;}
	.st1{enable-background:new    ;}
	.st2{fill:#231F20;}
	.st3{font-family:'CourierNewPSMT';}
	.st4{font-size:65.0726px;}
	.st5{fill:none;stroke:#0000FF;stroke-miterlimit:10;}
</style>
<g
   id="Calque_9"
   style="stroke:#ff0000;stroke-opacity:1">
	<g
   id="LINE_2012_"
   style="stroke:#ff0000;stroke-opacity:1">
		<line
   class="st0"
   x1="1639.7"
   y1="508.10001"
   x2="1639.7"
   y2="625.79999"
   id="line4"
   style="stroke:#ff0000;stroke-opacity:1" />
	</g>
	<g
   id="LINE_2006_"
   style="stroke:#ff0000;stroke-opacity:1">
		<line
   class="st0"
   x1="850.40002"
   y1="963.79999"
   x2="850.40002"
   y2="170.10001"
   id="line7"
   style="stroke:#ff0000;stroke-opacity:1" />
	</g>
	<g
   id="LINE_1986_"
   style="stroke:#ff0000;stroke-opacity:1">
		<line
   class="st0"
   x1="952.29999"
   y1="111.2"
   x2="1639.7"
   y2="508.10001"
   id="line10"
   style="stroke:#ff0000;stroke-opacity:1" />
	</g>
	<g
   id="LINE_1985_"
   style="stroke:#ff0000;stroke-opacity:1">
		<line
   class="st0"
   x1="1639.7"
   y1="625.79999"
   x2="952.29999"
   y2="1022.6"
   id="line13"
   style="stroke:#ff0000;stroke-opacity:1" />
	</g>
	<g
   id="LINE_1981_"
   style="stroke:#ff0000;stroke-opacity:1">
		<line
   class="st0"
   x1="952.29999"
   y1="1022.6"
   x2="850.40002"
   y2="963.79999"
   id="line16"
   style="stroke:#ff0000;stroke-opacity:1" />
	</g>
	<g
   id="LINE_1972_"
   style="stroke:#ff0000;stroke-opacity:1">
		<line
   class="st0"
   x1="850.40002"
   y1="170.10001"
   x2="952.29999"
   y2="111.2"
   id="line19"
   style="stroke:#ff0000;stroke-opacity:1" />
	</g>
	<g
   id="LINE_1937_"
   style="stroke:#ff0000;stroke-opacity:1">
		<line
   class="st0"
   x1="283.5"
   y1="28.299999"
   x2="340.20001"
   y2="28.299999"
   id="line22"
   style="stroke:#ff0000;stroke-opacity:1" />
	</g>
	<g
   id="LINE_1936_"
   style="stroke:#ff0000;stroke-opacity:1">
		<line
   class="st0"
   x1="680.29999"
   y1="0"
   x2="680.29999"
   y2="28.299999"
   id="line25"
   style="stroke:#ff0000;stroke-opacity:1" />
	</g>
	<g
   id="LINE_1935_"
   style="stroke:#ff0000;stroke-opacity:1">
		<line
   class="st0"
   x1="283.5"
   y1="0"
   x2="283.5"
   y2="28.299999"
   id="line28"
   style="stroke:#ff0000;stroke-opacity:1" />
	</g>
	<g
   id="LINE_1934_"
   style="stroke:#ff0000;stroke-opacity:1">
		<line
   class="st0"
   x1="623.59998"
   y1="28.299999"
   x2="623.59998"
   y2="0"
   id="line31"
   style="stroke:#ff0000;stroke-opacity:1" />
	</g>
	<g
   id="LINE_1933_"
   style="stroke:#ff0000;stroke-opacity:1">
		<line
   class="st0"
   x1="453.5"
   y1="28.299999"
   x2="396.89999"
   y2="28.299999"
   id="line34"
   style="stroke:#ff0000;stroke-opacity:1" />
	</g>
	<g
   id="LINE_1932_"
   style="stroke:#ff0000;stroke-opacity:1">
		<line
   class="st0"
   x1="226.8"
   y1="1105.5"
   x2="226.8"
   y2="1133.9"
   id="line37"
   style="stroke:#ff0000;stroke-opacity:1" />
	</g>
	<g
   id="LINE_1931_"
   style="stroke:#ff0000;stroke-opacity:1">
		<line
   class="st0"
   x1="453.5"
   y1="0"
   x2="453.5"
   y2="28.299999"
   id="line40"
   style="stroke:#ff0000;stroke-opacity:1" />
	</g>
	<g
   id="LINE_1930_"
   style="stroke:#ff0000;stroke-opacity:1">
		<line
   class="st0"
   x1="226.8"
   y1="28.299999"
   x2="170.10001"
   y2="28.299999"
   id="line43"
   style="stroke:#ff0000;stroke-opacity:1" />
	</g>
	<g
   id="LINE_1929_"
   style="stroke:#ff0000;stroke-opacity:1">
		<line
   class="st0"
   x1="170.10001"
   y1="1133.9"
   x2="113.4"
   y2="1133.9"
   id="line46"
   style="stroke:#ff0000;stroke-opacity:1" />
	</g>
	<g
   id="LINE_1928_"
   style="stroke:#ff0000;stroke-opacity:1">
		<line
   class="st0"
   x1="226.8"
   y1="0"
   x2="283.5"
   y2="0"
   id="line49"
   style="stroke:#ff0000;stroke-opacity:1" />
	</g>
	<g
   id="LINE_1927_"
   style="stroke:#ff0000;stroke-opacity:1">
		<line
   class="st0"
   x1="623.59998"
   y1="1105.5"
   x2="680.29999"
   y2="1105.5"
   id="line52"
   style="stroke:#ff0000;stroke-opacity:1" />
	</g>
	<g
   id="LINE_1926_"
   style="stroke:#ff0000;stroke-opacity:1">
		<line
   class="st0"
   x1="283.5"
   y1="1133.9"
   x2="226.8"
   y2="1133.9"
   id="line55"
   style="stroke:#ff0000;stroke-opacity:1" />
	</g>
	<g
   id="LINE_1925_"
   style="stroke:#ff0000;stroke-opacity:1">
		<line
   class="st0"
   x1="680.29999"
   y1="28.299999"
   x2="623.59998"
   y2="28.299999"
   id="line58"
   style="stroke:#ff0000;stroke-opacity:1" />
	</g>
	<g
   id="LINE_1924_"
   style="stroke:#ff0000;stroke-opacity:1">
		<line
   class="st0"
   x1="453.5"
   y1="0"
   x2="510.20001"
   y2="0"
   id="line61"
   style="stroke:#ff0000;stroke-opacity:1" />
	</g>
	<g
   id="LINE_1923_"
   style="stroke:#ff0000;stroke-opacity:1">
		<line
   class="st0"
   x1="396.89999"
   y1="28.299999"
   x2="396.89999"
   y2="0"
   id="line64"
   style="stroke:#ff0000;stroke-opacity:1" />
	</g>
	<g
   id="LINE_1922_"
   style="stroke:#ff0000;stroke-opacity:1">
		<line
   class="st0"
   x1="737"
   y1="28.299999"
   x2="737"
   y2="0"
   id="line67"
   style="stroke:#ff0000;stroke-opacity:1" />
	</g>
	<g
   id="LINE_1921_"
   style="stroke:#ff0000;stroke-opacity:1">
		<line
   class="st0"
   x1="113.4"
   y1="1105.5"
   x2="0"
   y2="1105.5"
   id="line70"
   style="stroke:#ff0000;stroke-opacity:1" />
	</g>
	<g
   id="LINE_1920_"
   style="stroke:#ff0000;stroke-opacity:1">
		<line
   class="st0"
   x1="226.8"
   y1="0"
   x2="226.8"
   y2="28.299999"
   id="line73"
   style="stroke:#ff0000;stroke-opacity:1" />
	</g>
	<g
   id="LINE_1919_"
   style="stroke:#ff0000;stroke-opacity:1">
		<line
   class="st0"
   x1="396.89999"
   y1="1105.5"
   x2="453.5"
   y2="1105.5"
   id="line76"
   style="stroke:#ff0000;stroke-opacity:1" />
	</g>
	<g
   id="LINE_1918_"
   style="stroke:#ff0000;stroke-opacity:1">
		<line
   class="st0"
   x1="566.90002"
   y1="0"
   x2="566.90002"
   y2="28.299999"
   id="line79"
   style="stroke:#ff0000;stroke-opacity:1" />
	</g>
	<g
   id="LINE_1917_"
   style="stroke:#ff0000;stroke-opacity:1">
		<line
   class="st0"
   x1="340.20001"
   y1="28.299999"
   x2="340.20001"
   y2="0"
   id="line82"
   style="stroke:#ff0000;stroke-opacity:1" />
	</g>
	<g
   id="LINE_1916_"
   style="stroke:#ff0000;stroke-opacity:1">
		<line
   class="st0"
   x1="453.5"
   y1="1105.5"
   x2="453.5"
   y2="1133.9"
   id="line85"
   style="stroke:#ff0000;stroke-opacity:1" />
	</g>
	<g
   id="LINE_1915_"
   style="stroke:#ff0000;stroke-opacity:1">
		<line
   class="st0"
   x1="737"
   y1="1133.9"
   x2="680.29999"
   y2="1133.9"
   id="line88"
   style="stroke:#ff0000;stroke-opacity:1" />
	</g>
	<g
   id="LINE_1914_"
   style="stroke:#ff0000;stroke-opacity:1">
		<line
   class="st0"
   x1="283.5"
   y1="1105.5"
   x2="340.20001"
   y2="1105.5"
   id="line91"
   style="stroke:#ff0000;stroke-opacity:1" />
	</g>
	<g
   id="LINE_1913_"
   style="stroke:#ff0000;stroke-opacity:1">
		<line
   class="st0"
   x1="340.20001"
   y1="1105.5"
   x2="340.20001"
   y2="1133.9"
   id="line94"
   style="stroke:#ff0000;stroke-opacity:1" />
	</g>
	<g
   id="LINE_1912_"
   style="stroke:#ff0000;stroke-opacity:1">
		<line
   class="st0"
   x1="623.59998"
   y1="1133.9"
   x2="566.90002"
   y2="1133.9"
   id="line97"
   style="stroke:#ff0000;stroke-opacity:1" />
	</g>
	<g
   id="LINE_1911_"
   style="stroke:#ff0000;stroke-opacity:1">
		<line
   class="st0"
   x1="170.10001"
   y1="1105.5"
   x2="226.8"
   y2="1105.5"
   id="line100"
   style="stroke:#ff0000;stroke-opacity:1" />
	</g>
	<g
   id="LINE_1910_"
   style="stroke:#ff0000;stroke-opacity:1">
		<line
   class="st0"
   x1="340.20001"
   y1="0"
   x2="396.89999"
   y2="0"
   id="line103"
   style="stroke:#ff0000;stroke-opacity:1" />
	</g>
	<g
   id="LINE_1909_"
   style="stroke:#ff0000;stroke-opacity:1">
		<line
   class="st0"
   x1="113.4"
   y1="1105.5"
   x2="113.4"
   y2="1133.9"
   id="line106"
   style="stroke:#ff0000;stroke-opacity:1" />
	</g>
	<g
   id="LINE_1908_"
   style="stroke:#ff0000;stroke-opacity:1">
		<line
   class="st0"
   x1="737"
   y1="1133.9"
   x2="737"
   y2="1105.5"
   id="line109"
   style="stroke:#ff0000;stroke-opacity:1" />
	</g>
	<g
   id="LINE_1907_"
   style="stroke:#ff0000;stroke-opacity:1">
		<line
   class="st0"
   x1="850.40002"
   y1="1105.5"
   x2="737"
   y2="1105.5"
   id="line112"
   style="stroke:#ff0000;stroke-opacity:1" />
	</g>
	<g
   id="LINE_1906_"
   style="stroke:#ff0000;stroke-opacity:1">
		<line
   class="st0"
   x1="170.10001"
   y1="1133.9"
   x2="170.10001"
   y2="1105.5"
   id="line115"
   style="stroke:#ff0000;stroke-opacity:1" />
	</g>
	<g
   id="LINE_1905_"
   style="stroke:#ff0000;stroke-opacity:1">
		<line
   class="st0"
   x1="623.59998"
   y1="1133.9"
   x2="623.59998"
   y2="1105.5"
   id="line118"
   style="stroke:#ff0000;stroke-opacity:1" />
	</g>
	<g
   id="LINE_1904_"
   style="stroke:#ff0000;stroke-opacity:1">
		<line
   class="st0"
   x1="283.5"
   y1="1133.9"
   x2="283.5"
   y2="1105.5"
   id="line121"
   style="stroke:#ff0000;stroke-opacity:1" />
	</g>
	<g
   id="LINE_1903_"
   style="stroke:#ff0000;stroke-opacity:1">
		<line
   class="st0"
   x1="510.20001"
   y1="1133.9"
   x2="453.5"
   y2="1133.9"
   id="line124"
   style="stroke:#ff0000;stroke-opacity:1" />
	</g>
	<g
   id="LINE_1902_"
   style="stroke:#ff0000;stroke-opacity:1">
		<line
   class="st0"
   x1="510.20001"
   y1="28.299999"
   x2="510.20001"
   y2="0"
   id="line127"
   style="stroke:#ff0000;stroke-opacity:1" />
	</g>
	<g
   id="LINE_1901_"
   style="stroke:#ff0000;stroke-opacity:1">
		<line
   class="st0"
   x1="680.29999"
   y1="1105.5"
   x2="680.29999"
   y2="1133.9"
   id="line130"
   style="stroke:#ff0000;stroke-opacity:1" />
	</g>
	<g
   id="LINE_1900_"
   style="stroke:#ff0000;stroke-opacity:1">
		<line
   class="st0"
   x1="680.29999"
   y1="0"
   x2="737"
   y2="0"
   id="line133"
   style="stroke:#ff0000;stroke-opacity:1" />
	</g>
	<g
   id="LINE_1899_"
   style="stroke:#ff0000;stroke-opacity:1">
		<line
   class="st0"
   x1="113.4"
   y1="0"
   x2="170.10001"
   y2="0"
   id="line136"
   style="stroke:#ff0000;stroke-opacity:1" />
	</g>
	<g
   id="LINE_1898_"
   style="stroke:#ff0000;stroke-opacity:1">
		<line
   class="st0"
   x1="113.4"
   y1="0"
   x2="113.4"
   y2="28.299999"
   id="line139"
   style="stroke:#ff0000;stroke-opacity:1" />
	</g>
	<g
   id="LINE_1897_"
   style="stroke:#ff0000;stroke-opacity:1">
		<line
   class="st0"
   x1="510.20001"
   y1="1105.5"
   x2="566.90002"
   y2="1105.5"
   id="line142"
   style="stroke:#ff0000;stroke-opacity:1" />
	</g>
	<g
   id="LINE_1896_"
   style="stroke:#ff0000;stroke-opacity:1">
		<line
   class="st0"
   x1="396.89999"
   y1="1133.9"
   x2="340.20001"
   y2="1133.9"
   id="line145"
   style="stroke:#ff0000;stroke-opacity:1" />
	</g>
	<g
   id="LINE_1895_"
   style="stroke:#ff0000;stroke-opacity:1">
		<line
   class="st0"
   x1="396.89999"
   y1="1133.9"
   x2="396.89999"
   y2="1105.5"
   id="line148"
   style="stroke:#ff0000;stroke-opacity:1" />
	</g>
	<g
   id="LINE_1894_"
   style="stroke:#ff0000;stroke-opacity:1">
		<line
   class="st0"
   x1="0"
   y1="1105.5"
   x2="0"
   y2="28.299999"
   id="line151"
   style="stroke:#ff0000;stroke-opacity:1" />
	</g>
	<g
   id="LINE_1893_"
   style="stroke:#ff0000;stroke-opacity:1">
		<line
   class="st0"
   x1="510.20001"
   y1="1133.9"
   x2="510.20001"
   y2="1105.5"
   id="line154"
   style="stroke:#ff0000;stroke-opacity:1" />
	</g>
	<g
   id="LINE_1892_"
   style="stroke:#ff0000;stroke-opacity:1">
		<line
   class="st0"
   x1="566.90002"
   y1="1105.5"
   x2="566.90002"
   y2="1133.9"
   id="line157"
   style="stroke:#ff0000;stroke-opacity:1" />
	</g>
	<g
   id="LINE_1891_"
   style="stroke:#ff0000;stroke-opacity:1">
		<line
   class="st0"
   x1="566.90002"
   y1="0"
   x2="623.59998"
   y2="0"
   id="line160"
   style="stroke:#ff0000;stroke-opacity:1" />
	</g>
	<g
   id="LINE_1890_"
   style="stroke:#ff0000;stroke-opacity:1">
		<line
   class="st0"
   x1="566.90002"
   y1="28.299999"
   x2="510.20001"
   y2="28.299999"
   id="line163"
   style="stroke:#ff0000;stroke-opacity:1" />
	</g>
	<g
   id="LINE_1889_"
   style="stroke:#ff0000;stroke-opacity:1">
		<line
   class="st0"
   x1="170.10001"
   y1="28.299999"
   x2="170.10001"
   y2="0"
   id="line166"
   style="stroke:#ff0000;stroke-opacity:1" />
	</g>
	<g
   id="LINE_1888_"
   style="stroke:#ff0000;stroke-opacity:1">
		<line
   class="st0"
   x1="340.20001"
   y1="340.20001"
   x2="354.29999"
   y2="340.20001"
   id="line169"
   style="stroke:#ff0000;stroke-opacity:1" />
	</g>
	<g
   id="LINE_1887_"
   style="stroke:#ff0000;stroke-opacity:1">
		<line
   class="st0"
   x1="340.20001"
   y1="623.59998"
   x2="354.29999"
   y2="623.59998"
   id="line172"
   style="stroke:#ff0000;stroke-opacity:1" />
	</g>
	<g
   id="LINE_1886_"
   style="stroke:#ff0000;stroke-opacity:1">
		<line
   class="st0"
   x1="113.4"
   y1="212.60001"
   x2="113.4"
   y2="978"
   id="line175"
   style="stroke:#ff0000;stroke-opacity:1" />
	</g>
	<g
   id="LINE_1885_"
   style="stroke:#ff0000;stroke-opacity:1">
		<line
   class="st0"
   x1="340.20001"
   y1="340.20001"
   x2="340.20001"
   y2="212.60001"
   id="line178"
   style="stroke:#ff0000;stroke-opacity:1" />
	</g>
	<g
   id="LINE_1884_"
   style="stroke:#ff0000;stroke-opacity:1">
		<line
   class="st0"
   x1="340.20001"
   y1="212.60001"
   x2="311.79999"
   y2="212.60001"
   id="line181"
   style="stroke:#ff0000;stroke-opacity:1" />
	</g>
	<g
   id="LINE_1883_"
   style="stroke:#ff0000;stroke-opacity:1">
		<line
   class="st0"
   x1="340.20001"
   y1="793.70001"
   x2="354.29999"
   y2="793.70001"
   id="line184"
   style="stroke:#ff0000;stroke-opacity:1" />
	</g>
	<g
   id="LINE_1882_"
   style="stroke:#ff0000;stroke-opacity:1">
		<line
   class="st0"
   x1="311.79999"
   y1="212.60001"
   x2="311.79999"
   y2="198.39999"
   id="line187"
   style="stroke:#ff0000;stroke-opacity:1" />
	</g>
	<g
   id="LINE_1881_"
   style="stroke:#ff0000;stroke-opacity:1">
		<line
   class="st0"
   x1="340.20001"
   y1="793.70001"
   x2="340.20001"
   y2="623.59998"
   id="line190"
   style="stroke:#ff0000;stroke-opacity:1" />
	</g>
	<g
   id="LINE_1880_"
   style="stroke:#ff0000;stroke-opacity:1">
		<line
   class="st0"
   x1="255.10001"
   y1="212.60001"
   x2="198.39999"
   y2="212.60001"
   id="line193"
   style="stroke:#ff0000;stroke-opacity:1" />
	</g>
	<g
   id="LINE_1879_"
   style="stroke:#ff0000;stroke-opacity:1">
		<line
   class="st0"
   x1="141.7"
   y1="212.60001"
   x2="141.7"
   y2="198.39999"
   id="line196"
   style="stroke:#ff0000;stroke-opacity:1" />
	</g>
	<g
   id="LINE_1878_"
   style="stroke:#ff0000;stroke-opacity:1">
		<line
   class="st0"
   x1="255.10001"
   y1="212.60001"
   x2="255.10001"
   y2="198.39999"
   id="line199"
   style="stroke:#ff0000;stroke-opacity:1" />
	</g>
	<g
   id="LINE_1877_"
   style="stroke:#ff0000;stroke-opacity:1">
		<line
   class="st0"
   x1="340.20001"
   y1="396.89999"
   x2="354.29999"
   y2="396.89999"
   id="line202"
   style="stroke:#ff0000;stroke-opacity:1" />
	</g>
	<g
   id="LINE_1876_"
   style="stroke:#ff0000;stroke-opacity:1">
		<line
   class="st0"
   x1="141.7"
   y1="992.09998"
   x2="198.39999"
   y2="992.09998"
   id="line205"
   style="stroke:#ff0000;stroke-opacity:1" />
	</g>
	<g
   id="LINE_1875_"
   style="stroke:#ff0000;stroke-opacity:1">
		<line
   class="st0"
   x1="255.10001"
   y1="992.09998"
   x2="311.79999"
   y2="992.09998"
   id="line208"
   style="stroke:#ff0000;stroke-opacity:1" />
	</g>
	<g
   id="LINE_1874_"
   style="stroke:#ff0000;stroke-opacity:1">
		<line
   class="st0"
   x1="198.39999"
   y1="978"
   x2="198.39999"
   y2="992.09998"
   id="line211"
   style="stroke:#ff0000;stroke-opacity:1" />
	</g>
	<g
   id="LINE_1873_"
   style="stroke:#ff0000;stroke-opacity:1">
		<line
   class="st0"
   x1="311.79999"
   y1="198.39999"
   x2="255.10001"
   y2="198.39999"
   id="line214"
   style="stroke:#ff0000;stroke-opacity:1" />
	</g>
	<g
   id="LINE_1872_"
   style="stroke:#ff0000;stroke-opacity:1">
		<line
   class="st0"
   x1="141.7"
   y1="978"
   x2="141.7"
   y2="992.09998"
   id="line217"
   style="stroke:#ff0000;stroke-opacity:1" />
	</g>
	<g
   id="LINE_1871_"
   style="stroke:#ff0000;stroke-opacity:1">
		<line
   class="st0"
   x1="311.79999"
   y1="978"
   x2="340.20001"
   y2="978"
   id="line220"
   style="stroke:#ff0000;stroke-opacity:1" />
	</g>
	<g
   id="LINE_1870_"
   style="stroke:#ff0000;stroke-opacity:1">
		<line
   class="st0"
   x1="340.20001"
   y1="850.40002"
   x2="354.29999"
   y2="850.40002"
   id="line223"
   style="stroke:#ff0000;stroke-opacity:1" />
	</g>
	<g
   id="LINE_1869_"
   style="stroke:#ff0000;stroke-opacity:1">
		<line
   class="st0"
   x1="141.7"
   y1="212.60001"
   x2="113.4"
   y2="212.60001"
   id="line226"
   style="stroke:#ff0000;stroke-opacity:1" />
	</g>
	<g
   id="LINE_1868_"
   style="stroke:#ff0000;stroke-opacity:1">
		<line
   class="st0"
   x1="198.39999"
   y1="198.39999"
   x2="141.7"
   y2="198.39999"
   id="line229"
   style="stroke:#ff0000;stroke-opacity:1" />
	</g>
	<g
   id="LINE_1867_"
   style="stroke:#ff0000;stroke-opacity:1">
		<line
   class="st0"
   x1="255.10001"
   y1="978"
   x2="255.10001"
   y2="992.09998"
   id="line232"
   style="stroke:#ff0000;stroke-opacity:1" />
	</g>
	<g
   id="LINE_1866_"
   style="stroke:#ff0000;stroke-opacity:1">
		<line
   class="st0"
   x1="340.20001"
   y1="566.90002"
   x2="354.29999"
   y2="566.90002"
   id="line235"
   style="stroke:#ff0000;stroke-opacity:1" />
	</g>
	<g
   id="LINE_1865_"
   style="stroke:#ff0000;stroke-opacity:1">
		<line
   class="st0"
   x1="198.39999"
   y1="212.60001"
   x2="198.39999"
   y2="198.39999"
   id="line238"
   style="stroke:#ff0000;stroke-opacity:1" />
	</g>
	<g
   id="LINE_1864_"
   style="stroke:#ff0000;stroke-opacity:1">
		<line
   class="st0"
   x1="340.20001"
   y1="978"
   x2="340.20001"
   y2="850.40002"
   id="line241"
   style="stroke:#ff0000;stroke-opacity:1" />
	</g>
	<g
   id="LINE_1863_"
   style="stroke:#ff0000;stroke-opacity:1">
		<line
   class="st0"
   x1="311.79999"
   y1="978"
   x2="311.79999"
   y2="992.09998"
   id="line244"
   style="stroke:#ff0000;stroke-opacity:1" />
	</g>
	<g
   id="LINE_1862_"
   style="stroke:#ff0000;stroke-opacity:1">
		<line
   class="st0"
   x1="113.4"
   y1="978"
   x2="141.7"
   y2="978"
   id="line247"
   style="stroke:#ff0000;stroke-opacity:1" />
	</g>
	<g
   id="LINE_1861_"
   style="stroke:#ff0000;stroke-opacity:1">
		<line
   class="st0"
   x1="340.20001"
   y1="566.90002"
   x2="340.20001"
   y2="396.89999"
   id="line250"
   style="stroke:#ff0000;stroke-opacity:1" />
	</g>
	<g
   id="LINE_1860_"
   style="stroke:#ff0000;stroke-opacity:1">
		<line
   class="st0"
   x1="354.29999"
   y1="396.89999"
   x2="354.29999"
   y2="340.20001"
   id="line253"
   style="stroke:#ff0000;stroke-opacity:1" />
	</g>
	<g
   id="LINE_1859_"
   style="stroke:#ff0000;stroke-opacity:1">
		<line
   class="st0"
   x1="198.39999"
   y1="978"
   x2="255.10001"
   y2="978"
   id="line256"
   style="stroke:#ff0000;stroke-opacity:1" />
	</g>
	<g
   id="LINE_1858_"
   style="stroke:#ff0000;stroke-opacity:1">
		<line
   class="st0"
   x1="708.70001"
   y1="907.09998"
   x2="538.59998"
   y2="907.09998"
   id="line259"
   style="stroke:#ff0000;stroke-opacity:1" />
	</g>
	<g
   id="LINE_1857_"
   style="stroke:#ff0000;stroke-opacity:1">
		<line
   class="st0"
   x1="538.59998"
   y1="992.09998"
   x2="737"
   y2="992.09998"
   id="line262"
   style="stroke:#ff0000;stroke-opacity:1" />
	</g>
	<g
   id="LINE_1856_"
   style="stroke:#ff0000;stroke-opacity:1">
		<line
   class="st0"
   x1="510.20001"
   y1="566.90002"
   x2="510.20001"
   y2="595.29999"
   id="line265"
   style="stroke:#ff0000;stroke-opacity:1" />
	</g>
	<g
   id="LINE_1855_"
   style="stroke:#ff0000;stroke-opacity:1">
		<line
   class="st0"
   x1="538.59998"
   y1="907.09998"
   x2="538.59998"
   y2="992.09998"
   id="line268"
   style="stroke:#ff0000;stroke-opacity:1" />
	</g>
	<g
   id="LINE_1854_"
   style="stroke:#ff0000;stroke-opacity:1">
		<line
   class="st0"
   x1="737"
   y1="566.90002"
   x2="510.20001"
   y2="566.90002"
   id="line271"
   style="stroke:#ff0000;stroke-opacity:1" />
	</g>
	<g
   id="LINE_1853_"
   style="stroke:#ff0000;stroke-opacity:1">
		<line
   class="st0"
   x1="538.59998"
   y1="751.20001"
   x2="538.59998"
   y2="779.5"
   id="line274"
   style="stroke:#ff0000;stroke-opacity:1" />
	</g>
	<g
   id="LINE_1852_"
   style="stroke:#ff0000;stroke-opacity:1">
		<line
   class="st0"
   x1="538.59998"
   y1="779.5"
   x2="595.29999"
   y2="779.5"
   id="line277"
   style="stroke:#ff0000;stroke-opacity:1" />
	</g>
	<g
   id="LINE_1851_"
   style="stroke:#ff0000;stroke-opacity:1">
		<line
   class="st0"
   x1="595.29999"
   y1="779.5"
   x2="595.29999"
   y2="793.70001"
   id="line280"
   style="stroke:#ff0000;stroke-opacity:1" />
	</g>
	<g
   id="LINE_1850_"
   style="stroke:#ff0000;stroke-opacity:1">
		<line
   class="st0"
   x1="595.29999"
   y1="793.70001"
   x2="708.70001"
   y2="793.70001"
   id="line283"
   style="stroke:#ff0000;stroke-opacity:1" />
	</g>
	<g
   id="LINE_1849_"
   style="stroke:#ff0000;stroke-opacity:1">
		<line
   class="st0"
   x1="708.70001"
   y1="722.79999"
   x2="708.70001"
   y2="793.70001"
   id="line286"
   style="stroke:#ff0000;stroke-opacity:1" />
	</g>
	<g
   id="LINE_1848_"
   style="stroke:#ff0000;stroke-opacity:1">
		<line
   class="st0"
   x1="595.29999"
   y1="751.20001"
   x2="595.29999"
   y2="722.79999"
   id="line289"
   style="stroke:#ff0000;stroke-opacity:1" />
	</g>
	<g
   id="LINE_1847_"
   style="stroke:#ff0000;stroke-opacity:1">
		<line
   class="st0"
   x1="538.59998"
   y1="751.20001"
   x2="595.29999"
   y2="751.20001"
   id="line292"
   style="stroke:#ff0000;stroke-opacity:1" />
	</g>
	<g
   id="LINE_1846_"
   style="stroke:#ff0000;stroke-opacity:1">
		<line
   class="st0"
   x1="538.59998"
   y1="892.90002"
   x2="538.59998"
   y2="907.09998"
   id="line295"
   style="stroke:#ff0000;stroke-opacity:1" />
	</g>
	<g
   id="LINE_1845_"
   style="stroke:#ff0000;stroke-opacity:1">
		<line
   class="st0"
   x1="524.40002"
   y1="878.70001"
   x2="524.40002"
   y2="892.90002"
   id="line298"
   style="stroke:#ff0000;stroke-opacity:1" />
	</g>
	<g
   id="LINE_1844_"
   style="stroke:#ff0000;stroke-opacity:1">
		<line
   class="st0"
   x1="538.59998"
   y1="892.90002"
   x2="524.40002"
   y2="892.90002"
   id="line301"
   style="stroke:#ff0000;stroke-opacity:1" />
	</g>
	<g
   id="LINE_1843_"
   style="stroke:#ff0000;stroke-opacity:1">
		<line
   class="st0"
   x1="708.70001"
   y1="850.40002"
   x2="538.59998"
   y2="850.40002"
   id="line304"
   style="stroke:#ff0000;stroke-opacity:1" />
	</g>
	<g
   id="LINE_1842_"
   style="stroke:#ff0000;stroke-opacity:1">
		<line
   class="st0"
   x1="708.70001"
   y1="907.09998"
   x2="708.70001"
   y2="850.40002"
   id="line307"
   style="stroke:#ff0000;stroke-opacity:1" />
	</g>
	<g
   id="LINE_1841_"
   style="stroke:#ff0000;stroke-opacity:1">
		<line
   class="st0"
   x1="538.59998"
   y1="850.40002"
   x2="538.59998"
   y2="878.70001"
   id="line310"
   style="stroke:#ff0000;stroke-opacity:1" />
	</g>
	<g
   id="LINE_1840_"
   style="stroke:#ff0000;stroke-opacity:1">
		<line
   class="st0"
   x1="538.59998"
   y1="878.70001"
   x2="524.40002"
   y2="878.70001"
   id="line313"
   style="stroke:#ff0000;stroke-opacity:1" />
	</g>
	<g
   id="LINE_1839_"
   style="stroke:#ff0000;stroke-opacity:1">
		<line
   class="st0"
   x1="708.70001"
   y1="850.40002"
   x2="708.70001"
   y2="793.70001"
   id="line316"
   style="stroke:#ff0000;stroke-opacity:1" />
	</g>
	<g
   id="LINE_1838_"
   style="stroke:#ff0000;stroke-opacity:1">
		<line
   class="st0"
   x1="538.59998"
   y1="793.70001"
   x2="538.59998"
   y2="850.40002"
   id="line319"
   style="stroke:#ff0000;stroke-opacity:1" />
	</g>
	<g
   id="LINE_1837_"
   style="stroke:#ff0000;stroke-opacity:1">
		<line
   class="st0"
   x1="382.70001"
   y1="354.29999"
   x2="382.70001"
   y2="382.70001"
   id="line322"
   style="stroke:#ff0000;stroke-opacity:1" />
	</g>
	<g
   id="LINE_1836_"
   style="stroke:#ff0000;stroke-opacity:1">
		<line
   class="st0"
   x1="382.70001"
   y1="354.29999"
   x2="368.5"
   y2="354.29999"
   id="line325"
   style="stroke:#ff0000;stroke-opacity:1" />
	</g>
	<g
   id="LINE_1835_"
   style="stroke:#ff0000;stroke-opacity:1">
		<line
   class="st0"
   x1="722.79999"
   y1="297.60001"
   x2="737"
   y2="297.60001"
   id="line328"
   style="stroke:#ff0000;stroke-opacity:1" />
	</g>
	<g
   id="LINE_1834_"
   style="stroke:#ff0000;stroke-opacity:1">
		<line
   class="st0"
   x1="722.79999"
   y1="269.29999"
   x2="382.70001"
   y2="269.29999"
   id="line331"
   style="stroke:#ff0000;stroke-opacity:1" />
	</g>
	<g
   id="LINE_1833_"
   style="stroke:#ff0000;stroke-opacity:1">
		<line
   class="st0"
   x1="382.70001"
   y1="269.29999"
   x2="382.70001"
   y2="297.60001"
   id="line334"
   style="stroke:#ff0000;stroke-opacity:1" />
	</g>
	<g
   id="LINE_1832_"
   style="stroke:#ff0000;stroke-opacity:1">
		<line
   class="st0"
   x1="496.10001"
   y1="382.70001"
   x2="496.10001"
   y2="396.89999"
   id="line337"
   style="stroke:#ff0000;stroke-opacity:1" />
	</g>
	<g
   id="LINE_1831_"
   style="stroke:#ff0000;stroke-opacity:1">
		<line
   class="st0"
   x1="609.40002"
   y1="382.70001"
   x2="609.40002"
   y2="396.89999"
   id="line340"
   style="stroke:#ff0000;stroke-opacity:1" />
	</g>
	<g
   id="LINE_1830_"
   style="stroke:#ff0000;stroke-opacity:1">
		<line
   class="st0"
   x1="722.79999"
   y1="354.29999"
   x2="737"
   y2="354.29999"
   id="line343"
   style="stroke:#ff0000;stroke-opacity:1" />
	</g>
	<g
   id="LINE_1829_"
   style="stroke:#ff0000;stroke-opacity:1">
		<line
   class="st0"
   x1="382.70001"
   y1="297.60001"
   x2="368.5"
   y2="297.60001"
   id="line346"
   style="stroke:#ff0000;stroke-opacity:1" />
	</g>
	<g
   id="LINE_1828_"
   style="stroke:#ff0000;stroke-opacity:1">
		<line
   class="st0"
   x1="496.10001"
   y1="382.70001"
   x2="609.40002"
   y2="382.70001"
   id="line349"
   style="stroke:#ff0000;stroke-opacity:1" />
	</g>
	<g
   id="LINE_1827_"
   style="stroke:#ff0000;stroke-opacity:1">
		<line
   class="st0"
   x1="439.39999"
   y1="382.70001"
   x2="439.39999"
   y2="396.89999"
   id="line352"
   style="stroke:#ff0000;stroke-opacity:1" />
	</g>
	<g
   id="LINE_1826_"
   style="stroke:#ff0000;stroke-opacity:1">
		<line
   class="st0"
   x1="368.5"
   y1="297.60001"
   x2="368.5"
   y2="354.29999"
   id="line355"
   style="stroke:#ff0000;stroke-opacity:1" />
	</g>
	<g
   id="LINE_1825_"
   style="stroke:#ff0000;stroke-opacity:1">
		<line
   class="st0"
   x1="722.79999"
   y1="382.70001"
   x2="722.79999"
   y2="354.29999"
   id="line358"
   style="stroke:#ff0000;stroke-opacity:1" />
	</g>
	<g
   id="LINE_1824_"
   style="stroke:#ff0000;stroke-opacity:1">
		<line
   class="st0"
   x1="382.70001"
   y1="382.70001"
   x2="439.39999"
   y2="382.70001"
   id="line361"
   style="stroke:#ff0000;stroke-opacity:1" />
	</g>
	<g
   id="LINE_1823_"
   style="stroke:#ff0000;stroke-opacity:1">
		<line
   class="st0"
   x1="439.39999"
   y1="396.89999"
   x2="496.10001"
   y2="396.89999"
   id="line364"
   style="stroke:#ff0000;stroke-opacity:1" />
	</g>
	<g
   id="LINE_1822_"
   style="stroke:#ff0000;stroke-opacity:1">
		<line
   class="st0"
   x1="609.40002"
   y1="396.89999"
   x2="666.09998"
   y2="396.89999"
   id="line367"
   style="stroke:#ff0000;stroke-opacity:1" />
	</g>
	<g
   id="LINE_1821_"
   style="stroke:#ff0000;stroke-opacity:1">
		<line
   class="st0"
   x1="666.09998"
   y1="382.70001"
   x2="666.09998"
   y2="396.89999"
   id="line370"
   style="stroke:#ff0000;stroke-opacity:1" />
	</g>
	<g
   id="LINE_1820_"
   style="stroke:#ff0000;stroke-opacity:1">
		<line
   class="st0"
   x1="666.09998"
   y1="382.70001"
   x2="722.79999"
   y2="382.70001"
   id="line373"
   style="stroke:#ff0000;stroke-opacity:1" />
	</g>
	<g
   id="LINE_1819_"
   style="stroke:#ff0000;stroke-opacity:1">
		<line
   class="st0"
   x1="737"
   y1="354.29999"
   x2="737"
   y2="297.60001"
   id="line376"
   style="stroke:#ff0000;stroke-opacity:1" />
	</g>
	<g
   id="LINE_1818_"
   style="stroke:#ff0000;stroke-opacity:1">
		<line
   class="st0"
   x1="722.79999"
   y1="297.60001"
   x2="722.79999"
   y2="269.29999"
   id="line379"
   style="stroke:#ff0000;stroke-opacity:1" />
	</g>
	<g
   id="LINE_1817_"
   style="stroke:#ff0000;stroke-opacity:1">
		<line
   class="st0"
   x1="722.79999"
   y1="269.29999"
   x2="722.79999"
   y2="240.89999"
   id="line382"
   style="stroke:#ff0000;stroke-opacity:1" />
	</g>
	<g
   id="LINE_1816_"
   style="stroke:#ff0000;stroke-opacity:1">
		<line
   class="st0"
   x1="722.79999"
   y1="240.89999"
   x2="737"
   y2="240.89999"
   id="line385"
   style="stroke:#ff0000;stroke-opacity:1" />
	</g>
	<g
   id="LINE_1815_"
   style="stroke:#ff0000;stroke-opacity:1">
		<line
   class="st0"
   x1="737"
   y1="240.89999"
   x2="737"
   y2="184.3"
   id="line388"
   style="stroke:#ff0000;stroke-opacity:1" />
	</g>
	<g
   id="LINE_1814_"
   style="stroke:#ff0000;stroke-opacity:1">
		<line
   class="st0"
   x1="722.79999"
   y1="184.3"
   x2="737"
   y2="184.3"
   id="line391"
   style="stroke:#ff0000;stroke-opacity:1" />
	</g>
	<g
   id="LINE_1813_"
   style="stroke:#ff0000;stroke-opacity:1">
		<line
   class="st0"
   x1="722.79999"
   y1="184.3"
   x2="722.79999"
   y2="155.89999"
   id="line394"
   style="stroke:#ff0000;stroke-opacity:1" />
	</g>
	<g
   id="LINE_1812_"
   style="stroke:#ff0000;stroke-opacity:1">
		<line
   class="st0"
   x1="722.79999"
   y1="155.89999"
   x2="666.09998"
   y2="155.89999"
   id="line397"
   style="stroke:#ff0000;stroke-opacity:1" />
	</g>
	<g
   id="LINE_1811_"
   style="stroke:#ff0000;stroke-opacity:1">
		<line
   class="st0"
   x1="666.09998"
   y1="155.89999"
   x2="666.09998"
   y2="141.7"
   id="line400"
   style="stroke:#ff0000;stroke-opacity:1" />
	</g>
	<g
   id="LINE_1810_"
   style="stroke:#ff0000;stroke-opacity:1">
		<line
   class="st0"
   x1="666.09998"
   y1="141.7"
   x2="609.40002"
   y2="141.7"
   id="line403"
   style="stroke:#ff0000;stroke-opacity:1" />
	</g>
	<g
   id="LINE_1809_"
   style="stroke:#ff0000;stroke-opacity:1">
		<line
   class="st0"
   x1="609.40002"
   y1="155.89999"
   x2="609.40002"
   y2="141.7"
   id="line406"
   style="stroke:#ff0000;stroke-opacity:1" />
	</g>
	<g
   id="LINE_1808_"
   style="stroke:#ff0000;stroke-opacity:1">
		<line
   class="st0"
   x1="609.40002"
   y1="155.89999"
   x2="496.10001"
   y2="155.89999"
   id="line409"
   style="stroke:#ff0000;stroke-opacity:1" />
	</g>
	<g
   id="LINE_1807_"
   style="stroke:#ff0000;stroke-opacity:1">
		<line
   class="st0"
   x1="496.10001"
   y1="155.89999"
   x2="496.10001"
   y2="141.7"
   id="line412"
   style="stroke:#ff0000;stroke-opacity:1" />
	</g>
	<g
   id="LINE_1806_"
   style="stroke:#ff0000;stroke-opacity:1">
		<line
   class="st0"
   x1="496.10001"
   y1="141.7"
   x2="439.39999"
   y2="141.7"
   id="line415"
   style="stroke:#ff0000;stroke-opacity:1" />
	</g>
	<g
   id="LINE_1805_"
   style="stroke:#ff0000;stroke-opacity:1">
		<line
   class="st0"
   x1="439.39999"
   y1="155.89999"
   x2="439.39999"
   y2="141.7"
   id="line418"
   style="stroke:#ff0000;stroke-opacity:1" />
	</g>
	<g
   id="LINE_1804_"
   style="stroke:#ff0000;stroke-opacity:1">
		<line
   class="st0"
   x1="439.39999"
   y1="155.89999"
   x2="382.70001"
   y2="155.89999"
   id="line421"
   style="stroke:#ff0000;stroke-opacity:1" />
	</g>
	<g
   id="LINE_1803_"
   style="stroke:#ff0000;stroke-opacity:1">
		<line
   class="st0"
   x1="382.70001"
   y1="155.89999"
   x2="382.70001"
   y2="184.3"
   id="line424"
   style="stroke:#ff0000;stroke-opacity:1" />
	</g>
	<g
   id="LINE_1802_"
   style="stroke:#ff0000;stroke-opacity:1">
		<line
   class="st0"
   x1="382.70001"
   y1="184.3"
   x2="368.5"
   y2="184.3"
   id="line427"
   style="stroke:#ff0000;stroke-opacity:1" />
	</g>
	<g
   id="LINE_1801_"
   style="stroke:#ff0000;stroke-opacity:1">
		<line
   class="st0"
   x1="368.5"
   y1="184.3"
   x2="368.5"
   y2="240.89999"
   id="line430"
   style="stroke:#ff0000;stroke-opacity:1" />
	</g>
	<g
   id="LINE_1800_"
   style="stroke:#ff0000;stroke-opacity:1">
		<line
   class="st0"
   x1="382.70001"
   y1="240.89999"
   x2="368.5"
   y2="240.89999"
   id="line433"
   style="stroke:#ff0000;stroke-opacity:1" />
	</g>
	<g
   id="LINE_1799_"
   style="stroke:#ff0000;stroke-opacity:1">
		<line
   class="st0"
   x1="382.70001"
   y1="240.89999"
   x2="382.70001"
   y2="269.29999"
   id="line436"
   style="stroke:#ff0000;stroke-opacity:1" />
	</g>
	<g
   id="LINE_1798_"
   style="stroke:#ff0000;stroke-opacity:1">
		<line
   class="st0"
   x1="609.40002"
   y1="609.40002"
   x2="609.40002"
   y2="708.70001"
   id="line439"
   style="stroke:#ff0000;stroke-opacity:1" />
	</g>
	<g
   id="LINE_1797_"
   style="stroke:#ff0000;stroke-opacity:1">
		<line
   class="st0"
   x1="609.40002"
   y1="609.40002"
   x2="595.29999"
   y2="609.40002"
   id="line442"
   style="stroke:#ff0000;stroke-opacity:1" />
	</g>
	<g
   id="LINE_1796_"
   style="stroke:#ff0000;stroke-opacity:1">
		<line
   class="st0"
   x1="595.29999"
   y1="595.29999"
   x2="595.29999"
   y2="609.40002"
   id="line445"
   style="stroke:#ff0000;stroke-opacity:1" />
	</g>
	<g
   id="LINE_1795_"
   style="stroke:#ff0000;stroke-opacity:1">
		<line
   class="st0"
   x1="652"
   y1="722.79999"
   x2="637.79999"
   y2="722.79999"
   id="line448"
   style="stroke:#ff0000;stroke-opacity:1" />
	</g>
	<g
   id="LINE_1794_"
   style="stroke:#ff0000;stroke-opacity:1">
		<line
   class="st0"
   x1="637.79999"
   y1="708.70001"
   x2="637.79999"
   y2="722.79999"
   id="line451"
   style="stroke:#ff0000;stroke-opacity:1" />
	</g>
	<g
   id="LINE_1793_"
   style="stroke:#ff0000;stroke-opacity:1">
		<line
   class="st0"
   x1="637.79999"
   y1="708.70001"
   x2="609.40002"
   y2="708.70001"
   id="line454"
   style="stroke:#ff0000;stroke-opacity:1" />
	</g>
	<g
   id="LINE_1792_"
   style="stroke:#ff0000;stroke-opacity:1">
		<line
   class="st0"
   x1="652"
   y1="595.29999"
   x2="595.29999"
   y2="595.29999"
   id="line457"
   style="stroke:#ff0000;stroke-opacity:1" />
	</g>
	<g
   id="LINE_1791_"
   style="stroke:#ff0000;stroke-opacity:1">
		<line
   class="st0"
   x1="652"
   y1="595.29999"
   x2="652"
   y2="722.79999"
   id="line460"
   style="stroke:#ff0000;stroke-opacity:1" />
	</g>
	<g
   id="LINE_1790_"
   style="stroke:#ff0000;stroke-opacity:1">
		<line
   class="st0"
   x1="708.70001"
   y1="595.29999"
   x2="708.70001"
   y2="609.40002"
   id="line463"
   style="stroke:#ff0000;stroke-opacity:1" />
	</g>
	<g
   id="LINE_1789_"
   style="stroke:#ff0000;stroke-opacity:1">
		<line
   class="st0"
   x1="666.09998"
   y1="708.70001"
   x2="694.5"
   y2="708.70001"
   id="line466"
   style="stroke:#ff0000;stroke-opacity:1" />
	</g>
	<g
   id="LINE_1788_"
   style="stroke:#ff0000;stroke-opacity:1">
		<line
   class="st0"
   x1="652"
   y1="595.29999"
   x2="708.70001"
   y2="595.29999"
   id="line469"
   style="stroke:#ff0000;stroke-opacity:1" />
	</g>
	<g
   id="LINE_1787_"
   style="stroke:#ff0000;stroke-opacity:1">
		<line
   class="st0"
   x1="652"
   y1="722.79999"
   x2="666.09998"
   y2="722.79999"
   id="line472"
   style="stroke:#ff0000;stroke-opacity:1" />
	</g>
	<g
   id="LINE_1786_"
   style="stroke:#ff0000;stroke-opacity:1">
		<line
   class="st0"
   x1="694.5"
   y1="609.40002"
   x2="694.5"
   y2="708.70001"
   id="line475"
   style="stroke:#ff0000;stroke-opacity:1" />
	</g>
	<g
   id="LINE_1785_"
   style="stroke:#ff0000;stroke-opacity:1">
		<line
   class="st0"
   x1="694.5"
   y1="609.40002"
   x2="708.70001"
   y2="609.40002"
   id="line478"
   style="stroke:#ff0000;stroke-opacity:1" />
	</g>
	<g
   id="LINE_1784_"
   style="stroke:#ff0000;stroke-opacity:1">
		<line
   class="st0"
   x1="666.09998"
   y1="708.70001"
   x2="666.09998"
   y2="722.79999"
   id="line481"
   style="stroke:#ff0000;stroke-opacity:1" />
	</g>
	<g
   id="LINE_1783_"
   style="stroke:#ff0000;stroke-opacity:1">
		<line
   class="st0"
   x1="496.10001"
   y1="609.40002"
   x2="496.10001"
   y2="708.70001"
   id="line484"
   style="stroke:#ff0000;stroke-opacity:1" />
	</g>
	<g
   id="LINE_1782_"
   style="stroke:#ff0000;stroke-opacity:1">
		<line
   class="st0"
   x1="496.10001"
   y1="609.40002"
   x2="481.89999"
   y2="609.40002"
   id="line487"
   style="stroke:#ff0000;stroke-opacity:1" />
	</g>
	<g
   id="LINE_1781_"
   style="stroke:#ff0000;stroke-opacity:1">
		<line
   class="st0"
   x1="481.89999"
   y1="595.29999"
   x2="481.89999"
   y2="609.40002"
   id="line490"
   style="stroke:#ff0000;stroke-opacity:1" />
	</g>
	<g
   id="LINE_1780_"
   style="stroke:#ff0000;stroke-opacity:1">
		<line
   class="st0"
   x1="538.59998"
   y1="722.79999"
   x2="524.40002"
   y2="722.79999"
   id="line493"
   style="stroke:#ff0000;stroke-opacity:1" />
	</g>
	<g
   id="LINE_1779_"
   style="stroke:#ff0000;stroke-opacity:1">
		<line
   class="st0"
   x1="524.40002"
   y1="708.70001"
   x2="524.40002"
   y2="722.79999"
   id="line496"
   style="stroke:#ff0000;stroke-opacity:1" />
	</g>
	<g
   id="LINE_1778_"
   style="stroke:#ff0000;stroke-opacity:1">
		<line
   class="st0"
   x1="524.40002"
   y1="708.70001"
   x2="496.10001"
   y2="708.70001"
   id="line499"
   style="stroke:#ff0000;stroke-opacity:1" />
	</g>
	<g
   id="LINE_1777_"
   style="stroke:#ff0000;stroke-opacity:1">
		<line
   class="st0"
   x1="538.59998"
   y1="595.29999"
   x2="538.59998"
   y2="722.79999"
   id="line502"
   style="stroke:#ff0000;stroke-opacity:1" />
	</g>
	<g
   id="LINE_1776_"
   style="stroke:#ff0000;stroke-opacity:1">
		<line
   class="st0"
   x1="552.79999"
   y1="708.70001"
   x2="581.09998"
   y2="708.70001"
   id="line505"
   style="stroke:#ff0000;stroke-opacity:1" />
	</g>
	<g
   id="LINE_1775_"
   style="stroke:#ff0000;stroke-opacity:1">
		<line
   class="st0"
   x1="538.59998"
   y1="595.29999"
   x2="595.29999"
   y2="595.29999"
   id="line508"
   style="stroke:#ff0000;stroke-opacity:1" />
	</g>
	<g
   id="LINE_1774_"
   style="stroke:#ff0000;stroke-opacity:1">
		<line
   class="st0"
   x1="538.59998"
   y1="722.79999"
   x2="552.79999"
   y2="722.79999"
   id="line511"
   style="stroke:#ff0000;stroke-opacity:1" />
	</g>
	<g
   id="LINE_1773_"
   style="stroke:#ff0000;stroke-opacity:1">
		<line
   class="st0"
   x1="581.09998"
   y1="609.40002"
   x2="581.09998"
   y2="708.70001"
   id="line514"
   style="stroke:#ff0000;stroke-opacity:1" />
	</g>
	<g
   id="LINE_1772_"
   style="stroke:#ff0000;stroke-opacity:1">
		<line
   class="st0"
   x1="581.09998"
   y1="609.40002"
   x2="595.29999"
   y2="609.40002"
   id="line517"
   style="stroke:#ff0000;stroke-opacity:1" />
	</g>
	<g
   id="LINE_1771_"
   style="stroke:#ff0000;stroke-opacity:1">
		<line
   class="st0"
   x1="552.79999"
   y1="708.70001"
   x2="552.79999"
   y2="722.79999"
   id="line520"
   style="stroke:#ff0000;stroke-opacity:1" />
	</g>
	<g
   id="LINE_1770_"
   style="stroke:#ff0000;stroke-opacity:1">
		<line
   class="st0"
   x1="354.29999"
   y1="725.70001"
   x2="354.29999"
   y2="632.09998"
   id="line523"
   style="stroke:#ff0000;stroke-opacity:1" />
	</g>
	<g
   id="LINE_1768_"
   style="stroke:#ff0000;stroke-opacity:1">
		<line
   class="st0"
   x1="425.20001"
   y1="725.70001"
   x2="425.20001"
   y2="632.09998"
   id="line526"
   style="stroke:#ff0000;stroke-opacity:1" />
	</g>
	<g
   id="LINE_1766_"
   style="stroke:#ff0000;stroke-opacity:1">
		<line
   class="st0"
   x1="425.20001"
   y1="963.79999"
   x2="425.20001"
   y2="912.79999"
   id="line529"
   style="stroke:#ff0000;stroke-opacity:1" />
	</g>
	<g
   id="LINE_1764_"
   style="stroke:#ff0000;stroke-opacity:1">
		<line
   class="st0"
   x1="354.29999"
   y1="963.79999"
   x2="354.29999"
   y2="912.79999"
   id="line532"
   style="stroke:#ff0000;stroke-opacity:1" />
	</g>
	<g
   id="LINE_1763_"
   style="stroke:#ff0000;stroke-opacity:1">
		<line
   class="st0"
   x1="354.29999"
   y1="963.79999"
   x2="382.70001"
   y2="992.09998"
   id="line535"
   style="stroke:#ff0000;stroke-opacity:1" />
	</g>
	<g
   id="LINE_1762_"
   style="stroke:#ff0000;stroke-opacity:1">
		<line
   class="st0"
   x1="396.89999"
   y1="992.09998"
   x2="382.70001"
   y2="992.09998"
   id="line538"
   style="stroke:#ff0000;stroke-opacity:1" />
	</g>
	<g
   id="LINE_1761_"
   style="stroke:#ff0000;stroke-opacity:1">
		<line
   class="st0"
   x1="396.89999"
   y1="992.09998"
   x2="425.20001"
   y2="963.79999"
   id="line541"
   style="stroke:#ff0000;stroke-opacity:1" />
	</g>
	<g
   id="LINE_1760_"
   style="stroke:#ff0000;stroke-opacity:1">
		<line
   class="st0"
   x1="425.20001"
   y1="819.20001"
   x2="425.20001"
   y2="725.70001"
   id="line544"
   style="stroke:#ff0000;stroke-opacity:1" />
	</g>
	<g
   id="LINE_1759_"
   style="stroke:#ff0000;stroke-opacity:1">
		<line
   class="st0"
   x1="396.89999"
   y1="589.59998"
   x2="425.20001"
   y2="618"
   id="line547"
   style="stroke:#ff0000;stroke-opacity:1" />
	</g>
	<g
   id="LINE_1758_"
   style="stroke:#ff0000;stroke-opacity:1">
		<line
   class="st0"
   x1="425.20001"
   y1="912.79999"
   x2="425.20001"
   y2="819.20001"
   id="line550"
   style="stroke:#ff0000;stroke-opacity:1" />
	</g>
	<g
   id="LINE_1757_"
   style="stroke:#ff0000;stroke-opacity:1">
		<line
   class="st0"
   x1="396.89999"
   y1="589.59998"
   x2="382.70001"
   y2="589.59998"
   id="line553"
   style="stroke:#ff0000;stroke-opacity:1" />
	</g>
	<g
   id="LINE_1756_"
   style="stroke:#ff0000;stroke-opacity:1">
		<line
   class="st0"
   x1="354.29999"
   y1="618"
   x2="382.70001"
   y2="589.59998"
   id="line556"
   style="stroke:#ff0000;stroke-opacity:1" />
	</g>
	<g
   id="LINE_1755_"
   style="stroke:#ff0000;stroke-opacity:1">
		<line
   class="st0"
   x1="425.20001"
   y1="632.09998"
   x2="425.20001"
   y2="618"
   id="line559"
   style="stroke:#ff0000;stroke-opacity:1" />
	</g>
	<g
   id="LINE_1753_"
   style="stroke:#ff0000;stroke-opacity:1">
		<line
   class="st0"
   x1="850.40002"
   y1="963.79999"
   x2="850.40002"
   y2="1105.5"
   id="line562"
   style="stroke:#ff0000;stroke-opacity:1" />
	</g>
	<g
   id="LINE_1752_"
   style="stroke:#ff0000;stroke-opacity:1">
		<line
   class="st0"
   x1="113.4"
   y1="978"
   x2="113.4"
   y2="992.09998"
   id="line565"
   style="stroke:#ff0000;stroke-opacity:1" />
	</g>
	<g
   id="LINE_1751_"
   style="stroke:#ff0000;stroke-opacity:1">
		<line
   class="st0"
   x1="113.4"
   y1="992.09998"
   x2="141.7"
   y2="992.09998"
   id="line568"
   style="stroke:#ff0000;stroke-opacity:1" />
	</g>
	<g
   id="LINE_1750_"
   style="stroke:#ff0000;stroke-opacity:1">
		<line
   class="st0"
   x1="354.29999"
   y1="850.40002"
   x2="354.29999"
   y2="819.20001"
   id="line571"
   style="stroke:#ff0000;stroke-opacity:1" />
	</g>
	<g
   id="LINE_1749_"
   style="stroke:#ff0000;stroke-opacity:1">
		<line
   class="st0"
   x1="354.29999"
   y1="819.20001"
   x2="354.29999"
   y2="793.70001"
   id="line574"
   style="stroke:#ff0000;stroke-opacity:1" />
	</g>
	<g
   id="LINE_1748_"
   style="stroke:#ff0000;stroke-opacity:1">
		<line
   class="st0"
   x1="354.29999"
   y1="623.59998"
   x2="354.29999"
   y2="618"
   id="line577"
   style="stroke:#ff0000;stroke-opacity:1" />
	</g>
	<g
   id="LINE_1747_"
   style="stroke:#ff0000;stroke-opacity:1">
		<line
   class="st0"
   x1="354.29999"
   y1="618"
   x2="354.29999"
   y2="566.90002"
   id="line580"
   style="stroke:#ff0000;stroke-opacity:1" />
	</g>
	<g
   id="LINE_1746_"
   style="stroke:#ff0000;stroke-opacity:1">
		<line
   class="st0"
   x1="595.29999"
   y1="793.70001"
   x2="538.59998"
   y2="793.70001"
   id="line583"
   style="stroke:#ff0000;stroke-opacity:1" />
	</g>
	<g
   id="LINE_1745_"
   style="stroke:#ff0000;stroke-opacity:1">
		<line
   class="st0"
   x1="538.59998"
   y1="595.29999"
   x2="510.20001"
   y2="595.29999"
   id="line586"
   style="stroke:#ff0000;stroke-opacity:1" />
	</g>
	<g
   id="LINE_1744_"
   style="stroke:#ff0000;stroke-opacity:1">
		<line
   class="st0"
   x1="510.20001"
   y1="595.29999"
   x2="481.89999"
   y2="595.29999"
   id="line589"
   style="stroke:#ff0000;stroke-opacity:1" />
	</g>
	<g
   id="LINE_1743_"
   style="stroke:#ff0000;stroke-opacity:1">
		<line
   class="st0"
   x1="354.29999"
   y1="793.70001"
   x2="354.29999"
   y2="725.70001"
   id="line592"
   style="stroke:#ff0000;stroke-opacity:1" />
	</g>
	<g
   id="LINE_1742_"
   style="stroke:#ff0000;stroke-opacity:1">
		<line
   class="st0"
   x1="354.29999"
   y1="912.79999"
   x2="354.29999"
   y2="850.40002"
   id="line595"
   style="stroke:#ff0000;stroke-opacity:1" />
	</g>
	<g
   id="LINE_1741_"
   style="stroke:#ff0000;stroke-opacity:1">
		<line
   class="st0"
   x1="354.29999"
   y1="632.09998"
   x2="354.29999"
   y2="623.59998"
   id="line598"
   style="stroke:#ff0000;stroke-opacity:1" />
	</g>
	<g
   id="LINE_1740_"
   style="stroke:#ff0000;stroke-opacity:1">
		<line
   class="st0"
   x1="850.40002"
   y1="28.299999"
   x2="850.40002"
   y2="170.10001"
   id="line601"
   style="stroke:#ff0000;stroke-opacity:1" />
	</g>
	<g
   id="LINE_1739_"
   style="stroke:#ff0000;stroke-opacity:1">
		<line
   class="st0"
   x1="113.4"
   y1="141.7"
   x2="113.4"
   y2="212.60001"
   id="line604"
   style="stroke:#ff0000;stroke-opacity:1" />
	</g>
	<g
   id="LINE_1738_"
   style="stroke:#ff0000;stroke-opacity:1">
		<line
   class="st0"
   x1="737"
   y1="141.7"
   x2="666.09998"
   y2="141.7"
   id="line607"
   style="stroke:#ff0000;stroke-opacity:1" />
	</g>
	<g
   id="LINE_1737_"
   style="stroke:#ff0000;stroke-opacity:1">
		<line
   class="st0"
   x1="609.40002"
   y1="141.7"
   x2="496.10001"
   y2="141.7"
   id="line610"
   style="stroke:#ff0000;stroke-opacity:1" />
	</g>
	<g
   id="LINE_1736_"
   style="stroke:#ff0000;stroke-opacity:1">
		<line
   class="st0"
   x1="595.29999"
   y1="722.79999"
   x2="637.79999"
   y2="722.79999"
   id="line613"
   style="stroke:#ff0000;stroke-opacity:1" />
	</g>
	<g
   id="LINE_1735_"
   style="stroke:#ff0000;stroke-opacity:1">
		<line
   class="st0"
   x1="666.09998"
   y1="722.79999"
   x2="708.70001"
   y2="722.79999"
   id="line616"
   style="stroke:#ff0000;stroke-opacity:1" />
	</g>
	<g
   id="LINE_1734_"
   style="stroke:#ff0000;stroke-opacity:1">
		<line
   class="st0"
   x1="439.39999"
   y1="141.7"
   x2="113.4"
   y2="141.7"
   id="line619"
   style="stroke:#ff0000;stroke-opacity:1" />
	</g>
	<g
   id="LINE_1733_"
   style="stroke:#ff0000;stroke-opacity:1">
		<line
   class="st0"
   x1="198.39999"
   y1="992.09998"
   x2="255.10001"
   y2="992.09998"
   id="line622"
   style="stroke:#ff0000;stroke-opacity:1" />
	</g>
	<g
   id="LINE_1732_"
   style="stroke:#ff0000;stroke-opacity:1">
		<line
   class="st0"
   x1="737"
   y1="566.90002"
   x2="737"
   y2="354.29999"
   id="line625"
   style="stroke:#ff0000;stroke-opacity:1" />
	</g>
	<g
   id="LINE_1731_"
   style="stroke:#ff0000;stroke-opacity:1">
		<line
   class="st0"
   x1="708.70001"
   y1="609.40002"
   x2="708.70001"
   y2="722.79999"
   id="line628"
   style="stroke:#ff0000;stroke-opacity:1" />
	</g>
	<g
   id="LINE_1730_"
   style="stroke:#ff0000;stroke-opacity:1">
		<line
   class="st0"
   x1="311.79999"
   y1="992.09998"
   x2="382.70001"
   y2="992.09998"
   id="line631"
   style="stroke:#ff0000;stroke-opacity:1" />
	</g>
	<g
   id="LINE_1729_"
   style="stroke:#ff0000;stroke-opacity:1">
		<line
   class="st0"
   x1="737"
   y1="297.60001"
   x2="737"
   y2="240.89999"
   id="line634"
   style="stroke:#ff0000;stroke-opacity:1" />
	</g>
	<g
   id="LINE_1728_"
   style="stroke:#ff0000;stroke-opacity:1">
		<line
   class="st0"
   x1="396.89999"
   y1="992.09998"
   x2="538.59998"
   y2="992.09998"
   id="line637"
   style="stroke:#ff0000;stroke-opacity:1" />
	</g>
	<g
   id="LINE_1727_"
   style="stroke:#ff0000;stroke-opacity:1">
		<line
   class="st0"
   x1="737"
   y1="184.3"
   x2="737"
   y2="141.7"
   id="line640"
   style="stroke:#ff0000;stroke-opacity:1" />
	</g>
	<g
   id="LINE_1726_"
   style="stroke:#ff0000;stroke-opacity:1">
		<line
   class="st0"
   x1="737"
   y1="28.299999"
   x2="850.40002"
   y2="28.299999"
   id="line643"
   style="stroke:#ff0000;stroke-opacity:1" />
	</g>
	<g
   id="LINE_1725_"
   style="stroke:#ff0000;stroke-opacity:1">
		<line
   class="st0"
   x1="113.4"
   y1="28.299999"
   x2="0"
   y2="28.299999"
   id="line646"
   style="stroke:#ff0000;stroke-opacity:1" />
	</g>
	<g
   id="LINE_1724_"
   style="stroke:#ff0000;stroke-opacity:1">
		<line
   class="st0"
   x1="737"
   y1="566.90002"
   x2="737"
   y2="992.09998"
   id="line649"
   style="stroke:#ff0000;stroke-opacity:1" />
	</g>
	<circle
   class="st0"
   cx="917.59998"
   cy="164"
   r="5.6999998"
   id="circle652"
   style="stroke:#ff0000;stroke-opacity:1;fill:none" />
	<circle
   class="st0"
   cx="1611.4"
   cy="566.90002"
   r="5.6999998"
   id="circle654"
   style="stroke:#ff0000;stroke-opacity:1;fill:none" />
	<circle
   class="st0"
   cx="915.5"
   cy="968.70001"
   r="5.6999998"
   id="circle656"
   style="stroke:#ff0000;stroke-opacity:1;fill:none" />
	<text
   transform="translate(370.5039,687.3942)"
   class="st1"
   id="text670"
   style="stroke:none;stroke-opacity:1;enable-background:new;"><tspan
     x="0"
     y="0"
     class="st2 st3 st4"
     id="tspan658"
     style="font-size:65.07260132px;font-family:CourierNewPSMT;fill:#231f20;stroke:none;stroke-opacity:1;">V</tspan><tspan
     x="0"
     y="48.099998"
     class="st2 st3 st4"
     id="tspan660"
     style="font-size:65.07260132px;font-family:CourierNewPSMT;fill:#231f20;stroke:none;stroke-opacity:1;">I</tspan><tspan
     x="0"
     y="96.300003"
     class="st2 st3 st4"
     id="tspan662"
     style="font-size:65.07260132px;font-family:CourierNewPSMT;fill:#231f20;stroke:none;stroke-opacity:1;">N</tspan><tspan
     x="0"
     y="144.39999"
     class="st2 st3 st4"
     id="tspan664"
     style="font-size:65.07260132px;font-family:CourierNewPSMT;fill:#231f20;stroke:none;stroke-opacity:1;">Y</tspan><tspan
     x="0"
     y="192.5"
     class="st2 st3 st4"
     id="tspan666"
     style="font-size:65.07260132px;font-family:CourierNewPSMT;fill:#231f20;stroke:none;stroke-opacity:1;">L</tspan><tspan
     x="0"
     y="240.60001"
     class="st2 st3 st4"
     id="tspan668"
     style="font-size:65.07260132px;font-family:CourierNewPSMT;fill:#231f20;stroke:none;stroke-opacity:1;">E</tspan></text>

</g>
<g
   id="contour"
   style="stroke:#ff0000;stroke-opacity:1">
	<rect
   class="st5"
   width="1700.8"
   height="1133.9"
   id="rect673"
   x="0"
   y="0"
   style="fill:none;stroke:#ff0000;stroke-miterlimit:10;stroke-opacity:1" />
</g>
</svg>